Run# shift raster C_run Kinematics dat/mc Wmin #bins pf dpf
72213 -0.6 1.0 n/a Perp,4.7,2.2,16 1.0 2.12 7 63.2 4.37
72247 0.6 1.0 n/a Perp,4.7,2.2,16 1.0 2.12 7 58.3 4.69
72278 0.2 1.0 n/a Perp,4.7,2.7,16 1.0 1.8 10 53.4 4.58
72281 0.3 1.0 n/a Perp,4.7,2.7,16 1.0 1.8 10 52.3 3.99
72379 -0.9 1.0 n/a Perp,4.7,2.2,16 1.0 2.12 7 67.6 5.55
72385 -0.2 1.0 n/a Perp,4.7,2.2,16 1.0 2.12 7 62.0 4.56
72658 -0.1 0.7 n/a Perp,5.9,3.1,15.4 1.0 2.1 10 56.6 4.29
72672 0.0 0.7 n/a Perp,5.9,3.1,15.4 1.0 2.1 10 55.2 4.22
72790 -0.1 0.7 n/a Perp,5.9,4.4,15.4 1.0 1.2 10 51.3 4.40
72795 -0.1 0.7 n/a Perp,5.9,4.4,15.4 1.0 1.2 10 49.6 4.27
72828 1.8 0.7 n/a Perp,4.7,2.2,16 1.0 2.12 7 50.7 4.26
(Parallel below)
72957 -0.4 1.4 72940 Para,5.9,3.1,15.4 1.01590 2.05 5 61.3 5.01
72959 -0.1 1.4 72940 Para,5.9,3.1,15.4 1.01590 2.05 5 62.5 5.72
72984 0.1 1.0 72971 Para,4.7,2.2,1.6 0.997484 2.15 8 67.7 4.15
72991 0.0 1.0 72971 Para,4.7,2.2,1.6 0.997484 2.15 8 65.8 4.21
73014 0.1 1.0 73027 Para,4.7,3.2,20.2 1.03960 1.25 10 58.7 4.53
73019 0.2 1.0 73027 Para,4.7,3.2,20.2 1.03960 1.25 10 61.5 4.76

Carbon runs
Run# shift C/C+He insert Kinematics raster dat/mc Wmin #bins
72290 0.6 C B Perp,4.7,2.7,16 1.0 0.948954 1.75 8
72377 0.4 C+He C Perp,4.7,2.2,16 1.0 0.869028 2.12 7
72442 -0.4 C+He C Perp,5.9,3.1,15.4 1.2 cannot be used
72754 * proton
72782 0.3 C B Perp,5.9,4.4,15.4 1.2 0.931419 1.2 10
72940 0.6 C C Para,5.9,3.1,15.4 1.4 1.01590 2.05 5
72953 0.4 C C Para,5.9,3.1,15.4 1.4 1.04304 2.15 6
72971 1.6 C+He B Para,4.7,2.2,16 1.0 0.997484 2.15 8
73027 0.5 C B Para,4.7,3.2,20.2 1.0 1.03960 1.25 10

