72213 -0.6 1.0 Average 80 4.7 2.2 16 0.923332 2.12 7 63.7 4.31
72247 0.6 1.0 Average 80 4.7 2.2 16 0.923332 2.12 7 57.4 4.14
72278 0.2 1.0 72290 80 4.7 2.7 16 0.916948 1.8 10 61.0 4.88
72281 0.3 1.0 72290 80 4.7 2.7 16 0.916948 1.8 10 59.7 4.51
72658 -0.1 0.7 Average 80 5.9 3.1 15.4 0.923332 2.1 10 57.0 4.43
72672 0.0 0.7 Average 80 5.9 3.1 15.4 0.923332 2.1 10 54.9 4.42
72790 -0.1 0.7 72782 80 5.9 4.4 15.4 0.929716 1.2 10 56.9 4.99
72795 -0.1 0.7 72782 80 5.9 4.4 15.4 0.929716 1.2 10 55.8 4.80
72828 -0.1 0.7 Average 80 4.7 2.2 16 0.923332 2.12 7 55.6 3.79

(180llel below)
