------------------------------------------------------------------
   6                            L-truncation (no truncation for L>5)
  EL+  EL-  ML+  ML-  LL+  LL-   (exclude individual multipoles)
   1    0    0    0    1    0     L=0
   1    0    1    1    1    1     L=1
   1    1    1    1    1    1     L=2
   1    1    1    1    1    1     L=3
   1    1    1    1    1    1     L=4
   1    1    1    1    1    1     L=5


------------------------------------------------------------------
   2                             only S-D interference
  EL+  EL-  ML+  ML-  LL+  LL-   (exclude individual multipoles)
   0    0    0    0    0    0     L=0
   0    0    0    0    0    0     L=1
   0    1    0    1    0    0     L=2
   1    1    1    1    1    1     L=3
   1    1    1    1    1    1     L=4
   1    1    1    1    1    1     L=5


------------------------------------------------------------------
   6                            L-truncation (no truncation for L>5)
  EL+  EL-  ML+  ML-  LL+  LL-   (exclude individual multipoles)
   1    0    0    0    1    0     L=0
   1    0    1    1    1    1     L=1
   1    1    1    1    1    1     L=2
   1    1    1    1    1    1     L=3
   1    1    1    1    1    1     L=4
   1    1    1    1    1    1     L=5


------------------------------------------------------------------
   2                             only S-D interference
  EL+  EL-  ML+  ML-  LL+  LL-   (exclude individual multipoles)
   0    0    0    0    0    0     L=0
   1    0    1    1    0    0     L=1
   1    1    1    1    0    0     L=2
   1    1    1    1    1    1     L=3
   1    1    1    1    1    1     L=4
   1    1    1    1    1    1     L=5



only S-D interference
------------------------------------------------------------------
   2                            L-truncation (no truncation for L>5)
  EL+  EL-  ML+  ML-  LL+  LL-   (exclude individual multipoles)
   1    0    0    0    1    0     L=0
   0    0    0    0    0    0     L=1
   1    1    1    1    1    1     L=2
   1    1    1    1    1    1     L=3
   1    1    1    1    1    1     L=4
   1    1    1    1    1    1     L=5



test with - values for Siegert limit
-----------------------------------------------------------------
   5                              L-truncation (no truncation for L>5)
  EL+  EL-  ML+  ML-  LL+  LL-   (exclude individual multipoles)
   1    0    0    0   -1    0     L=0
   1    0    1    1   -1    1     L=1
   1    1    1    1   -1    1     L=2
   1    1    1    1   -1    1     L=3
   1    1    1    1   -1    1     L=4
   1    1    1    1   -1    1     L=5




only S-waves:
-----------------------------------------------------------------
      0                              L-truncation
  EL+  EL-  ML+  ML-  LL+  LL-   (exclude individual multipoles)
   1    0    0    0    1    0     L=0
   1    0    1    1    1    1     L=1
   1    1    1    1    1    1     L=2
   1    1    1    1    1    1     L=3
   1    1    1    1    1    1     L=4
   1    1    1    1    1    1     L=5


only P33:
-----------------------------------------------------------------
      1                              L-truncation
  EL+  EL-  ML+  ML-  LL+  LL-   (exclude individual multipoles)
   0    0    0    0    0    0     L=0
   1    0    1    0    1    0     L=1
   1    1    1    1    1    1     L=2
   1    1    1    1    1    1     L=3
   1    1    1    1    1    1     L=4
   1    1    1    1    1    1     L=5


standard calculations without truncation:
------------------------------------------------------------------
   6                              L-truncation (no truncation for L>5)
  EL+  EL-  ML+  ML-  LL+  LL-   (exclude individual multipoles)
   1    0    0    0    1    0     L=0
   1    0    1    1    1    1     L=1
   1    1    1    1    1    1     L=2
   1    1    1    1    1    1     L=3
   1    1    1    1    1    1     L=4
   1    1    1    1    1    1     L=5


for study of individual multipoles:
-----------------------------------------------------------------
   4                              L-truncation
  EL+  EL-  ML+  ML-  LL+  LL-   (exclude individual multipoles)
   0    0    0    0    0    0     L=0
   0    0    0    0    0    0     L=1
   0    0    0    0    0    0     L=2
   0    0    0    0    0    0     L=3
   0    0    0    0    0    0     L=4
   0    0    0    0    0    0     L=5

without imaginary parts of P,D,F,G,H waves
------------------------------------------------------------------
   5                              L-truncation (no truncation for L>5)
  EL+  EL-  ML+  ML-  LL+  LL-   (exclude individual multipoles)
   1    0    0    0    1    0     L=0
  -2    0   -2   -2    1    1     L=1
  -2   -2   -2   -2    1    1     L=2
  -2   -2   -2   -2    1    1     L=3
  -2   -2   -2   -2    1    1     L=4
  -2   -2   -2   -2    1    1     L=5

