72824 1
72825 1
72826 1
72827 1
72828 1
72829 1
72830 1
72831 1
72832 0
72833 0
72834 0
72835 0
72836 0
72837 0
72838 0
72839 0
72840 0
72841 0
72842 0
72843 0
72844 1
72845 1
72846 1
72847 1
72848 1
72849 1
72850 1
72851 1
72852 1
72853 1
72854 2
72855 2
72856 1
72857 1
72858 1
72859 1
72860 1
72861 1
72862 1
72863 1
72864 1
72865 2
72866 0
72867 0
72868 0
72869 0
72870 0
72871 0
72872 1
72873 1
72874 1
72875 1
72876 1
72877 1
72878 1
72879 1
72880 1
72881 1
72882 0
72883 1
72884 1
72885 1
72886 2
72887 2
72888 1
72889 1
72890 1
72891 1
72892 1
72893 1
72894 1
72895 0
72896 0
72897 0
72898 0
72899 0
72900 0
72901 0
72902 0
72903 0
72904 0
72905 0
72906 0
72907 0
72908 0
72909 0
72910 0
72911 0
72912 0
72913 1
72914 1
72915 1
72916 1
72917 1
72918 1
72919 1
72920 1
72921 1
72922 1
72923 2
72924 2
72925 1
72926 1
72927 2
72928 1
72929 1
72930 1
72931 1
72932 1
72933 1
72934 1
72935 1
72936 1
72937 4
72938 0
72939 0
72940 5
72941 1
72942 1
72943 1
72944 1
72945 1
72946 1
72947 1
72948 1
72949 1
72950 2
72951 6
72952 5
72953 5
72954 5
72955 0
72956 1
72957 1
72958 2
72959 1
72960 1
72961 1
72962 2
72963 0
72964 0
72965 0
72966 0
72967 0
72968 0
72969 0
72970 4
72971 4
72972 6
72973 0
72974 0
72975 0
72976 0
72977 0
72978 0
72979 0
72980 0
72981 0
72982 0
72983 0
72984 1
72985 1
72986 1
72987 1
72988 1
72989 1
72990 1
72991 1
72992 1
72993 0
72994 5
72995 0
72996 0
72997 0
72998 0
72999 1
73000 1
73001 1
73002 1
73003 1
73004 1
73005 1
73006 4
73007 4
73008 4
73009 4
73010 1
73011 2
73012 1
73013 1
73014 1
73015 1
73016 1
73017 1
73018 2
73019 1
73020 1
73021 2
73022 1
73023 1
73024 1
73025 1
73026 6
73027 5
73028 1
73029 1
73030 0
73031 1
73032 1
73033 2
73034 1
73035 1
73036 1
73037 1
73038 1
73039 1
73040 1
73041 1
