run_number	target_typ
72150	Carbon
72151	Carbon
72152	Carbon
72153	Carbon
72154	Carbon
72155	Carbon
72156	Carbon
72157	Carbon
72159	Carbon
72160	Carbon
72161	Carbon
72162	NH3
72163	NH3
72164	NH3
72165	NH3
72166	NH3
72167	NH3
72168	NH3
72169	NH3
72170	NH3
72172	NH3
72173	NH3
72175	NH3
72176	NH3
72178	NH3
72179	NH3
72181	NH3
72182	NH3
72183	NH3
72184	NH3
72185	NH3
72186	Carbon
72187	Carbon
72188	hole
72190	CrossHair+He
72198	Carbon
72199	CrossHair+He
72200	CrossHair+He
72202	NH3
72203	NH3
72204	NH3
72240	CrossHair
72241	CrossHair
72299	CrossHair
72301	CrossHair
72302	NH3
72309	CrossHair
72310	CrossHair
72312	CrossHair
72313	CrossHair
72314	CrossHair
72315	CrossHair
72316	CrossHair
72317	CrossHair
72318	CrossHair
72319	CrossHair
72320	CrossHair
72321	CrossHair
72322	CrossHair
72323	CrossHair
72324	CrossHair
72325	CrossHair
72341	C+He
72343	C+He
72344	C+He
72345	C+He
72346	C+He
72347	C+He
72348	C+He
72375	Carbon
72377	Carbon
72385	NH3
72412	CrossHair
72413	CrossHair
72414	CrossHair
72430	NH3
72435	Carbon
72442	C+He
72447	NH3
72452	NH3
72478	NH3
72486	NH3
72504	Carbon
72505	Carbon
72506	CrossHair+He
72507	CrossHair+He
72508	CrossHair+He
72509	CrossHair+He
72510	CrossHair+He
72531	NH3
72532	NH3
72534	NH3
72545	NH3
72546	NH3
72547	NH3
72548	NH3
72549	NH3
72552	NH3
72553	NH3
72556	NH3
72557	NH3
72559	NH3
72560	NH3
72561	NH3
72562	NH3
72564	NH3
72565	NH3
72566	NH3
72567	NH3
72568	NH3
72569	NH3
72570	NH3
72571	NH3
72572	NH3
72573	NH3
72574	NH3
72576	NH3
72578	NH3
72579	NH3
72580	NH3
72697	C+He
72698	C+He
72718	CrossHair
72719	CrossHair
72740	hole
72754	Carbon
72782	Carbon
72815	hole
72816	CrossHair
72817	CrossHair
72818	CrossHair
72819	CrossHair
72820	CrossHair
72823	CrossHair
NULL	NULL
