%!PS-Adobe-2.0
%%Title: /home/whit/sane08/InSANE/main/neural_networks/NNParallel_1.ps: Neural Net training
%%Creator: ROOT Version 5.27/06a
%%CreationDate: Tue Sep  6 14:10:13 2011
%%Orientation: Portrait
%%EndComments
%%BeginProlog
/s {stroke} def /l {lineto} def /m {moveto} def /t {translate} def
/r {rotate} def /rl {roll}  def /R {repeat} def
/d {rlineto} def /rm {rmoveto} def /gr {grestore} def /f {eofill} def
/c {setrgbcolor} def /black {0 setgray} def /sd {setdash} def
/cl {closepath} def /sf {scalefont setfont} def /lw {setlinewidth} def
/box {m dup 0 exch d exch 0 d 0 exch neg d cl} def
/NC{systemdict begin initclip end}def/C{NC box clip newpath}def
/bl {box s} def /bf {box f} def /Y { 0 exch d} def /X { 0 d} def 
/K {{pop pop 0 moveto} exch kshow} bind def
/ita {/ang 15 def gsave [1 0 ang dup sin exch cos div 1 0 0] concat} def 
/mp {newpath /y exch def /x exch def} def
/side {[w .77 mul w .23 mul] .385 w mul sd w 0 l currentpoint t -144 r} def
/mr {mp x y w2 0 360 arc} def /m24 {mr s} def /m20 {mr f} def
/mb {mp x y w2 add m w2 neg 0 d 0 w neg d w 0 d 0 w d cl} def
/mt {mp x y w2 add m w2 neg w neg d w 0 d cl} def
/m21 {mb f} def /m25 {mb s} def /m22 {mt f} def /m26{mt s} def
/m23 {mp x y w2 sub m w2 w d w neg 0 d cl f} def
/m27 {mp x y w2 add m w3 neg w2 neg d w3 w2 neg d w3 w2 d cl s} def
/m28 {mp x w2 sub y w2 sub w3 add m w3 0 d  0 w3 neg d w3 0 d 0 w3 d w3 0 d  0 w3 d w3 neg 0 d 0 w3 d w3 neg 0 d 0 w3 neg d w3 neg 0 d cl s } def
/m29 {mp gsave x w2 sub y w2 add w3 sub m currentpoint t 4 {side} repeat cl fill gr} def
/m30 {mp gsave x w2 sub y w2 add w3 sub m currentpoint t 4 {side} repeat cl s gr} def
/m31 {mp x y w2 sub m 0 w d x w2 sub y m w 0 d x w2 sub y w2 add m w w neg d x w2 sub y w2 sub m w w d s} def
/m32 {mp x y w2 sub m w2 w d w neg 0 d cl s} def
/m33 {mp x y w2 add m w3 neg w2 neg d w3 w2 neg d w3 w2 d cl f} def
/m34 {mp x w2 sub y w2 sub w3 add m w3 0 d  0 w3 neg d w3 0 d 0 w3 d w3 0 d  0 w3 d w3 neg 0 d 0 w3 d w3 neg 0 d 0 w3 neg d w3 neg 0 d cl f } def
/m2 {mp x y w2 sub m 0 w d x w2 sub y m w 0 d s} def
/m5 {mp x w2 sub y w2 sub m w w d x w2 sub y w2 add m w w neg d s} def
/reEncode {exch findfont dup length dict begin {1 index /FID eq  {pop pop} {def} ifelse } forall /Encoding exch def currentdict end dup /FontName get exch definefont pop } def [/Times-Bold /Times-Italic /Times-BoldItalic /Helvetica /Helvetica-Oblique
 /Helvetica-Bold /Helvetica-BoldOblique /Courier /Courier-Oblique /Courier-Bold /Courier-BoldOblique /Times-Roman /AvantGarde-Book /AvantGarde-BookOblique /AvantGarde-Demi /AvantGarde-DemiOblique /Bookman-Demi /Bookman-DemiItalic /Bookman-Light
 /Bookman-LightItalic /Helvetica-Narrow /Helvetica-Narrow-Bold /Helvetica-Narrow-BoldOblique /Helvetica-Narrow-Oblique /NewCenturySchlbk-Roman /NewCenturySchlbk-Bold /NewCenturySchlbk-BoldItalic /NewCenturySchlbk-Italic /Palatino-Bold
 /Palatino-BoldItalic /Palatino-Italic /Palatino-Roman ] {ISOLatin1Encoding reEncode } forall/Zone {/iy exch def /ix exch def  ix 1 sub  2224 mul  1 iy sub  3144 mul t} def
%%EndProlog
%%BeginSetup
%%EndSetup
newpath  gsave  20 28 t .25 .25 scale  gsave 
%%Page: 1 1
 gsave  gsave 
 1 1 Zone
 gsave  0 0 t black[  ] 0 sd 3 lw 1 1 1 c 2268 2352 0 0 bf black 6 lw 1 1 1 c black 1724 1882 317 235 bl 1724 1882 317 235 bl 1 1 1 c black 1724 1882 317 235 bl 1724 1882 317 235 bl 3 lw 317 235 m 1724 X s
 gsave  2268 2352 0 0 C 1749.81 39.75 t 0 r /Helvetica findfont 104.263 sf 0 0 m (Epoch) show NC gr  396 271 m -36 Y s 459 253 m -18 Y s 521 253 m -18 Y s 584 253 m -18 Y s 647 253 m -18 Y s 710 271 m -36 Y s 773 253 m -18 Y s 835 253 m -18 Y s 898
 253 m -18 Y s 961 253 m -18 Y s 1024 271 m -36 Y s 1087 253 m -18 Y s 1149 253 m -18 Y s 1212 253 m -18 Y s 1275 253 m -18 Y s 1338 271 m -36 Y s 1401 253 m -18 Y s 1463 253 m -18 Y s 1526 253 m -18 Y s 1589 253 m -18 Y s 1652 271 m -36 Y s 1715 253
 m -18 Y s 1777 253 m -18 Y s 1840 253 m -18 Y s 1903 253 m -18 Y s 1966 271 m -36 Y s 396 271 m -36 Y s 333 253 m -18 Y s 1966 271 m -36 Y s 2029 253 m -18 Y s
 gsave  2268 2352 0 0 C 368.438 117.938 t 0 r /Helvetica findfont 94.4882 sf 0 0 m (0) show NC gr 
 gsave  2268 2352 0 0 C 629 117.938 t 0 r /Helvetica findfont 94.4882 sf 0 0 m (100) show NC gr 
 gsave  2268 2352 0 0 C 945.062 117.938 t 0 r /Helvetica findfont 94.4882 sf 0 0 m (200) show NC gr 
 gsave  2268 2352 0 0 C 1257.81 117.938 t 0 r /Helvetica findfont 94.4882 sf 0 0 m (300) show NC gr 
 gsave  2268 2352 0 0 C 1570.62 117.938 t 0 r /Helvetica findfont 94.4882 sf 0 0 m (400) show NC gr 
 gsave  2268 2352 0 0 C 1886.69 117.938 t 0 r /Helvetica findfont 94.4882 sf 0 0 m (500) show NC gr  317 2117 m 1724 X s 396 2081 m 36 Y s 459 2099 m 18 Y s 521 2099 m 18 Y s 584 2099 m 18 Y s 647 2099 m 18 Y s 710 2081 m 36 Y s 773 2099 m 18 Y s 835
 2099 m 18 Y s 898 2099 m 18 Y s 961 2099 m 18 Y s 1024 2081 m 36 Y s 1087 2099 m 18 Y s 1149 2099 m 18 Y s 1212 2099 m 18 Y s 1275 2099 m 18 Y s 1338 2081 m 36 Y s 1401 2099 m 18 Y s 1463 2099 m 18 Y s 1526 2099 m 18 Y s 1589 2099 m 18 Y s 1652 2081
 m 36 Y s 1715 2099 m 18 Y s 1777 2099 m 18 Y s 1840 2099 m 18 Y s 1903 2099 m 18 Y s 1966 2081 m 36 Y s 396 2081 m 36 Y s 333 2099 m 18 Y s 1966 2081 m 36 Y s 2029 2099 m 18 Y s 317 235 m 1882 Y s
 gsave  2268 2352 0 0 C 189.188 1883.88 t 90 r /Helvetica findfont 104.263 sf 0 0 m (Error) show NC gr  354 243 m -37 X s 336 289 m -19 X s 336 336 m -19 X s 336 383 m -19 X s 336 429 m -19 X s 354 476 m -37 X s 336 522 m -19 X s 336 569 m -19 X s
 336 616 m -19 X s 336 662 m -19 X s 354 709 m -37 X s 336 755 m -19 X s 336 802 m -19 X s 336 849 m -19 X s 336 895 m -19 X s 354 942 m -37 X s 336 988 m -19 X s 336 1035 m -19 X s 336 1082 m -19 X s 336 1128 m -19 X s 354 1175 m -37 X s 336 1222 m
 -19 X s 336 1268 m -19 X s 336 1315 m -19 X s 336 1361 m -19 X s 354 1408 m -37 X s 336 1455 m -19 X s 336 1501 m -19 X s 336 1548 m -19 X s 336 1594 m -19 X s 354 1641 m -37 X s 336 1688 m -19 X s 336 1734 m -19 X s 336 1781 m -19 X s 336 1827 m
 -19 X s 354 1874 m -37 X s 336 1921 m -19 X s 336 1967 m -19 X s 336 2014 m -19 X s 336 2061 m -19 X s 354 2107 m -37 X s 354 243 m -37 X s 354 2107 m -37 X s
 gsave  2268 2352 0 0 C 130.562 209.188 t 0 r /Helvetica findfont 94.4882 sf 0 0 m (240) show NC gr 
 gsave  2268 2352 0 0 C 130.562 443.75 t 0 r /Helvetica findfont 94.4882 sf 0 0 m (250) show NC gr 
 gsave  2268 2352 0 0 C 130.562 675.125 t 0 r /Helvetica findfont 94.4882 sf 0 0 m (260) show NC gr 
 gsave  2268 2352 0 0 C 130.562 909.688 t 0 r /Helvetica findfont 94.4882 sf 0 0 m (270) show NC gr 
 gsave  2268 2352 0 0 C 130.562 1141.06 t 0 r /Helvetica findfont 94.4882 sf 0 0 m (280) show NC gr 
 gsave  2268 2352 0 0 C 130.562 1375.62 t 0 r /Helvetica findfont 94.4882 sf 0 0 m (290) show NC gr 
 gsave  2268 2352 0 0 C 130.562 1606.94 t 0 r /Helvetica findfont 94.4882 sf 0 0 m (300) show NC gr 
 gsave  2268 2352 0 0 C 130.562 1841.56 t 0 r /Helvetica findfont 94.4882 sf 0 0 m (310) show NC gr 
 gsave  2268 2352 0 0 C 130.562 2072.88 t 0 r /Helvetica findfont 94.4882 sf 0 0 m (320) show NC gr  2041 235 m 1882 Y s 2005 243 m 36 X s 2023 289 m 18 X s 2023 336 m 18 X s 2023 383 m 18 X s 2023 429 m 18 X s 2005 476 m 36 X s 2023 522 m 18 X s
 2023 569 m 18 X s 2023 616 m 18 X s 2023 662 m 18 X s 2005 709 m 36 X s 2023 755 m 18 X s 2023 802 m 18 X s 2023 849 m 18 X s 2023 895 m 18 X s 2005 942 m 36 X s 2023 988 m 18 X s 2023 1035 m 18 X s 2023 1082 m 18 X s 2023 1128 m 18 X s 2005 1175 m
 36 X s 2023 1222 m 18 X s 2023 1268 m 18 X s 2023 1315 m 18 X s 2023 1361 m 18 X s 2005 1408 m 36 X s 2023 1455 m 18 X s 2023 1501 m 18 X s 2023 1548 m 18 X s 2023 1594 m 18 X s 2005 1641 m 36 X s 2023 1688 m 18 X s 2023 1734 m 18 X s 2023 1781 m 18
 X s 2023 1827 m 18 X s 2005 1874 m 36 X s 2023 1921 m 18 X s 2023 1967 m 18 X s 2023 2014 m 18 X s 2023 2061 m 18 X s 2005 2107 m 36 X s 2005 243 m 36 X s 2005 2107 m 36 X s 0 0 1 c black 0 0 1 c 396 2015 m 3 -218 d 3 -34 d 3 -40 d 3 -15 d 4 -8 d 3
 -7 d 3 -10 d 3 -22 d 3 -81 d 3 -4 d 3 -43 d 3 -17 d 4 -26 d 3 -43 d 3 -57 d 3 -12 d 3 -23 d 3 -39 d 3 -15 d 4 -30 d 3 -36 d 3 -37 d 3 -23 d 3 -46 d 3 -17 d 3 -76 d 4 -67 d 3 -36 d 3 -35 d 3 -79 d 3 -41 d 3 -27 d 3 -15 d 4 -9 d 3 -15 d 3 -13 d 3 -11
 d 3 -6 d 3 -11 d 3 -5 d 4 -3 d 3 -4 d 3 -5 d 3 -7 d 3 -3 d 3 -4 d 3 -3 d 4 X 3 -2 d 3 X 3 -1 d 9 X 4 -1 d 6 X 3 -1 d 16 X 3 -2 d 3 -1 d 3 X 3 -1 d 3 -1 d 3 -1 d 4 -1 d 3 -1 d 3 -2 d 3 -1 d 3 -1 d 3 X 3 -1 d 4 X 3 -1 d 3 -5 d 3 -2 d 3 -1 d 3 -2 d 3
 -4 d 4 -1 d 6 X 3 -3 d 3 -3 d 3 -1 d 3 -4 d 4 -5 d 3 -6 d 3 -6 d 3 -3 d 3 -10 d 3 -8 d 3 -6 d 4 -7 d 3 -7 d 3 -7 d 3 -5 d 3 -1 d 3 -2 d 3 -2 d 4 -2 d 3 -6 d 3 -7 d 3 -3 d 3 -1 d 3 -2 d 3 -10 d 3 -10 d 4 -16 d 3 X 3 -1 d 3 X 3 -2 d 3 -2 d 3 X 4 -2 d
 3 -5 d 3 -3 d 3 -3 d 3 -4 d 3 -1 d 3 -7 d 4 -2 d 3 -4 d 3 -2 d 3 -3 d 3 -4 d 3 -10 d 3 -8 d 4 -9 d 3 -5 d 3 -5 d 3 -3 d 3 X 3 -2 d 3 -2 d 4 X 3 -1 d 3 X 3 -1 d 13 X 3 -1 d 3 -1 d 6 X 3 -1 d 47 X 3 -1 d 4 X 3 -1 d 3 X 3 -1 d 3 -1 d 3 X 3 -1 d 7 X 3
 -2 d 3 -1 d 3 -2 d 6 X 4 -1 d 3 -1 d 12 X 3 -1 d 69 X 4 -1 d 28 X 3 -1 d 3 X 3 -1 d 3 -2 d 4 -1 d 3 X 3 -1 d 3 -1 d 3 X 3 -1 d 16 X 3 -1 d 6 X 4 -1 d 40 X 3 -1 d 57 X 3 -1 d 10 X 3 -3 d 3 -2 d 3 -1 d 3 -2 d 3 -1 d 3 -1 d 4 X 3 -1 d 3 X 3 -2 d 3 -1 d
 3 -1 d 3 -1 d 154 X 3 -1 d 274 X 3 -1 d 210 X 3 -1 d 10 X s 1 0 0 c black 1 0 0 c 396 2032 m 3 -221 d 3 -20 d 3 -42 d 3 -10 d 4 -14 d 3 -8 d 3 -7 d 3 -24 d 3 -93 d 3 X 3 -29 d 3 -18 d 4 -30 d 3 -45 d 3 -72 d 3 -10 d 3 -36 d 3 -41 d 3 -11 d 4 -31 d 3
 -32 d 3 -26 d 3 -11 d 3 -58 d 3 -23 d 3 -73 d 4 -69 d 3 -36 d 3 -41 d 3 -44 d 3 -53 d 3 -22 d 3 -21 d 4 -9 d 3 -20 d 3 -18 d 3 -14 d 3 -1 d 3 -7 d 3 X 4 7 d 3 -2 d 3 -18 d 3 -7 d 3 -3 d 3 -5 d 3 -1 d 4 -1 d 3 -4 d 3 X 3 -1 d 3 -1 d 3 X 3 -1 d 4 -2 d
 3 X 3 -1 d 6 X 3 -1 d 10 X 3 3 d 3 -2 d 3 X 3 -3 d 3 -1 d 3 -3 d 4 X 3 -1 d 3 -5 d 3 -3 d 3 -1 d 3 -3 d 7 X 3 1 d 3 2 d 3 -5 d 3 -1 d 3 -3 d 3 -4 d 4 -1 d 3 X 3 -1 d 3 -11 d 3 -2 d 3 X 3 -6 d 4 -13 d 3 -4 d 3 -3 d 3 -7 d 3 -16 d 3 -1 d 3 X 4 -6 d 3
 -9 d 3 -16 d 3 -3 d 3 X 3 -2 d 3 -2 d 4 -5 d 3 -5 d 3 -2 d 3 -1 d 3 -2 d 3 -3 d 3 -13 d 3 -4 d 4 -10 d 3 1 d 3 1 d 3 -2 d 3 -3 d 3 X 3 -1 d 4 -2 d 3 -6 d 3 -3 d 3 -2 d 3 X 3 3 d 3 -4 d 4 -1 d 3 -5 d 3 -2 d 3 -1 d 3 X 3 -2 d 3 -11 d 4 -3 d 3 -8 d 3
 -1 d 3 -2 d 3 -1 d 3 1 d 3 3 d 4 2 d 3 -1 d 3 -2 d 6 X 3 -1 d 7 X 3 -3 d 6 X 3 -1 d 3 X 3 -1 d 3 X 4 1 d 9 X 3 1 d 22 X 3 -1 d 3 -1 d 4 -2 d 3 -2 d 3 -3 d 3 -3 d 3 -1 d 3 -1 d 3 -1 d 7 X 3 1 d 6 X 3 -1 d 3 X 4 -1 d 3 -2 d 3 X 3 1 d 13 X 3 -1 d 6 X 3
 -1 d 3 1 d 3 -1 d 66 X 3 -1 d 7 X 3 1 d 3 -1 d 3 -1 d 3 1 d 3 1 d 4 -1 d 3 -1 d 3 1 d 3 -1 d 9 X 4 -1 d 3 -1 d 3 -1 d 3 X 3 -1 d 3 -1 d 3 -1 d 7 X 3 -1 d 12 X 4 1 d 9 X 3 -1 d 16 X 3 1 d 12 X 4 -1 d 9 X 3 -1 d 16 X 3 1 d 9 X 4 -1 d 3 -2 d 3 -2 d 3
 -1 d 3 -1 d 3 -2 d 10 X 3 -1 d 3 -1 d 3 -1 d 3 -1 d 3 X 4 -1 d 18 X 3 -1 d 4 1 d 78 X 3 -1 d 13 X 3 1 d 13 X 3 -1 d 22 X 3 1 d 15 X 4 1 d 81 X 3 -1 d 4 1 d 6 X 3 -1 d 3 X 3 1 d 10 X 3 1 d 37 X 4 1 d 3 -1 d 63 X 3 1 d 3 -1 d 22 X 3 1 d 16 X 3 -1 d 31
 X 3 -1 d 91 X 4 1 d 6 X 3 -1 d 3 1 d 16 X 3 1 d 28 X 3 1 d 7 X s black 0.95 0.95 0.95 c 453 353 1701 1882 bf black 1720 1882 m -13 Y 447 X 346 Y -13 X -333 Y f 1701 1882 m 353 Y 453 X -353 Y -453 X cl s
 gsave  2268 2352 0 0 C 1811.75 2134.81 t 0 r /Helvetica-Bold findfont 39.0986 sf 0 0 m 
 271 261 237 203 181 160 149 126 102 91 68 57 36 21
(Training sample) K NC gr  0 0 1 c 1718 2147 m 79 X s black
 gsave  2268 2352 0 0 C 1811.75 1958.88 t 0 r /Helvetica-Bold findfont 39.0986 sf 0 0 m 
 198 188 164 130 108 87 76 63 42 21
(Test sample) K NC gr  1 0 0 c 1718 1970 m 79 X s gr showpage
 gr 
%%Trailer
%%Pages:  1
 gr  gr  gr 
%%EOF
