%!PS-Adobe-2.0
%%Title: /home/whit/sane08/InSANE/main/neural_networks/NNPerpendicular_1_training.ps: Neural Net training
%%Creator: ROOT Version 5.27/06a
%%CreationDate: Tue Sep  6 16:54:31 2011
%%Orientation: Portrait
%%EndComments
%%BeginProlog
/s {stroke} def /l {lineto} def /m {moveto} def /t {translate} def
/r {rotate} def /rl {roll}  def /R {repeat} def
/d {rlineto} def /rm {rmoveto} def /gr {grestore} def /f {eofill} def
/c {setrgbcolor} def /black {0 setgray} def /sd {setdash} def
/cl {closepath} def /sf {scalefont setfont} def /lw {setlinewidth} def
/box {m dup 0 exch d exch 0 d 0 exch neg d cl} def
/NC{systemdict begin initclip end}def/C{NC box clip newpath}def
/bl {box s} def /bf {box f} def /Y { 0 exch d} def /X { 0 d} def 
/K {{pop pop 0 moveto} exch kshow} bind def
/ita {/ang 15 def gsave [1 0 ang dup sin exch cos div 1 0 0] concat} def 
/mp {newpath /y exch def /x exch def} def
/side {[w .77 mul w .23 mul] .385 w mul sd w 0 l currentpoint t -144 r} def
/mr {mp x y w2 0 360 arc} def /m24 {mr s} def /m20 {mr f} def
/mb {mp x y w2 add m w2 neg 0 d 0 w neg d w 0 d 0 w d cl} def
/mt {mp x y w2 add m w2 neg w neg d w 0 d cl} def
/m21 {mb f} def /m25 {mb s} def /m22 {mt f} def /m26{mt s} def
/m23 {mp x y w2 sub m w2 w d w neg 0 d cl f} def
/m27 {mp x y w2 add m w3 neg w2 neg d w3 w2 neg d w3 w2 d cl s} def
/m28 {mp x w2 sub y w2 sub w3 add m w3 0 d  0 w3 neg d w3 0 d 0 w3 d w3 0 d  0 w3 d w3 neg 0 d 0 w3 d w3 neg 0 d 0 w3 neg d w3 neg 0 d cl s } def
/m29 {mp gsave x w2 sub y w2 add w3 sub m currentpoint t 4 {side} repeat cl fill gr} def
/m30 {mp gsave x w2 sub y w2 add w3 sub m currentpoint t 4 {side} repeat cl s gr} def
/m31 {mp x y w2 sub m 0 w d x w2 sub y m w 0 d x w2 sub y w2 add m w w neg d x w2 sub y w2 sub m w w d s} def
/m32 {mp x y w2 sub m w2 w d w neg 0 d cl s} def
/m33 {mp x y w2 add m w3 neg w2 neg d w3 w2 neg d w3 w2 d cl f} def
/m34 {mp x w2 sub y w2 sub w3 add m w3 0 d  0 w3 neg d w3 0 d 0 w3 d w3 0 d  0 w3 d w3 neg 0 d 0 w3 d w3 neg 0 d 0 w3 neg d w3 neg 0 d cl f } def
/m2 {mp x y w2 sub m 0 w d x w2 sub y m w 0 d s} def
/m5 {mp x w2 sub y w2 sub m w w d x w2 sub y w2 add m w w neg d s} def
/reEncode {exch findfont dup length dict begin {1 index /FID eq  {pop pop} {def} ifelse } forall /Encoding exch def currentdict end dup /FontName get exch definefont pop } def [/Times-Bold /Times-Italic /Times-BoldItalic /Helvetica /Helvetica-Oblique
 /Helvetica-Bold /Helvetica-BoldOblique /Courier /Courier-Oblique /Courier-Bold /Courier-BoldOblique /Times-Roman /AvantGarde-Book /AvantGarde-BookOblique /AvantGarde-Demi /AvantGarde-DemiOblique /Bookman-Demi /Bookman-DemiItalic /Bookman-Light
 /Bookman-LightItalic /Helvetica-Narrow /Helvetica-Narrow-Bold /Helvetica-Narrow-BoldOblique /Helvetica-Narrow-Oblique /NewCenturySchlbk-Roman /NewCenturySchlbk-Bold /NewCenturySchlbk-BoldItalic /NewCenturySchlbk-Italic /Palatino-Bold
 /Palatino-BoldItalic /Palatino-Italic /Palatino-Roman ] {ISOLatin1Encoding reEncode } forall/Zone {/iy exch def /ix exch def  ix 1 sub  2224 mul  1 iy sub  3144 mul t} def
%%EndProlog
%%BeginSetup
%%EndSetup
newpath  gsave  20 28 t .25 .25 scale  gsave 
%%Page: 1 1
 gsave  gsave 
 1 1 Zone
 gsave  0 0 t black[  ] 0 sd 3 lw 1 1 1 c 2268 2352 0 0 bf black 6 lw 1 1 1 c black 1724 1882 317 235 bl 1724 1882 317 235 bl 1 1 1 c black 1724 1882 317 235 bl 1724 1882 317 235 bl 3 lw 317 235 m 1724 X s
 gsave  2268 2352 0 0 C 1749.81 39.9375 t 0 r /Helvetica findfont 104.263 sf 0 0 m (Epoch) show NC gr  396 271 m -36 Y s 475 253 m -18 Y s 553 253 m -18 Y s 632 253 m -18 Y s 711 253 m -18 Y s 789 271 m -36 Y s 868 253 m -18 Y s 947 253 m -18 Y s
 1026 253 m -18 Y s 1104 253 m -18 Y s 1183 271 m -36 Y s 1262 253 m -18 Y s 1341 253 m -18 Y s 1419 253 m -18 Y s 1498 253 m -18 Y s 1577 271 m -36 Y s 1656 253 m -18 Y s 1734 253 m -18 Y s 1813 253 m -18 Y s 1892 253 m -18 Y s 1970 271 m -36 Y s
 396 271 m -36 Y s 1970 271 m -36 Y s
 gsave  2268 2352 0 0 C 368.438 118.125 t 0 r /Helvetica findfont 94.4882 sf 0 0 m (0) show NC gr 
 gsave  2268 2352 0 0 C 736.5 118.125 t 0 r /Helvetica findfont 94.4882 sf 0 0 m (50) show NC gr 
 gsave  2268 2352 0 0 C 1104.69 118.125 t 0 r /Helvetica findfont 94.4882 sf 0 0 m (100) show NC gr 
 gsave  2268 2352 0 0 C 1495.69 118.125 t 0 r /Helvetica findfont 94.4882 sf 0 0 m (150) show NC gr 
 gsave  2268 2352 0 0 C 1889.94 118.125 t 0 r /Helvetica findfont 94.4882 sf 0 0 m (200) show NC gr  317 2117 m 1724 X s 396 2081 m 36 Y s 475 2099 m 18 Y s 553 2099 m 18 Y s 632 2099 m 18 Y s 711 2099 m 18 Y s 789 2081 m 36 Y s 868 2099 m 18 Y s 947
 2099 m 18 Y s 1026 2099 m 18 Y s 1104 2099 m 18 Y s 1183 2081 m 36 Y s 1262 2099 m 18 Y s 1341 2099 m 18 Y s 1419 2099 m 18 Y s 1498 2099 m 18 Y s 1577 2081 m 36 Y s 1656 2099 m 18 Y s 1734 2099 m 18 Y s 1813 2099 m 18 Y s 1892 2099 m 18 Y s 1970
 2081 m 36 Y s 396 2081 m 36 Y s 1970 2081 m 36 Y s 317 235 m 1882 Y s
 gsave  2268 2352 0 0 C 189.188 1884.12 t 90 r /Helvetica findfont 104.263 sf 0 0 m (Error) show NC gr  354 325 m -37 X s 336 380 m -19 X s 336 434 m -19 X s 336 489 m -19 X s 336 544 m -19 X s 354 598 m -37 X s 336 653 m -19 X s 336 708 m -19 X s
 336 762 m -19 X s 336 817 m -19 X s 354 872 m -37 X s 336 926 m -19 X s 336 981 m -19 X s 336 1035 m -19 X s 336 1090 m -19 X s 354 1145 m -37 X s 336 1199 m -19 X s 336 1254 m -19 X s 336 1309 m -19 X s 336 1363 m -19 X s 354 1418 m -37 X s 336
 1473 m -19 X s 336 1527 m -19 X s 336 1582 m -19 X s 336 1637 m -19 X s 354 1691 m -37 X s 336 1746 m -19 X s 336 1801 m -19 X s 336 1855 m -19 X s 336 1910 m -19 X s 354 1965 m -37 X s 354 325 m -37 X s 336 270 m -19 X s 354 1965 m -37 X s 336 2019
 m -19 X s 336 2074 m -19 X s
 gsave  2268 2352 0 0 C 137.062 290.812 t 0 r /Helvetica findfont 94.4882 sf 0 0 m 
 99 46
(110) K NC gr 
 gsave  2268 2352 0 0 C 130.562 564.5 t 0 r /Helvetica findfont 94.4882 sf 0 0 m (120) show NC gr 
 gsave  2268 2352 0 0 C 130.562 838.188 t 0 r /Helvetica findfont 94.4882 sf 0 0 m (130) show NC gr 
 gsave  2268 2352 0 0 C 130.562 1111.88 t 0 r /Helvetica findfont 94.4882 sf 0 0 m (140) show NC gr 
 gsave  2268 2352 0 0 C 130.562 1385.62 t 0 r /Helvetica findfont 94.4882 sf 0 0 m (150) show NC gr 
 gsave  2268 2352 0 0 C 130.562 1659.31 t 0 r /Helvetica findfont 94.4882 sf 0 0 m (160) show NC gr 
 gsave  2268 2352 0 0 C 130.562 1929.69 t 0 r /Helvetica findfont 94.4882 sf 0 0 m (170) show NC gr  2041 235 m 1882 Y s 2005 325 m 36 X s 2023 380 m 18 X s 2023 434 m 18 X s 2023 489 m 18 X s 2023 544 m 18 X s 2005 598 m 36 X s 2023 653 m 18 X s
 2023 708 m 18 X s 2023 762 m 18 X s 2023 817 m 18 X s 2005 872 m 36 X s 2023 926 m 18 X s 2023 981 m 18 X s 2023 1035 m 18 X s 2023 1090 m 18 X s 2005 1145 m 36 X s 2023 1199 m 18 X s 2023 1254 m 18 X s 2023 1309 m 18 X s 2023 1363 m 18 X s 2005
 1418 m 36 X s 2023 1473 m 18 X s 2023 1527 m 18 X s 2023 1582 m 18 X s 2023 1637 m 18 X s 2005 1691 m 36 X s 2023 1746 m 18 X s 2023 1801 m 18 X s 2023 1855 m 18 X s 2023 1910 m 18 X s 2005 1965 m 36 X s 2005 325 m 36 X s 2023 270 m 18 X s 2005 1965
 m 36 X s 2023 2019 m 18 X s 2023 2074 m 18 X s 0 0 1 c black 0 0 1 c 396 2009 m 8 -303 d 8 -385 d 7 -71 d 8 -107 d 8 -24 d 8 -69 d 8 -173 d 8 -135 d 8 -87 d 8 -35 d 7 -23 d 8 -20 d 8 -25 d 8 -14 d 8 -12 d 8 -13 d 8 -13 d 8 -9 d 7 -6 d 8 -12 d 8 -10
 d 8 -2 d 8 -3 d 8 -2 d 8 -2 d 8 -2 d 7 -4 d 8 -3 d 8 -3 d 8 -2 d 8 -1 d 8 -2 d 8 X 8 -2 d 7 -2 d 8 -1 d 8 -4 d 8 -3 d 8 -3 d 8 -2 d 8 -3 d 7 -1 d 8 -1 d 8 -1 d 8 X 8 -1 d 8 -1 d 16 X 7 -2 d 8 -1 d 8 -2 d 8 -2 d 16 X 8 -2 d 8 -1 d 7 -1 d 8 X 8 -1 d 8
 X 8 -1 d 8 X 8 -1 d 8 -1 d 7 X 8 -1 d 8 -1 d 8 X 8 -1 d 8 X 8 -2 d 8 X 7 -1 d 8 -2 d 8 -4 d 8 -2 d 8 -2 d 8 -2 d 8 -3 d 8 X 7 -3 d 8 -2 d 8 -2 d 8 -3 d 8 -3 d 8 -1 d 8 -1 d 8 -2 d 7 -2 d 8 -1 d 8 -1 d 8 -1 d 8 X 8 -1 d 8 -1 d 8 -2 d 7 -2 d 8 -2 d
 103 X 8 -1 d 31 X 8 -1 d 16 X 7 -2 d 8 -1 d 8 X 8 -2 d 8 -2 d 8 -2 d 8 -1 d 8 X 7 -1 d 8 -1 d 24 X 8 -1 d 307 X 8 -1 d 8 X 8 -1 d 7 X 8 -1 d 8 X 8 -1 d 24 X 8 -1 d 7 -1 d 8 -1 d 47 X 8 -1 d 16 X 8 -1 d 16 X 8 -1 d s 1 0 0 c black 1 0 0 c 396 2032 m
 8 -311 d 8 -384 d 7 -66 d 8 -105 d 8 -25 d 8 -66 d 8 -175 d 8 -129 d 8 -87 d 8 -36 d 7 -24 d 8 -19 d 8 -26 d 8 -12 d 8 -14 d 8 -15 d 8 -13 d 8 -10 d 7 -6 d 8 -11 d 8 -7 d 8 -2 d 8 -4 d 8 -1 d 8 -1 d 8 -1 d 7 -7 d 8 -5 d 8 -5 d 8 -2 d 8 -1 d 16 X 8
 -4 d 7 -2 d 8 -2 d 8 -6 d 8 -3 d 8 -4 d 8 -3 d 8 -2 d 15 X 8 -1 d 8 X 8 -1 d 24 X 7 -1 d 8 -1 d 8 -1 d 8 -4 d 8 -1 d 8 X 8 -3 d 8 1 d 7 X 8 1 d 8 X 8 -2 d 8 X 8 -1 d 8 X 8 -1 d 7 X 8 -1 d 8 -1 d 8 -1 d 8 -1 d 8 -2 d 8 -2 d 8 -2 d 15 X 8 -4 d 8 -3 d
 8 -4 d 8 -2 d 8 -1 d 8 -1 d 7 -2 d 8 -1 d 8 -1 d 8 -2 d 8 -4 d 8 -1 d 8 X 8 -2 d 7 -1 d 8 -1 d 8 -2 d 8 X 8 -1 d 8 -1 d 8 -1 d 8 -1 d 7 -2 d 8 -2 d 32 X 8 -1 d 63 X 8 -1 d 55 X 7 -2 d 8 X 8 -1 d 8 X 8 -2 d 8 -1 d 8 -3 d 8 1 d 7 X 8 -1 d 8 -1 d 16 X
 8 -1 d 315 X 8 -1 d 8 X 7 -1 d 8 -1 d 32 X 8 -1 d 8 X 7 -1 d 8 -1 d 47 X 8 -1 d 8 X 8 -1 d 8 -1 d 8 1 d 8 X 8 -1 d s black 0.95 0.95 0.95 c 453 353 1701 1882 bf black 1720 1882 m -13 Y 447 X 346 Y -13 X -333 Y f 1701 1882 m 353 Y 453 X -353 Y -453 X
 cl s
 gsave  2268 2352 0 0 C 1811.75 2135 t 0 r /Helvetica-Bold findfont 39.0986 sf 0 0 m 
 271 261 237 203 181 160 149 126 102 91 68 57 36 21
(Training sample) K NC gr  0 0 1 c 1718 2147 m 79 X s black
 gsave  2268 2352 0 0 C 1811.75 1959.06 t 0 r /Helvetica-Bold findfont 39.0986 sf 0 0 m 
 198 188 164 130 108 87 76 63 42 21
(Test sample) K NC gr  1 0 0 c 1718 1970 m 79 X s gr showpage
 gr 
%%Trailer
%%Pages:  1
 gr  gr  gr 
%%EOF
