    4730.0    1760.0    2970.0 1255.84     0.2928E-06
    4730.0    1759.0    2971.0 1257.69     0.2952E-06
    4730.0    1758.0    2972.0 1259.54     0.2975E-06
    4730.0    1757.0    2973.0 1261.38     0.2998E-06
    4730.0    1756.0    2974.0 1263.22     0.3022E-06
    4730.0    1755.0    2975.0 1265.06     0.3046E-06
    4730.0    1754.0    2976.0 1266.89     0.3070E-06
    4730.0    1753.0    2977.0 1268.73     0.3094E-06
    4730.0    1752.0    2978.0 1270.56     0.3118E-06
    4730.0    1751.0    2979.0 1272.38     0.3142E-06
    4730.0    1750.0    2980.0 1274.21     0.3167E-06
    4730.0    1749.0    2981.0 1276.03     0.3192E-06
    4730.0    1748.0    2982.0 1277.85     0.3216E-06
    4730.0    1747.0    2983.0 1279.67     0.3241E-06
    4730.0    1746.0    2984.0 1281.48     0.3267E-06
    4730.0    1745.0    2985.0 1283.29     0.3292E-06
    4730.0    1744.0    2986.0 1285.10     0.3317E-06
    4730.0    1743.0    2987.0 1286.91     0.3343E-06
    4730.0    1742.0    2988.0 1288.72     0.3369E-06
    4730.0    1741.0    2989.0 1290.52     0.3395E-06
    4730.0    1740.0    2990.0 1292.32     0.3421E-06
    4730.0    1739.0    2991.0 1294.11     0.3447E-06
    4730.0    1738.0    2992.0 1295.91     0.3473E-06
    4730.0    1737.0    2993.0 1297.70     0.3500E-06
    4730.0    1736.0    2994.0 1299.49     0.3527E-06
    4730.0    1735.0    2995.0 1301.28     0.3554E-06
    4730.0    1734.0    2996.0 1303.06     0.3581E-06
    4730.0    1733.0    2997.0 1304.84     0.3608E-06
    4730.0    1732.0    2998.0 1306.62     0.3635E-06
    4730.0    1731.0    2999.0 1308.40     0.3663E-06
    4730.0    1730.0    3000.0 1310.17     0.3691E-06
    4730.0    1729.0    3001.0 1311.95     0.3719E-06
    4730.0    1728.0    3002.0 1313.72     0.3747E-06
    4730.0    1727.0    3003.0 1315.48     0.3775E-06
    4730.0    1726.0    3004.0 1317.25     0.3804E-06
    4730.0    1725.0    3005.0 1319.01     0.3832E-06
    4730.0    1724.0    3006.0 1320.77     0.3861E-06
    4730.0    1723.0    3007.0 1322.53     0.3890E-06
    4730.0    1722.0    3008.0 1324.29     0.3919E-06
    4730.0    1721.0    3009.0 1326.04     0.3949E-06
    4730.0    1720.0    3010.0 1327.79     0.3978E-06
    4730.0    1719.0    3011.0 1329.54     0.4008E-06
    4730.0    1718.0    3012.0 1331.29     0.4038E-06
    4730.0    1717.0    3013.0 1333.03     0.4068E-06
    4730.0    1716.0    3014.0 1334.77     0.4098E-06
    4730.0    1715.0    3015.0 1336.51     0.4129E-06
    4730.0    1714.0    3016.0 1338.25     0.4160E-06
    4730.0    1713.0    3017.0 1339.98     0.4190E-06
    4730.0    1712.0    3018.0 1341.72     0.4222E-06
    4730.0    1711.0    3019.0 1343.45     0.4253E-06
    4730.0    1710.0    3020.0 1345.18     0.4284E-06
    4730.0    1709.0    3021.0 1346.90     0.4316E-06
    4730.0    1708.0    3022.0 1348.63     0.4348E-06
    4730.0    1707.0    3023.0 1350.35     0.4380E-06
    4730.0    1706.0    3024.0 1352.07     0.4412E-06
    4730.0    1705.0    3025.0 1353.79     0.4445E-06
    4730.0    1704.0    3026.0 1355.50     0.4478E-06
    4730.0    1703.0    3027.0 1357.21     0.4511E-06
    4730.0    1702.0    3028.0 1358.93     0.4544E-06
    4730.0    1701.0    3029.0 1360.63     0.4577E-06
    4730.0    1700.0    3030.0 1362.34     0.4611E-06
    4730.0    1699.0    3031.0 1364.05     0.4645E-06
    4730.0    1698.0    3032.0 1365.75     0.4679E-06
    4730.0    1697.0    3033.0 1367.45     0.4713E-06
    4730.0    1696.0    3034.0 1369.15     0.4748E-06
    4730.0    1695.0    3035.0 1370.84     0.4782E-06
    4730.0    1694.0    3036.0 1372.54     0.4817E-06
    4730.0    1693.0    3037.0 1374.23     0.4853E-06
    4730.0    1692.0    3038.0 1375.92     0.4888E-06
    4730.0    1691.0    3039.0 1377.61     0.4924E-06
    4730.0    1690.0    3040.0 1379.29     0.4960E-06
    4730.0    1689.0    3041.0 1380.98     0.4996E-06
    4730.0    1688.0    3042.0 1382.66     0.5032E-06
    4730.0    1687.0    3043.0 1384.34     0.5069E-06
    4730.0    1686.0    3044.0 1386.01     0.5106E-06
    4730.0    1685.0    3045.0 1387.69     0.5143E-06
    4730.0    1684.0    3046.0 1389.36     0.5181E-06
    4730.0    1683.0    3047.0 1391.03     0.5218E-06
    4730.0    1682.0    3048.0 1392.70     0.5256E-06
    4730.0    1681.0    3049.0 1394.37     0.5295E-06
    4730.0    1680.0    3050.0 1396.04     0.5333E-06
    4730.0    1679.0    3051.0 1397.70     0.5372E-06
    4730.0    1678.0    3052.0 1399.36     0.5411E-06
    4730.0    1677.0    3053.0 1401.02     0.5450E-06
    4730.0    1676.0    3054.0 1402.68     0.5490E-06
    4730.0    1675.0    3055.0 1404.33     0.5530E-06
    4730.0    1674.0    3056.0 1405.99     0.5570E-06
    4730.0    1673.0    3057.0 1407.64     0.5611E-06
    4730.0    1672.0    3058.0 1409.29     0.5652E-06
    4730.0    1671.0    3059.0 1410.94     0.5693E-06
    4730.0    1670.0    3060.0 1412.58     0.5734E-06
    4730.0    1669.0    3061.0 1414.23     0.5776E-06
    4730.0    1668.0    3062.0 1415.87     0.5818E-06
    4730.0    1667.0    3063.0 1417.51     0.5860E-06
    4730.0    1666.0    3064.0 1419.15     0.5903E-06
    4730.0    1665.0    3065.0 1420.78     0.5946E-06
    4730.0    1664.0    3066.0 1422.42     0.5989E-06
    4730.0    1663.0    3067.0 1424.05     0.6033E-06
    4730.0    1662.0    3068.0 1425.68     0.6077E-06
    4730.0    1661.0    3069.0 1427.31     0.6121E-06
    4730.0    1660.0    3070.0 1428.94     0.6166E-06
    4730.0    1659.0    3071.0 1430.56     0.6211E-06
    4730.0    1658.0    3072.0 1432.19     0.6256E-06
    4730.0    1657.0    3073.0 1433.81     0.6302E-06
    4730.0    1656.0    3074.0 1435.43     0.6348E-06
    4730.0    1655.0    3075.0 1437.05     0.6394E-06
    4730.0    1654.0    3076.0 1438.66     0.6441E-06
    4730.0    1653.0    3077.0 1440.28     0.6488E-06
    4730.0    1652.0    3078.0 1441.89     0.6536E-06
    4730.0    1651.0    3079.0 1443.50     0.6584E-06
    4730.0    1650.0    3080.0 1445.11     0.6632E-06
    4730.0    1649.0    3081.0 1446.72     0.6681E-06
    4730.0    1648.0    3082.0 1448.32     0.6730E-06
    4730.0    1647.0    3083.0 1449.92     0.6779E-06
    4730.0    1646.0    3084.0 1451.53     0.6829E-06
    4730.0    1645.0    3085.0 1453.13     0.6880E-06
    4730.0    1644.0    3086.0 1454.72     0.6930E-06
    4730.0    1643.0    3087.0 1456.32     0.6982E-06
    4730.0    1642.0    3088.0 1457.92     0.7033E-06
    4730.0    1641.0    3089.0 1459.51     0.7085E-06
    4730.0    1640.0    3090.0 1461.10     0.7138E-06
    4730.0    1639.0    3091.0 1462.69     0.7191E-06
    4730.0    1638.0    3092.0 1464.28     0.7244E-06
    4730.0    1637.0    3093.0 1465.86     0.7298E-06
    4730.0    1636.0    3094.0 1467.45     0.7352E-06
    4730.0    1635.0    3095.0 1469.03     0.7407E-06
    4730.0    1634.0    3096.0 1470.61     0.7462E-06
    4730.0    1633.0    3097.0 1472.19     0.7518E-06
    4730.0    1632.0    3098.0 1473.77     0.7574E-06
    4730.0    1631.0    3099.0 1475.34     0.7631E-06
    4730.0    1630.0    3100.0 1476.92     0.7688E-06
    4730.0    1629.0    3101.0 1478.49     0.7745E-06
    4730.0    1628.0    3102.0 1480.06     0.7804E-06
    4730.0    1627.0    3103.0 1481.63     0.7862E-06
    4730.0    1626.0    3104.0 1483.20     0.7921E-06
    4730.0    1625.0    3105.0 1484.76     0.7981E-06
    4730.0    1624.0    3106.0 1486.33     0.8041E-06
    4730.0    1623.0    3107.0 1487.89     0.8102E-06
    4730.0    1622.0    3108.0 1489.45     0.8164E-06
    4730.0    1621.0    3109.0 1491.01     0.8226E-06
    4730.0    1620.0    3110.0 1492.57     0.8288E-06
    4730.0    1619.0    3111.0 1494.12     0.8351E-06
    4730.0    1618.0    3112.0 1495.68     0.8415E-06
    4730.0    1617.0    3113.0 1497.23     0.8479E-06
    4730.0    1616.0    3114.0 1498.78     0.8544E-06
    4730.0    1615.0    3115.0 1500.33     0.8609E-06
    4730.0    1614.0    3116.0 1501.88     0.8676E-06
    4730.0    1613.0    3117.0 1503.43     0.8742E-06
    4730.0    1612.0    3118.0 1504.97     0.8810E-06
    4730.0    1611.0    3119.0 1506.51     0.8877E-06
    4730.0    1610.0    3120.0 1508.06     0.8946E-06
    4730.0    1609.0    3121.0 1509.60     0.9015E-06
    4730.0    1608.0    3122.0 1511.13     0.9085E-06
    4730.0    1607.0    3123.0 1512.67     0.9156E-06
    4730.0    1606.0    3124.0 1514.21     0.9227E-06
    4730.0    1605.0    3125.0 1515.74     0.9299E-06
    4730.0    1604.0    3126.0 1517.27     0.9372E-06
    4730.0    1603.0    3127.0 1518.80     0.9445E-06
    4730.0    1602.0    3128.0 1520.33     0.9519E-06
    4730.0    1601.0    3129.0 1521.86     0.9594E-06
    4730.0    1600.0    3130.0 1523.39     0.9669E-06
    4730.0    1599.0    3131.0 1524.91     0.9746E-06
    4730.0    1598.0    3132.0 1526.43     0.9823E-06
    4730.0    1597.0    3133.0 1527.96     0.9900E-06
    4730.0    1596.0    3134.0 1529.48     0.9979E-06
    4730.0    1595.0    3135.0 1530.99     0.1006E-05
    4730.0    1594.0    3136.0 1532.51     0.1014E-05
    4730.0    1593.0    3137.0 1534.03     0.1022E-05
    4730.0    1592.0    3138.0 1535.54     0.1030E-05
    4730.0    1591.0    3139.0 1537.05     0.1038E-05
    4730.0    1590.0    3140.0 1538.56     0.1047E-05
    4730.0    1589.0    3141.0 1540.07     0.1055E-05
    4730.0    1588.0    3142.0 1541.58     0.1064E-05
    4730.0    1587.0    3143.0 1543.09     0.1072E-05
    4730.0    1586.0    3144.0 1544.59     0.1081E-05
    4730.0    1585.0    3145.0 1546.10     0.1090E-05
    4730.0    1584.0    3146.0 1547.60     0.1099E-05
    4730.0    1583.0    3147.0 1549.10     0.1107E-05
    4730.0    1582.0    3148.0 1550.60     0.1117E-05
    4730.0    1581.0    3149.0 1552.10     0.1126E-05
    4730.0    1580.0    3150.0 1553.59     0.1135E-05
    4730.0    1579.0    3151.0 1555.09     0.1144E-05
    4730.0    1578.0    3152.0 1556.58     0.1154E-05
    4730.0    1577.0    3153.0 1558.07     0.1163E-05
    4730.0    1576.0    3154.0 1559.56     0.1173E-05
    4730.0    1575.0    3155.0 1561.05     0.1182E-05
    4730.0    1574.0    3156.0 1562.54     0.1192E-05
    4730.0    1573.0    3157.0 1564.03     0.1202E-05
    4730.0    1572.0    3158.0 1565.51     0.1212E-05
    4730.0    1571.0    3159.0 1567.00     0.1222E-05
    4730.0    1570.0    3160.0 1568.48     0.1233E-05
    4730.0    1569.0    3161.0 1569.96     0.1243E-05
    4730.0    1568.0    3162.0 1571.44     0.1253E-05
    4730.0    1567.0    3163.0 1572.92     0.1264E-05
    4730.0    1566.0    3164.0 1574.39     0.1275E-05
    4730.0    1565.0    3165.0 1575.87     0.1286E-05
    4730.0    1564.0    3166.0 1577.34     0.1296E-05
    4730.0    1563.0    3167.0 1578.81     0.1307E-05
    4730.0    1562.0    3168.0 1580.29     0.1319E-05
    4730.0    1561.0    3169.0 1581.76     0.1330E-05
    4730.0    1560.0    3170.0 1583.22     0.1341E-05
    4730.0    1559.0    3171.0 1584.69     0.1353E-05
    4730.0    1558.0    3172.0 1586.16     0.1364E-05
    4730.0    1557.0    3173.0 1587.62     0.1376E-05
    4730.0    1556.0    3174.0 1589.08     0.1388E-05
    4730.0    1555.0    3175.0 1590.55     0.1400E-05
    4730.0    1554.0    3176.0 1592.01     0.1412E-05
    4730.0    1553.0    3177.0 1593.46     0.1424E-05
    4730.0    1552.0    3178.0 1594.92     0.1437E-05
    4730.0    1551.0    3179.0 1596.38     0.1449E-05
    4730.0    1550.0    3180.0 1597.83     0.1462E-05
    4730.0    1549.0    3181.0 1599.29     0.1475E-05
    4730.0    1548.0    3182.0 1600.74     0.1488E-05
    4730.0    1547.0    3183.0 1602.19     0.1501E-05
    4730.0    1546.0    3184.0 1603.64     0.1514E-05
    4730.0    1545.0    3185.0 1605.09     0.1528E-05
    4730.0    1544.0    3186.0 1606.53     0.1541E-05
    4730.0    1543.0    3187.0 1607.98     0.1555E-05
    4730.0    1542.0    3188.0 1609.43     0.1569E-05
    4730.0    1541.0    3189.0 1610.87     0.1583E-05
    4730.0    1540.0    3190.0 1612.31     0.1597E-05
    4730.0    1539.0    3191.0 1613.75     0.1611E-05
    4730.0    1538.0    3192.0 1615.19     0.1626E-05
    4730.0    1537.0    3193.0 1616.63     0.1640E-05
    4730.0    1536.0    3194.0 1618.06     0.1655E-05
    4730.0    1535.0    3195.0 1619.50     0.1670E-05
    4730.0    1534.0    3196.0 1620.93     0.1685E-05
    4730.0    1533.0    3197.0 1622.37     0.1700E-05
    4730.0    1532.0    3198.0 1623.80     0.1716E-05
    4730.0    1531.0    3199.0 1625.23     0.1731E-05
    4730.0    1530.0    3200.0 1626.66     0.1747E-05
    4730.0    1529.0    3201.0 1628.09     0.1763E-05
    4730.0    1528.0    3202.0 1629.51     0.1779E-05
    4730.0    1527.0    3203.0 1630.94     0.1796E-05
    4730.0    1526.0    3204.0 1632.36     0.1812E-05
    4730.0    1525.0    3205.0 1633.79     0.1829E-05
    4730.0    1524.0    3206.0 1635.21     0.1846E-05
    4730.0    1523.0    3207.0 1636.63     0.1863E-05
    4730.0    1522.0    3208.0 1638.05     0.1880E-05
    4730.0    1521.0    3209.0 1639.46     0.1897E-05
    4730.0    1520.0    3210.0 1640.88     0.1915E-05
    4730.0    1519.0    3211.0 1642.30     0.1933E-05
    4730.0    1518.0    3212.0 1643.71     0.1951E-05
    4730.0    1517.0    3213.0 1645.12     0.1969E-05
    4730.0    1516.0    3214.0 1646.54     0.1988E-05
    4730.0    1515.0    3215.0 1647.95     0.2006E-05
    4730.0    1514.0    3216.0 1649.36     0.2025E-05
    4730.0    1513.0    3217.0 1650.76     0.2044E-05
    4730.0    1512.0    3218.0 1652.17     0.2064E-05
    4730.0    1511.0    3219.0 1653.58     0.2083E-05
    4730.0    1510.0    3220.0 1654.98     0.2103E-05
    4730.0    1509.0    3221.0 1656.38     0.2123E-05
    4730.0    1508.0    3222.0 1657.79     0.2143E-05
    4730.0    1507.0    3223.0 1659.19     0.2163E-05
    4730.0    1506.0    3224.0 1660.59     0.2184E-05
    4730.0    1505.0    3225.0 1661.99     0.2205E-05
    4730.0    1504.0    3226.0 1663.38     0.2226E-05
    4730.0    1503.0    3227.0 1664.78     0.2247E-05
    4730.0    1502.0    3228.0 1666.18     0.2269E-05
    4730.0    1501.0    3229.0 1667.57     0.2291E-05
    4730.0    1500.0    3230.0 1668.96     0.2313E-05
    4730.0    1499.0    3231.0 1670.35     0.2335E-05
    4730.0    1498.0    3232.0 1671.74     0.2358E-05
    4730.0    1497.0    3233.0 1673.13     0.2380E-05
    4730.0    1496.0    3234.0 1674.52     0.2403E-05
    4730.0    1495.0    3235.0 1675.91     0.2427E-05
    4730.0    1494.0    3236.0 1677.30     0.2450E-05
    4730.0    1493.0    3237.0 1678.68     0.2474E-05
    4730.0    1492.0    3238.0 1680.06     0.2498E-05
    4730.0    1491.0    3239.0 1681.45     0.2523E-05
    4730.0    1490.0    3240.0 1682.83     0.2547E-05
    4730.0    1489.0    3241.0 1684.21     0.2572E-05
    4730.0    1488.0    3242.0 1685.59     0.2598E-05
    4730.0    1487.0    3243.0 1686.97     0.2623E-05
    4730.0    1486.0    3244.0 1688.34     0.2649E-05
    4730.0    1485.0    3245.0 1689.72     0.2675E-05
    4730.0    1484.0    3246.0 1691.09     0.2701E-05
    4730.0    1483.0    3247.0 1692.47     0.2728E-05
    4730.0    1482.0    3248.0 1693.84     0.2755E-05
    4730.0    1481.0    3249.0 1695.21     0.2782E-05
    4730.0    1480.0    3250.0 1696.58     0.2810E-05
    4730.0    1479.0    3251.0 1697.95     0.2838E-05
    4730.0    1478.0    3252.0 1699.32     0.2866E-05
    4730.0    1477.0    3253.0 1700.68     0.2895E-05
    4730.0    1476.0    3254.0 1702.05     0.2924E-05
    4730.0    1475.0    3255.0 1703.41     0.2953E-05
    4730.0    1474.0    3256.0 1704.78     0.2982E-05
    4730.0    1473.0    3257.0 1706.14     0.3012E-05
    4730.0    1472.0    3258.0 1707.50     0.3043E-05
    4730.0    1471.0    3259.0 1708.86     0.3073E-05
    4730.0    1470.0    3260.0 1710.22     0.3104E-05
    4730.0    1469.0    3261.0 1711.58     0.3135E-05
    4730.0    1468.0    3262.0 1712.94     0.3167E-05
    4730.0    1467.0    3263.0 1714.29     0.3199E-05
    4730.0    1466.0    3264.0 1715.65     0.3231E-05
    4730.0    1465.0    3265.0 1717.00     0.3264E-05
    4730.0    1464.0    3266.0 1718.35     0.3297E-05
    4730.0    1463.0    3267.0 1719.71     0.3330E-05
    4730.0    1462.0    3268.0 1721.06     0.3364E-05
    4730.0    1461.0    3269.0 1722.41     0.3398E-05
    4730.0    1460.0    3270.0 1723.75     0.3433E-05
    4730.0    1459.0    3271.0 1725.10     0.3468E-05
    4730.0    1458.0    3272.0 1726.45     0.3503E-05
    4730.0    1457.0    3273.0 1727.79     0.3539E-05
    4730.0    1456.0    3274.0 1729.14     0.3575E-05
    4730.0    1455.0    3275.0 1730.48     0.3612E-05
    4730.0    1454.0    3276.0 1731.82     0.3649E-05
    4730.0    1453.0    3277.0 1733.16     0.3686E-05
    4730.0    1452.0    3278.0 1734.50     0.3724E-05
    4730.0    1451.0    3279.0 1735.84     0.3762E-05
    4730.0    1450.0    3280.0 1737.18     0.3801E-05
    4730.0    1449.0    3281.0 1738.52     0.3840E-05
    4730.0    1448.0    3282.0 1739.86     0.3880E-05
    4730.0    1447.0    3283.0 1741.19     0.3920E-05
    4730.0    1446.0    3284.0 1742.52     0.3960E-05
    4730.0    1445.0    3285.0 1743.86     0.4001E-05
    4730.0    1444.0    3286.0 1745.19     0.4043E-05
    4730.0    1443.0    3287.0 1746.52     0.4084E-05
    4730.0    1442.0    3288.0 1747.85     0.4127E-05
    4730.0    1441.0    3289.0 1749.18     0.4170E-05
    4730.0    1440.0    3290.0 1750.51     0.4213E-05
    4730.0    1439.0    3291.0 1751.83     0.4257E-05
    4730.0    1438.0    3292.0 1753.16     0.4301E-05
    4730.0    1437.0    3293.0 1754.48     0.4346E-05
    4730.0    1436.0    3294.0 1755.81     0.4391E-05
    4730.0    1435.0    3295.0 1757.13     0.4437E-05
    4730.0    1434.0    3296.0 1758.45     0.4483E-05
    4730.0    1433.0    3297.0 1759.77     0.4530E-05
    4730.0    1432.0    3298.0 1761.09     0.4578E-05
    4730.0    1431.0    3299.0 1762.41     0.4626E-05
    4730.0    1430.0    3300.0 1763.73     0.4674E-05
    4730.0    1429.0    3301.0 1765.05     0.4723E-05
    4730.0    1428.0    3302.0 1766.36     0.4773E-05
    4730.0    1427.0    3303.0 1767.68     0.4823E-05
    4730.0    1426.0    3304.0 1768.99     0.4873E-05
    4730.0    1425.0    3305.0 1770.31     0.4925E-05
    4730.0    1424.0    3306.0 1771.62     0.4977E-05
    4730.0    1423.0    3307.0 1772.93     0.5029E-05
    4730.0    1422.0    3308.0 1774.24     0.5082E-05
    4730.0    1421.0    3309.0 1775.55     0.5136E-05
    4730.0    1420.0    3310.0 1776.86     0.5190E-05
    4730.0    1419.0    3311.0 1778.16     0.5245E-05
    4730.0    1418.0    3312.0 1779.47     0.5300E-05
    4730.0    1417.0    3313.0 1780.78     0.5356E-05
    4730.0    1416.0    3314.0 1782.08     0.5413E-05
    4730.0    1415.0    3315.0 1783.38     0.5471E-05
    4730.0    1414.0    3316.0 1784.69     0.5529E-05
    4730.0    1413.0    3317.0 1785.99     0.5587E-05
    4730.0    1412.0    3318.0 1787.29     0.5647E-05
    4730.0    1411.0    3319.0 1788.59     0.5707E-05
    4730.0    1410.0    3320.0 1789.89     0.5768E-05
    4730.0    1409.0    3321.0 1791.18     0.5829E-05
    4730.0    1408.0    3322.0 1792.48     0.5891E-05
    4730.0    1407.0    3323.0 1793.78     0.5954E-05
    4730.0    1406.0    3324.0 1795.07     0.6017E-05
    4730.0    1405.0    3325.0 1796.37     0.6082E-05
    4730.0    1404.0    3326.0 1797.66     0.6147E-05
    4730.0    1403.0    3327.0 1798.95     0.6212E-05
    4730.0    1402.0    3328.0 1800.24     0.6279E-05
    4730.0    1401.0    3329.0 1801.53     0.6346E-05
    4730.0    1400.0    3330.0 1802.82     0.6414E-05
    4730.0    1399.0    3331.0 1804.11     0.6483E-05
    4730.0    1398.0    3332.0 1805.40     0.6552E-05
    4730.0    1397.0    3333.0 1806.68     0.6623E-05
    4730.0    1396.0    3334.0 1807.97     0.6694E-05
    4730.0    1395.0    3335.0 1809.26     0.6766E-05
    4730.0    1394.0    3336.0 1810.54     0.6838E-05
    4730.0    1393.0    3337.0 1811.82     0.6912E-05
    4730.0    1392.0    3338.0 1813.10     0.6986E-05
    4730.0    1391.0    3339.0 1814.39     0.7062E-05
    4730.0    1390.0    3340.0 1815.67     0.7138E-05
    4730.0    1389.0    3341.0 1816.94     0.7215E-05
    4730.0    1388.0    3342.0 1818.22     0.7293E-05
    4730.0    1387.0    3343.0 1819.50     0.7371E-05
    4730.0    1386.0    3344.0 1820.78     0.7451E-05
    4730.0    1385.0    3345.0 1822.05     0.7532E-05
    4730.0    1384.0    3346.0 1823.33     0.7613E-05
    4730.0    1383.0    3347.0 1824.60     0.7696E-05
    4730.0    1382.0    3348.0 1825.87     0.7779E-05
    4730.0    1381.0    3349.0 1827.15     0.7863E-05
    4730.0    1380.0    3350.0 1828.42     0.7949E-05
    4730.0    1379.0    3351.0 1829.69     0.8035E-05
    4730.0    1378.0    3352.0 1830.96     0.8122E-05
    4730.0    1377.0    3353.0 1832.23     0.8210E-05
    4730.0    1376.0    3354.0 1833.49     0.8299E-05
    4730.0    1375.0    3355.0 1834.76     0.8390E-05
    4730.0    1374.0    3356.0 1836.03     0.8481E-05
    4730.0    1373.0    3357.0 1837.29     0.8573E-05
    4730.0    1372.0    3358.0 1838.56     0.8667E-05
    4730.0    1371.0    3359.0 1839.82     0.8761E-05
    4730.0    1370.0    3360.0 1841.08     0.8857E-05
    4730.0    1369.0    3361.0 1842.34     0.8953E-05
    4730.0    1368.0    3362.0 1843.61     0.9051E-05
    4730.0    1367.0    3363.0 1844.87     0.9150E-05
    4730.0    1366.0    3364.0 1846.12     0.9250E-05
    4730.0    1365.0    3365.0 1847.38     0.9351E-05
    4730.0    1364.0    3366.0 1848.64     0.9453E-05
    4730.0    1363.0    3367.0 1849.90     0.9557E-05
    4730.0    1362.0    3368.0 1851.15     0.9662E-05
    4730.0    1361.0    3369.0 1852.41     0.9768E-05
    4730.0    1360.0    3370.0 1853.66     0.9875E-05
    4730.0    1359.0    3371.0 1854.91     0.9983E-05
    4730.0    1358.0    3372.0 1856.17     0.1009E-04
    4730.0    1357.0    3373.0 1857.42     0.1020E-04
    4730.0    1356.0    3374.0 1858.67     0.1032E-04
    4730.0    1355.0    3375.0 1859.92     0.1043E-04
    4730.0    1354.0    3376.0 1861.17     0.1054E-04
    4730.0    1353.0    3377.0 1862.42     0.1066E-04
    4730.0    1352.0    3378.0 1863.66     0.1078E-04
    4730.0    1351.0    3379.0 1864.91     0.1090E-04
    4730.0    1350.0    3380.0 1866.15     0.1102E-04
    4730.0    1349.0    3381.0 1867.40     0.1114E-04
    4730.0    1348.0    3382.0 1868.64     0.1126E-04
    4730.0    1347.0    3383.0 1869.89     0.1139E-04
    4730.0    1346.0    3384.0 1871.13     0.1151E-04
    4730.0    1345.0    3385.0 1872.37     0.1164E-04
    4730.0    1344.0    3386.0 1873.61     0.1177E-04
    4730.0    1343.0    3387.0 1874.85     0.1190E-04
    4730.0    1342.0    3388.0 1876.09     0.1203E-04
    4730.0    1341.0    3389.0 1877.33     0.1216E-04
    4730.0    1340.0    3390.0 1878.57     0.1230E-04
    4730.0    1339.0    3391.0 1879.80     0.1243E-04
    4730.0    1338.0    3392.0 1881.04     0.1257E-04
    4730.0    1337.0    3393.0 1882.27     0.1271E-04
    4730.0    1336.0    3394.0 1883.51     0.1285E-04
    4730.0    1335.0    3395.0 1884.74     0.1300E-04
    4730.0    1334.0    3396.0 1885.97     0.1314E-04
    4730.0    1333.0    3397.0 1887.20     0.1329E-04
    4730.0    1332.0    3398.0 1888.43     0.1344E-04
    4730.0    1331.0    3399.0 1889.66     0.1359E-04
    4730.0    1330.0    3400.0 1890.89     0.1374E-04
    4730.0    1329.0    3401.0 1892.12     0.1389E-04
    4730.0    1328.0    3402.0 1893.35     0.1405E-04
    4730.0    1327.0    3403.0 1894.58     0.1420E-04
    4730.0    1326.0    3404.0 1895.80     0.1436E-04
    4730.0    1325.0    3405.0 1897.03     0.1452E-04
    4730.0    1324.0    3406.0 1898.25     0.1468E-04
    4730.0    1323.0    3407.0 1899.48     0.1485E-04
    4730.0    1322.0    3408.0 1900.70     0.1502E-04
    4730.0    1321.0    3409.0 1901.92     0.1518E-04
    4730.0    1320.0    3410.0 1903.14     0.1535E-04
    4730.0    1319.0    3411.0 1904.36     0.1553E-04
    4730.0    1318.0    3412.0 1905.58     0.1570E-04
    4730.0    1317.0    3413.0 1906.80     0.1588E-04
    4730.0    1316.0    3414.0 1908.02     0.1606E-04
    4730.0    1315.0    3415.0 1909.24     0.1624E-04
    4730.0    1314.0    3416.0 1910.45     0.1642E-04
    4730.0    1313.0    3417.0 1911.67     0.1661E-04
    4730.0    1312.0    3418.0 1912.89     0.1679E-04
    4730.0    1311.0    3419.0 1914.10     0.1698E-04
    4730.0    1310.0    3420.0 1915.31     0.1718E-04
    4730.0    1309.0    3421.0 1916.53     0.1737E-04
    4730.0    1308.0    3422.0 1917.74     0.1757E-04
    4730.0    1307.0    3423.0 1918.95     0.1777E-04
    4730.0    1306.0    3424.0 1920.16     0.1797E-04
    4730.0    1305.0    3425.0 1921.37     0.1817E-04
    4730.0    1304.0    3426.0 1922.58     0.1838E-04
    4730.0    1303.0    3427.0 1923.79     0.1858E-04
    4730.0    1302.0    3428.0 1924.99     0.1880E-04
    4730.0    1301.0    3429.0 1926.20     0.1901E-04
    4730.0    1300.0    3430.0 1927.41     0.1923E-04
    4730.0    1299.0    3431.0 1928.61     0.1944E-04
    4730.0    1298.0    3432.0 1929.82     0.1967E-04
    4730.0    1297.0    3433.0 1931.02     0.1989E-04
    4730.0    1296.0    3434.0 1932.22     0.2012E-04
    4730.0    1295.0    3435.0 1933.43     0.2035E-04
    4730.0    1294.0    3436.0 1934.63     0.2058E-04
    4730.0    1293.0    3437.0 1935.83     0.2081E-04
    4730.0    1292.0    3438.0 1937.03     0.2105E-04
    4730.0    1291.0    3439.0 1938.23     0.2129E-04
    4730.0    1290.0    3440.0 1939.43     0.2154E-04
    4730.0    1289.0    3441.0 1940.62     0.2178E-04
    4730.0    1288.0    3442.0 1941.82     0.2203E-04
    4730.0    1287.0    3443.0 1943.02     0.2229E-04
    4730.0    1286.0    3444.0 1944.21     0.2254E-04
    4730.0    1285.0    3445.0 1945.41     0.2280E-04
    4730.0    1284.0    3446.0 1946.60     0.2307E-04
    4730.0    1283.0    3447.0 1947.79     0.2333E-04
    4730.0    1282.0    3448.0 1948.99     0.2360E-04
    4730.0    1281.0    3449.0 1950.18     0.2387E-04
    4730.0    1280.0    3450.0 1951.37     0.2415E-04
    4730.0    1279.0    3451.0 1952.56     0.2443E-04
    4730.0    1278.0    3452.0 1953.75     0.2471E-04
    4730.0    1277.0    3453.0 1954.94     0.2499E-04
    4730.0    1276.0    3454.0 1956.13     0.2528E-04
    4730.0    1275.0    3455.0 1957.32     0.2558E-04
    4730.0    1274.0    3456.0 1958.50     0.2587E-04
    4730.0    1273.0    3457.0 1959.69     0.2617E-04
    4730.0    1272.0    3458.0 1960.87     0.2648E-04
    4730.0    1271.0    3459.0 1962.06     0.2678E-04
    4730.0    1270.0    3460.0 1963.24     0.2709E-04
    4730.0    1269.0    3461.0 1964.43     0.2741E-04
    4730.0    1268.0    3462.0 1965.61     0.2773E-04
    4730.0    1267.0    3463.0 1966.79     0.2805E-04
    4730.0    1266.0    3464.0 1967.97     0.2838E-04
    4730.0    1265.0    3465.0 1969.15     0.2871E-04
    4730.0    1264.0    3466.0 1970.33     0.2904E-04
    4730.0    1263.0    3467.0 1971.51     0.2938E-04
    4730.0    1262.0    3468.0 1972.69     0.2973E-04
    4730.0    1261.0    3469.0 1973.87     0.3007E-04
    4730.0    1260.0    3470.0 1975.04     0.3043E-04
    4730.0    1259.0    3471.0 1976.22     0.3078E-04
    4730.0    1258.0    3472.0 1977.39     0.3114E-04
    4730.0    1257.0    3473.0 1978.57     0.3151E-04
    4730.0    1256.0    3474.0 1979.74     0.3188E-04
    4730.0    1255.0    3475.0 1980.92     0.3225E-04
    4730.0    1254.0    3476.0 1982.09     0.3263E-04
    4730.0    1253.0    3477.0 1983.26     0.3302E-04
    4730.0    1252.0    3478.0 1984.43     0.3340E-04
    4730.0    1251.0    3479.0 1985.60     0.3380E-04
    4730.0    1250.0    3480.0 1986.77     0.3420E-04
    4730.0    1249.0    3481.0 1987.94     0.3460E-04
    4730.0    1248.0    3482.0 1989.11     0.3501E-04
    4730.0    1247.0    3483.0 1990.28     0.3542E-04
    4730.0    1246.0    3484.0 1991.45     0.3584E-04
    4730.0    1245.0    3485.0 1992.61     0.3626E-04
    4730.0    1244.0    3486.0 1993.78     0.3669E-04
    4730.0    1243.0    3487.0 1994.94     0.3713E-04
    4730.0    1242.0    3488.0 1996.11     0.3756E-04
    4730.0    1241.0    3489.0 1997.27     0.3801E-04
    4730.0    1240.0    3490.0 1998.43     0.3846E-04
    4730.0    1239.0    3491.0 1999.60     0.3892E-04
    4730.0    1238.0    3492.0 2000.76     0.3938E-04
    4730.0    1237.0    3493.0 2001.92     0.3985E-04
    4730.0    1236.0    3494.0 2003.08     0.4032E-04
    4730.0    1235.0    3495.0 2004.24     0.4080E-04
    4730.0    1234.0    3496.0 2005.40     0.4129E-04
    4730.0    1233.0    3497.0 2006.56     0.4178E-04
    4730.0    1232.0    3498.0 2007.71     0.4228E-04
    4730.0    1231.0    3499.0 2008.87     0.4278E-04
    4730.0    1230.0    3500.0 2010.03     0.4329E-04
    4730.0    1229.0    3501.0 2011.18     0.4381E-04
    4730.0    1228.0    3502.0 2012.34     0.4433E-04
    4730.0    1227.0    3503.0 2013.49     0.4486E-04
    4730.0    1226.0    3504.0 2014.65     0.4540E-04
    4730.0    1225.0    3505.0 2015.80     0.4594E-04
    4730.0    1224.0    3506.0 2016.95     0.4649E-04
    4730.0    1223.0    3507.0 2018.10     0.4705E-04
    4730.0    1222.0    3508.0 2019.25     0.4761E-04
    4730.0    1221.0    3509.0 2020.41     0.4818E-04
    4730.0    1220.0    3510.0 2021.55     0.4876E-04
    4730.0    1219.0    3511.0 2022.70     0.4935E-04
    4730.0    1218.0    3512.0 2023.85     0.4994E-04
    4730.0    1217.0    3513.0 2025.00     0.5054E-04
    4730.0    1216.0    3514.0 2026.15     0.5115E-04
    4730.0    1215.0    3515.0 2027.29     0.5176E-04
    4730.0    1214.0    3516.0 2028.44     0.5239E-04
    4730.0    1213.0    3517.0 2029.59     0.5302E-04
    4730.0    1212.0    3518.0 2030.73     0.5365E-04
    4730.0    1211.0    3519.0 2031.87     0.5430E-04
    4730.0    1210.0    3520.0 2033.02     0.5496E-04
    4730.0    1209.0    3521.0 2034.16     0.5562E-04
    4730.0    1208.0    3522.0 2035.30     0.5629E-04
    4730.0    1207.0    3523.0 2036.44     0.5697E-04
    4730.0    1206.0    3524.0 2037.58     0.5766E-04
    4730.0    1205.0    3525.0 2038.72     0.5835E-04
    4730.0    1204.0    3526.0 2039.86     0.5906E-04
    4730.0    1203.0    3527.0 2041.00     0.5977E-04
    4730.0    1202.0    3528.0 2042.14     0.6050E-04
    4730.0    1201.0    3529.0 2043.28     0.6123E-04
    4730.0    1200.0    3530.0 2044.41     0.6197E-04
    4730.0    1199.0    3531.0 2045.55     0.6272E-04
    4730.0    1198.0    3532.0 2046.69     0.6348E-04
    4730.0    1197.0    3533.0 2047.82     0.6425E-04
    4730.0    1196.0    3534.0 2048.96     0.6503E-04
    4730.0    1195.0    3535.0 2050.09     0.6582E-04
    4730.0    1194.0    3536.0 2051.22     0.6662E-04
    4730.0    1193.0    3537.0 2052.36     0.6742E-04
    4730.0    1192.0    3538.0 2053.49     0.6824E-04
    4730.0    1191.0    3539.0 2054.62     0.6907E-04
    4730.0    1190.0    3540.0 2055.75     0.6991E-04
    4730.0    1189.0    3541.0 2056.88     0.7076E-04
    4730.0    1188.0    3542.0 2058.01     0.7162E-04
    4730.0    1187.0    3543.0 2059.14     0.7249E-04
    4730.0    1186.0    3544.0 2060.27     0.7337E-04
    4730.0    1185.0    3545.0 2061.39     0.7426E-04
    4730.0    1184.0    3546.0 2062.52     0.7517E-04
    4730.0    1183.0    3547.0 2063.65     0.7608E-04
    4730.0    1182.0    3548.0 2064.77     0.7701E-04
    4730.0    1181.0    3549.0 2065.90     0.7794E-04
    4730.0    1180.0    3550.0 2067.02     0.7889E-04
    4730.0    1179.0    3551.0 2068.15     0.7985E-04
    4730.0    1178.0    3552.0 2069.27     0.8083E-04
    4730.0    1177.0    3553.0 2070.39     0.8181E-04
    4730.0    1176.0    3554.0 2071.51     0.8281E-04
    4730.0    1175.0    3555.0 2072.63     0.8382E-04
    4730.0    1174.0    3556.0 2073.76     0.8484E-04
    4730.0    1173.0    3557.0 2074.88     0.8587E-04
    4730.0    1172.0    3558.0 2076.00     0.8692E-04
    4730.0    1171.0    3559.0 2077.11     0.8798E-04
    4730.0    1170.0    3560.0 2078.23     0.8905E-04
    4730.0    1169.0    3561.0 2079.35     0.9014E-04
    4730.0    1168.0    3562.0 2080.47     0.9123E-04
    4730.0    1167.0    3563.0 2081.58     0.9235E-04
    4730.0    1166.0    3564.0 2082.70     0.9347E-04
    4730.0    1165.0    3565.0 2083.82     0.9461E-04
    4730.0    1164.0    3566.0 2084.93     0.9577E-04
    4730.0    1163.0    3567.0 2086.04     0.9693E-04
    4730.0    1162.0    3568.0 2087.16     0.9812E-04
    4730.0    1161.0    3569.0 2088.27     0.9931E-04
    4730.0    1160.0    3570.0 2089.38     0.1005E-03
    4730.0    1159.0    3571.0 2090.50     0.1018E-03
    4730.0    1158.0    3572.0 2091.61     0.1030E-03
    4730.0    1157.0    3573.0 2092.72     0.1042E-03
    4730.0    1156.0    3574.0 2093.83     0.1055E-03
    4730.0    1155.0    3575.0 2094.94     0.1068E-03
    4730.0    1154.0    3576.0 2096.05     0.1081E-03
    4730.0    1153.0    3577.0 2097.15     0.1094E-03
    4730.0    1152.0    3578.0 2098.26     0.1108E-03
    4730.0    1151.0    3579.0 2099.37     0.1121E-03
    4730.0    1150.0    3580.0 2100.48     0.1135E-03
    4730.0    1149.0    3581.0 2101.58     0.1149E-03
    4730.0    1148.0    3582.0 2102.69     0.1163E-03
    4730.0    1147.0    3583.0 2103.79     0.1177E-03
    4730.0    1146.0    3584.0 2104.90     0.1191E-03
    4730.0    1145.0    3585.0 2106.00     0.1206E-03
    4730.0    1144.0    3586.0 2107.10     0.1220E-03
    4730.0    1143.0    3587.0 2108.20     0.1235E-03
    4730.0    1142.0    3588.0 2109.31     0.1250E-03
    4730.0    1141.0    3589.0 2110.41     0.1265E-03
    4730.0    1140.0    3590.0 2111.51     0.1281E-03
    4730.0    1139.0    3591.0 2112.61     0.1296E-03
    4730.0    1138.0    3592.0 2113.71     0.1312E-03
    4730.0    1137.0    3593.0 2114.81     0.1328E-03
    4730.0    1136.0    3594.0 2115.91     0.1344E-03
    4730.0    1135.0    3595.0 2117.00     0.1361E-03
    4730.0    1134.0    3596.0 2118.10     0.1377E-03
    4730.0    1133.0    3597.0 2119.20     0.1394E-03
    4730.0    1132.0    3598.0 2120.29     0.1411E-03
    4730.0    1131.0    3599.0 2121.39     0.1428E-03
    4730.0    1130.0    3600.0 2122.48     0.1445E-03
    4730.0    1129.0    3601.0 2123.58     0.1463E-03
    4730.0    1128.0    3602.0 2124.67     0.1481E-03
    4730.0    1127.0    3603.0 2125.77     0.1499E-03
    4730.0    1126.0    3604.0 2126.86     0.1517E-03
    4730.0    1125.0    3605.0 2127.95     0.1535E-03
    4730.0    1124.0    3606.0 2129.04     0.1554E-03
    4730.0    1123.0    3607.0 2130.13     0.1573E-03
    4730.0    1122.0    3608.0 2131.23     0.1592E-03
    4730.0    1121.0    3609.0 2132.32     0.1611E-03
    4730.0    1120.0    3610.0 2133.40     0.1630E-03
    4730.0    1119.0    3611.0 2134.49     0.1650E-03
    4730.0    1118.0    3612.0 2135.58     0.1670E-03
    4730.0    1117.0    3613.0 2136.67     0.1690E-03
    4730.0    1116.0    3614.0 2137.76     0.1711E-03
    4730.0    1115.0    3615.0 2138.84     0.1731E-03
    4730.0    1114.0    3616.0 2139.93     0.1752E-03
    4730.0    1113.0    3617.0 2141.02     0.1774E-03
    4730.0    1112.0    3618.0 2142.10     0.1795E-03
    4730.0    1111.0    3619.0 2143.18     0.1817E-03
    4730.0    1110.0    3620.0 2144.27     0.1839E-03
    4730.0    1109.0    3621.0 2145.35     0.1861E-03
    4730.0    1108.0    3622.0 2146.44     0.1883E-03
    4730.0    1107.0    3623.0 2147.52     0.1906E-03
    4730.0    1106.0    3624.0 2148.60     0.1929E-03
    4730.0    1105.0    3625.0 2149.68     0.1952E-03
    4730.0    1104.0    3626.0 2150.76     0.1976E-03
    4730.0    1103.0    3627.0 2151.84     0.1999E-03
    4730.0    1102.0    3628.0 2152.92     0.2023E-03
    4730.0    1101.0    3629.0 2154.00     0.2048E-03
    4730.0    1100.0    3630.0 2155.08     0.2072E-03
    4730.0    1099.0    3631.0 2156.16     0.2097E-03
    4730.0    1098.0    3632.0 2157.23     0.2122E-03
    4730.0    1097.0    3633.0 2158.31     0.2148E-03
    4730.0    1096.0    3634.0 2159.39     0.2174E-03
    4730.0    1095.0    3635.0 2160.46     0.2200E-03
    4730.0    1094.0    3636.0 2161.54     0.2226E-03
    4730.0    1093.0    3637.0 2162.61     0.2253E-03
    4730.0    1092.0    3638.0 2163.69     0.2280E-03
    4730.0    1091.0    3639.0 2164.76     0.2307E-03
    4730.0    1090.0    3640.0 2165.83     0.2334E-03
    4730.0    1089.0    3641.0 2166.91     0.2362E-03
    4730.0    1088.0    3642.0 2167.98     0.2391E-03
    4730.0    1087.0    3643.0 2169.05     0.2419E-03
    4730.0    1086.0    3644.0 2170.12     0.2448E-03
    4730.0    1085.0    3645.0 2171.19     0.2477E-03
    4730.0    1084.0    3646.0 2172.26     0.2507E-03
    4730.0    1083.0    3647.0 2173.33     0.2537E-03
    4730.0    1082.0    3648.0 2174.40     0.2567E-03
    4730.0    1081.0    3649.0 2175.47     0.2597E-03
    4730.0    1080.0    3650.0 2176.54     0.2628E-03
    4730.0    1079.0    3651.0 2177.60     0.2659E-03
    4730.0    1078.0    3652.0 2178.67     0.2691E-03
    4730.0    1077.0    3653.0 2179.74     0.2723E-03
    4730.0    1076.0    3654.0 2180.80     0.2755E-03
    4730.0    1075.0    3655.0 2181.87     0.2788E-03
    4730.0    1074.0    3656.0 2182.93     0.2821E-03
    4730.0    1073.0    3657.0 2184.00     0.2855E-03
    4730.0    1072.0    3658.0 2185.06     0.2888E-03
    4730.0    1071.0    3659.0 2186.12     0.2923E-03
    4730.0    1070.0    3660.0 2187.19     0.2957E-03
    4730.0    1069.0    3661.0 2188.25     0.2992E-03
    4730.0    1068.0    3662.0 2189.31     0.3027E-03
    4730.0    1067.0    3663.0 2190.37     0.3063E-03
    4730.0    1066.0    3664.0 2191.43     0.3099E-03
    4730.0    1065.0    3665.0 2192.49     0.3136E-03
    4730.0    1064.0    3666.0 2193.55     0.3173E-03
    4730.0    1063.0    3667.0 2194.61     0.3210E-03
    4730.0    1062.0    3668.0 2195.67     0.3248E-03
    4730.0    1061.0    3669.0 2196.73     0.3287E-03
    4730.0    1060.0    3670.0 2197.78     0.3325E-03
    4730.0    1059.0    3671.0 2198.84     0.3364E-03
    4730.0    1058.0    3672.0 2199.90     0.3404E-03
    4730.0    1057.0    3673.0 2200.95     0.3444E-03
    4730.0    1056.0    3674.0 2202.01     0.3484E-03
    4730.0    1055.0    3675.0 2203.06     0.3525E-03
    4730.0    1054.0    3676.0 2204.12     0.3567E-03
    4730.0    1053.0    3677.0 2205.17     0.3609E-03
    4730.0    1052.0    3678.0 2206.23     0.3651E-03
    4730.0    1051.0    3679.0 2207.28     0.3694E-03
    4730.0    1050.0    3680.0 2208.33     0.3737E-03
    4730.0    1049.0    3681.0 2209.38     0.3781E-03
    4730.0    1048.0    3682.0 2210.43     0.3825E-03
    4730.0    1047.0    3683.0 2211.49     0.3870E-03
    4730.0    1046.0    3684.0 2212.54     0.3915E-03
    4730.0    1045.0    3685.0 2213.59     0.3960E-03
    4730.0    1044.0    3686.0 2214.64     0.4007E-03
    4730.0    1043.0    3687.0 2215.68     0.4053E-03
    4730.0    1042.0    3688.0 2216.73     0.4101E-03
    4730.0    1041.0    3689.0 2217.78     0.4149E-03
    4730.0    1040.0    3690.0 2218.83     0.4197E-03
    4730.0    1039.0    3691.0 2219.88     0.4246E-03
    4730.0    1038.0    3692.0 2220.92     0.4295E-03
    4730.0    1037.0    3693.0 2221.97     0.4345E-03
    4730.0    1036.0    3694.0 2223.01     0.4396E-03
    4730.0    1035.0    3695.0 2224.06     0.4447E-03
    4730.0    1034.0    3696.0 2225.10     0.4498E-03
    4730.0    1033.0    3697.0 2226.15     0.4551E-03
    4730.0    1032.0    3698.0 2227.19     0.4603E-03
    4730.0    1031.0    3699.0 2228.23     0.4657E-03
    4730.0    1030.0    3700.0 2229.28     0.4711E-03
    4730.0    1029.0    3701.0 2230.32     0.4765E-03
    4730.0    1028.0    3702.0 2231.36     0.4821E-03
    4730.0    1027.0    3703.0 2232.40     0.4876E-03
    4730.0    1026.0    3704.0 2233.44     0.4933E-03
    4730.0    1025.0    3705.0 2234.48     0.4990E-03
    4730.0    1024.0    3706.0 2235.52     0.5048E-03
    4730.0    1023.0    3707.0 2236.56     0.5106E-03
    4730.0    1022.0    3708.0 2237.60     0.5165E-03
    4730.0    1021.0    3709.0 2238.64     0.5225E-03
    4730.0    1020.0    3710.0 2239.68     0.5285E-03
    4730.0    1019.0    3711.0 2240.71     0.5346E-03
    4730.0    1018.0    3712.0 2241.75     0.5407E-03
    4730.0    1017.0    3713.0 2242.79     0.5470E-03
    4730.0    1016.0    3714.0 2243.82     0.5533E-03
    4730.0    1015.0    3715.0 2244.86     0.5597E-03
    4730.0    1014.0    3716.0 2245.89     0.5661E-03
    4730.0    1013.0    3717.0 2246.93     0.5726E-03
    4730.0    1012.0    3718.0 2247.96     0.5792E-03
    4730.0    1011.0    3719.0 2248.99     0.5859E-03
    4730.0    1010.0    3720.0 2250.03     0.5926E-03
    4730.0    1009.0    3721.0 2251.06     0.5994E-03
    4730.0    1008.0    3722.0 2252.09     0.6063E-03
    4730.0    1007.0    3723.0 2253.12     0.6133E-03
    4730.0    1006.0    3724.0 2254.15     0.6203E-03
    4730.0    1005.0    3725.0 2255.18     0.6274E-03
    4730.0    1004.0    3726.0 2256.21     0.6346E-03
    4730.0    1003.0    3727.0 2257.24     0.6419E-03
    4730.0    1002.0    3728.0 2258.27     0.6492E-03
    4730.0    1001.0    3729.0 2259.30     0.6567E-03
    4730.0    1000.0    3730.0 2260.33     0.6642E-03
    4730.0     999.0    3731.0 2261.36     0.6718E-03
    4730.0     998.0    3732.0 2262.39     0.6795E-03
    4730.0     997.0    3733.0 2263.41     0.6873E-03
    4730.0     996.0    3734.0 2264.44     0.6951E-03
    4730.0     995.0    3735.0 2265.46     0.7031E-03
    4730.0     994.0    3736.0 2266.49     0.7111E-03
    4730.0     993.0    3737.0 2267.52     0.7193E-03
    4730.0     992.0    3738.0 2268.54     0.7275E-03
    4730.0     991.0    3739.0 2269.56     0.7358E-03
    4730.0     990.0    3740.0 2270.59     0.7442E-03
    4730.0     989.0    3741.0 2271.61     0.7527E-03
    4730.0     988.0    3742.0 2272.63     0.7613E-03
    4730.0     987.0    3743.0 2273.66     0.7700E-03
    4730.0     986.0    3744.0 2274.68     0.7787E-03
    4730.0     985.0    3745.0 2275.70     0.7876E-03
    4730.0     984.0    3746.0 2276.72     0.7966E-03
    4730.0     983.0    3747.0 2277.74     0.8057E-03
    4730.0     982.0    3748.0 2278.76     0.8149E-03
    4730.0     981.0    3749.0 2279.78     0.8242E-03
    4730.0     980.0    3750.0 2280.80     0.8336E-03
    4730.0     979.0    3751.0 2281.82     0.8431E-03
    4730.0     978.0    3752.0 2282.83     0.8527E-03
    4730.0     977.0    3753.0 2283.85     0.8624E-03
    4730.0     976.0    3754.0 2284.87     0.8722E-03
    4730.0     975.0    3755.0 2285.89     0.8821E-03
    4730.0     974.0    3756.0 2286.90     0.8921E-03
    4730.0     973.0    3757.0 2287.92     0.9023E-03
    4730.0     972.0    3758.0 2288.93     0.9126E-03
    4730.0     971.0    3759.0 2289.95     0.9229E-03
    4730.0     970.0    3760.0 2290.96     0.9334E-03
    4730.0     969.0    3761.0 2291.98     0.9441E-03
    4730.0     968.0    3762.0 2292.99     0.9548E-03
    4730.0     967.0    3763.0 2294.00     0.9657E-03
    4730.0     966.0    3764.0 2295.02     0.9766E-03
    4730.0     965.0    3765.0 2296.03     0.9877E-03
    4730.0     964.0    3766.0 2297.04     0.9990E-03
    4730.0     963.0    3767.0 2298.05     0.1010E-02
    4730.0     962.0    3768.0 2299.06     0.1022E-02
    4730.0     961.0    3769.0 2300.07     0.1033E-02
    4730.0     960.0    3770.0 2301.08     0.1045E-02
    4730.0     959.0    3771.0 2302.09     0.1057E-02
    4730.0     958.0    3772.0 2303.10     0.1069E-02
    4730.0     957.0    3773.0 2304.11     0.1081E-02
    4730.0     956.0    3774.0 2305.12     0.1093E-02
    4730.0     955.0    3775.0 2306.13     0.1106E-02
    4730.0     954.0    3776.0 2307.13     0.1118E-02
    4730.0     953.0    3777.0 2308.14     0.1131E-02
    4730.0     952.0    3778.0 2309.15     0.1144E-02
    4730.0     951.0    3779.0 2310.15     0.1157E-02
    4730.0     950.0    3780.0 2311.16     0.1170E-02
    4730.0     949.0    3781.0 2312.16     0.1183E-02
    4730.0     948.0    3782.0 2313.17     0.1197E-02
    4730.0     947.0    3783.0 2314.17     0.1210E-02
    4730.0     946.0    3784.0 2315.18     0.1224E-02
    4730.0     945.0    3785.0 2316.18     0.1238E-02
    4730.0     944.0    3786.0 2317.18     0.1252E-02
    4730.0     943.0    3787.0 2318.19     0.1266E-02
    4730.0     942.0    3788.0 2319.19     0.1281E-02
    4730.0     941.0    3789.0 2320.19     0.1295E-02
    4730.0     940.0    3790.0 2321.19     0.1310E-02
    4730.0     939.0    3791.0 2322.19     0.1325E-02
    4730.0     938.0    3792.0 2323.19     0.1340E-02
    4730.0     937.0    3793.0 2324.19     0.1355E-02
    4730.0     936.0    3794.0 2325.19     0.1371E-02
    4730.0     935.0    3795.0 2326.19     0.1386E-02
    4730.0     934.0    3796.0 2327.19     0.1402E-02
    4730.0     933.0    3797.0 2328.19     0.1418E-02
    4730.0     932.0    3798.0 2329.19     0.1434E-02
    4730.0     931.0    3799.0 2330.18     0.1450E-02
    4730.0     930.0    3800.0 2331.18     0.1467E-02
    4730.0     929.0    3801.0 2332.18     0.1484E-02
    4730.0     928.0    3802.0 2333.17     0.1500E-02
    4730.0     927.0    3803.0 2334.17     0.1518E-02
    4730.0     926.0    3804.0 2335.16     0.1535E-02
    4730.0     925.0    3805.0 2336.16     0.1552E-02
    4730.0     924.0    3806.0 2337.15     0.1570E-02
    4730.0     923.0    3807.0 2338.15     0.1588E-02
    4730.0     922.0    3808.0 2339.14     0.1606E-02
    4730.0     921.0    3809.0 2340.13     0.1624E-02
    4730.0     920.0    3810.0 2341.13     0.1643E-02
    4730.0     919.0    3811.0 2342.12     0.1661E-02
    4730.0     918.0    3812.0 2343.11     0.1680E-02
    4730.0     917.0    3813.0 2344.10     0.1700E-02
    4730.0     916.0    3814.0 2345.09     0.1719E-02
    4730.0     915.0    3815.0 2346.09     0.1739E-02
    4730.0     914.0    3816.0 2347.08     0.1758E-02
    4730.0     913.0    3817.0 2348.07     0.1778E-02
    4730.0     912.0    3818.0 2349.05     0.1799E-02
    4730.0     911.0    3819.0 2350.04     0.1819E-02
    4730.0     910.0    3820.0 2351.03     0.1840E-02
    4730.0     909.0    3821.0 2352.02     0.1861E-02
    4730.0     908.0    3822.0 2353.01     0.1882E-02
    4730.0     907.0    3823.0 2354.00     0.1904E-02
    4730.0     906.0    3824.0 2354.98     0.1926E-02
    4730.0     905.0    3825.0 2355.97     0.1948E-02
    4730.0     904.0    3826.0 2356.95     0.1970E-02
    4730.0     903.0    3827.0 2357.94     0.1992E-02
    4730.0     902.0    3828.0 2358.93     0.2015E-02
    4730.0     901.0    3829.0 2359.91     0.2038E-02
    4730.0     900.0    3830.0 2360.89     0.2062E-02
    4730.0     899.0    3831.0 2361.88     0.2085E-02
    4730.0     898.0    3832.0 2362.86     0.2109E-02
    4730.0     897.0    3833.0 2363.85     0.2133E-02
    4730.0     896.0    3834.0 2364.83     0.2158E-02
    4730.0     895.0    3835.0 2365.81     0.2183E-02
    4730.0     894.0    3836.0 2366.79     0.2208E-02
    4730.0     893.0    3837.0 2367.77     0.2233E-02
    4730.0     892.0    3838.0 2368.76     0.2259E-02
    4730.0     891.0    3839.0 2369.74     0.2285E-02
    4730.0     890.0    3840.0 2370.72     0.2311E-02
    4730.0     889.0    3841.0 2371.70     0.2338E-02
    4730.0     888.0    3842.0 2372.68     0.2365E-02
    4730.0     887.0    3843.0 2373.66     0.2392E-02
    4730.0     886.0    3844.0 2374.63     0.2419E-02
    4730.0     885.0    3845.0 2375.61     0.2447E-02
    4730.0     884.0    3846.0 2376.59     0.2475E-02
    4730.0     883.0    3847.0 2377.57     0.2504E-02
    4730.0     882.0    3848.0 2378.55     0.2533E-02
    4730.0     881.0    3849.0 2379.52     0.2562E-02
    4730.0     880.0    3850.0 2380.50     0.2592E-02
    4730.0     879.0    3851.0 2381.47     0.2622E-02
    4730.0     878.0    3852.0 2382.45     0.2652E-02
    4730.0     877.0    3853.0 2383.42     0.2683E-02
    4730.0     876.0    3854.0 2384.40     0.2714E-02
    4730.0     875.0    3855.0 2385.37     0.2745E-02
    4730.0     874.0    3856.0 2386.35     0.2777E-02
    4730.0     873.0    3857.0 2387.32     0.2809E-02
    4730.0     872.0    3858.0 2388.29     0.2842E-02
    4730.0     871.0    3859.0 2389.27     0.2875E-02
    4730.0     870.0    3860.0 2390.24     0.2908E-02
    4730.0     869.0    3861.0 2391.21     0.2942E-02
    4730.0     868.0    3862.0 2392.18     0.2976E-02
    4730.0     867.0    3863.0 2393.15     0.3011E-02
    4730.0     866.0    3864.0 2394.12     0.3046E-02
    4730.0     865.0    3865.0 2395.10     0.3081E-02
    4730.0     864.0    3866.0 2396.07     0.3117E-02
    4730.0     863.0    3867.0 2397.03     0.3153E-02
    4730.0     862.0    3868.0 2398.00     0.3190E-02
    4730.0     861.0    3869.0 2398.97     0.3227E-02
    4730.0     860.0    3870.0 2399.94     0.3265E-02
    4730.0     859.0    3871.0 2400.91     0.3303E-02
    4730.0     858.0    3872.0 2401.88     0.3342E-02
    4730.0     857.0    3873.0 2402.84     0.3381E-02
    4730.0     856.0    3874.0 2403.81     0.3421E-02
    4730.0     855.0    3875.0 2404.78     0.3461E-02
    4730.0     854.0    3876.0 2405.74     0.3501E-02
    4730.0     853.0    3877.0 2406.71     0.3542E-02
    4730.0     852.0    3878.0 2407.67     0.3584E-02
    4730.0     851.0    3879.0 2408.64     0.3626E-02
    4730.0     850.0    3880.0 2409.60     0.3669E-02
    4730.0     849.0    3881.0 2410.57     0.3712E-02
    4730.0     848.0    3882.0 2411.53     0.3755E-02
    4730.0     847.0    3883.0 2412.50     0.3800E-02
    4730.0     846.0    3884.0 2413.46     0.3844E-02
    4730.0     845.0    3885.0 2414.42     0.3890E-02
    4730.0     844.0    3886.0 2415.38     0.3936E-02
    4730.0     843.0    3887.0 2416.34     0.3982E-02
    4730.0     842.0    3888.0 2417.31     0.4029E-02
    4730.0     841.0    3889.0 2418.27     0.4077E-02
    4730.0     840.0    3890.0 2419.23     0.4125E-02
    4730.0     839.0    3891.0 2420.19     0.4174E-02
    4730.0     838.0    3892.0 2421.15     0.4224E-02
    4730.0     837.0    3893.0 2422.11     0.4274E-02
    4730.0     836.0    3894.0 2423.07     0.4325E-02
    4730.0     835.0    3895.0 2424.03     0.4376E-02
    4730.0     834.0    3896.0 2424.98     0.4428E-02
    4730.0     833.0    3897.0 2425.94     0.4481E-02
    4730.0     832.0    3898.0 2426.90     0.4534E-02
    4730.0     831.0    3899.0 2427.86     0.4588E-02
    4730.0     830.0    3900.0 2428.81     0.4643E-02
    4730.0     829.0    3901.0 2429.77     0.4698E-02
    4730.0     828.0    3902.0 2430.73     0.4754E-02
    4730.0     827.0    3903.0 2431.68     0.4811E-02
    4730.0     826.0    3904.0 2432.64     0.4869E-02
    4730.0     825.0    3905.0 2433.59     0.4927E-02
    4730.0     824.0    3906.0 2434.55     0.4986E-02
    4730.0     823.0    3907.0 2435.50     0.5046E-02
    4730.0     822.0    3908.0 2436.46     0.5107E-02
    4730.0     821.0    3909.0 2437.41     0.5168E-02
    4730.0     820.0    3910.0 2438.36     0.5230E-02
    4730.0     819.0    3911.0 2439.31     0.5293E-02
    4730.0     818.0    3912.0 2440.27     0.5357E-02
    4730.0     817.0    3913.0 2441.22     0.5422E-02
    4730.0     816.0    3914.0 2442.17     0.5487E-02
    4730.0     815.0    3915.0 2443.12     0.5554E-02
    4730.0     814.0    3916.0 2444.07     0.5621E-02
    4730.0     813.0    3917.0 2445.02     0.5689E-02
    4730.0     812.0    3918.0 2445.97     0.5758E-02
    4730.0     811.0    3919.0 2446.92     0.5828E-02
    4730.0     810.0    3920.0 2447.87     0.5899E-02
    4730.0     809.0    3921.0 2448.82     0.5970E-02
    4730.0     808.0    3922.0 2449.77     0.6043E-02
    4730.0     807.0    3923.0 2450.72     0.6116E-02
    4730.0     806.0    3924.0 2451.67     0.6191E-02
    4730.0     805.0    3925.0 2452.61     0.6266E-02
    4730.0     804.0    3926.0 2453.56     0.6343E-02
    4730.0     803.0    3927.0 2454.51     0.6421E-02
    4730.0     802.0    3928.0 2455.46     0.6499E-02
    4730.0     801.0    3929.0 2456.40     0.6579E-02
    4730.0     800.0    3930.0 2457.35     0.6659E-02
    4730.0     799.0    3931.0 2458.29     0.6741E-02
    4730.0     798.0    3932.0 2459.24     0.6824E-02
    4730.0     797.0    3933.0 2460.18     0.6908E-02
    4730.0     796.0    3934.0 2461.13     0.6993E-02
    4730.0     795.0    3935.0 2462.07     0.7079E-02
    4730.0     794.0    3936.0 2463.01     0.7166E-02
    4730.0     793.0    3937.0 2463.96     0.7255E-02
    4730.0     792.0    3938.0 2464.90     0.7344E-02
    4730.0     791.0    3939.0 2465.84     0.7435E-02
    4730.0     790.0    3940.0 2466.79     0.7527E-02
    4730.0     789.0    3941.0 2467.73     0.7620E-02
    4730.0     788.0    3942.0 2468.67     0.7715E-02
    4730.0     787.0    3943.0 2469.61     0.7811E-02
    4730.0     786.0    3944.0 2470.55     0.7908E-02
    4730.0     785.0    3945.0 2471.49     0.8006E-02
    4730.0     784.0    3946.0 2472.43     0.8106E-02
    4730.0     783.0    3947.0 2473.37     0.8207E-02
    4730.0     782.0    3948.0 2474.31     0.8309E-02
    4730.0     781.0    3949.0 2475.25     0.8413E-02
    4730.0     780.0    3950.0 2476.19     0.8519E-02
    4730.0     779.0    3951.0 2477.13     0.8625E-02
    4730.0     778.0    3952.0 2478.06     0.8733E-02
    4730.0     777.0    3953.0 2479.00     0.8843E-02
    4730.0     776.0    3954.0 2479.94     0.8954E-02
    4730.0     775.0    3955.0 2480.87     0.9067E-02
    4730.0     774.0    3956.0 2481.81     0.9181E-02
    4730.0     773.0    3957.0 2482.75     0.9296E-02
    4730.0     772.0    3958.0 2483.68     0.9414E-02
    4730.0     771.0    3959.0 2484.62     0.9533E-02
    4730.0     770.0    3960.0 2485.55     0.9653E-02
    4730.0     769.0    3961.0 2486.49     0.9775E-02
    4730.0     768.0    3962.0 2487.42     0.9899E-02
    4730.0     767.0    3963.0 2488.36     0.1002E-01
    4730.0     766.0    3964.0 2489.29     0.1015E-01
    4730.0     765.0    3965.0 2490.22     0.1028E-01
    4730.0     764.0    3966.0 2491.16     0.1041E-01
    4730.0     763.0    3967.0 2492.09     0.1054E-01
    4730.0     762.0    3968.0 2493.02     0.1068E-01
    4730.0     761.0    3969.0 2493.95     0.1082E-01
    4730.0     760.0    3970.0 2494.88     0.1095E-01
    4730.0     759.0    3971.0 2495.82     0.1109E-01
    4730.0     758.0    3972.0 2496.75     0.1124E-01
    4730.0     757.0    3973.0 2497.68     0.1138E-01
    4730.0     756.0    3974.0 2498.61     0.1153E-01
    4730.0     755.0    3975.0 2499.54     0.1167E-01
    4730.0     754.0    3976.0 2500.47     0.1182E-01
    4730.0     753.0    3977.0 2501.40     0.1198E-01
    4730.0     752.0    3978.0 2502.32     0.1213E-01
    4730.0     751.0    3979.0 2503.25     0.1229E-01
    4730.0     750.0    3980.0 2504.18     0.1245E-01
    4730.0     749.0    3981.0 2505.11     0.1261E-01
    4730.0     748.0    3982.0 2506.04     0.1277E-01
    4730.0     747.0    3983.0 2506.96     0.1294E-01
    4730.0     746.0    3984.0 2507.89     0.1310E-01
    4730.0     745.0    3985.0 2508.82     0.1327E-01
    4730.0     744.0    3986.0 2509.74     0.1345E-01
    4730.0     743.0    3987.0 2510.67     0.1362E-01
    4730.0     742.0    3988.0 2511.59     0.1380E-01
    4730.0     741.0    3989.0 2512.52     0.1398E-01
    4730.0     740.0    3990.0 2513.44     0.1416E-01
    4730.0     739.0    3991.0 2514.37     0.1435E-01
    4730.0     738.0    3992.0 2515.29     0.1453E-01
    4730.0     737.0    3993.0 2516.21     0.1472E-01
    4730.0     736.0    3994.0 2517.14     0.1492E-01
    4730.0     735.0    3995.0 2518.06     0.1511E-01
    4730.0     734.0    3996.0 2518.98     0.1531E-01
    4730.0     733.0    3997.0 2519.91     0.1551E-01
    4730.0     732.0    3998.0 2520.83     0.1572E-01
    4730.0     731.0    3999.0 2521.75     0.1592E-01
    4730.0     730.0    4000.0 2522.67     0.1614E-01
    4730.0     729.0    4001.0 2523.59     0.1635E-01
    4730.0     728.0    4002.0 2524.51     0.1656E-01
    4730.0     727.0    4003.0 2525.43     0.1678E-01
    4730.0     726.0    4004.0 2526.35     0.1701E-01
    4730.0     725.0    4005.0 2527.27     0.1723E-01
    4730.0     724.0    4006.0 2528.19     0.1746E-01
    4730.0     723.0    4007.0 2529.11     0.1769E-01
    4730.0     722.0    4008.0 2530.03     0.1793E-01
    4730.0     721.0    4009.0 2530.95     0.1817E-01
    4730.0     720.0    4010.0 2531.87     0.1841E-01
    4730.0     719.0    4011.0 2532.78     0.1866E-01
    4730.0     718.0    4012.0 2533.70     0.1891E-01
    4730.0     717.0    4013.0 2534.62     0.1916E-01
    4730.0     716.0    4014.0 2535.53     0.1941E-01
    4730.0     715.0    4015.0 2536.45     0.1968E-01
    4730.0     714.0    4016.0 2537.37     0.1994E-01
    4730.0     713.0    4017.0 2538.28     0.2021E-01
    4730.0     712.0    4018.0 2539.20     0.2048E-01
    4730.0     711.0    4019.0 2540.11     0.2075E-01
    4730.0     710.0    4020.0 2541.03     0.2103E-01
    4730.0     709.0    4021.0 2541.94     0.2132E-01
    4730.0     708.0    4022.0 2542.85     0.2161E-01
    4730.0     707.0    4023.0 2543.77     0.2190E-01
    4730.0     706.0    4024.0 2544.68     0.2219E-01
    4730.0     705.0    4025.0 2545.59     0.2249E-01
    4730.0     704.0    4026.0 2546.51     0.2280E-01
    4730.0     703.0    4027.0 2547.42     0.2311E-01
    4730.0     702.0    4028.0 2548.33     0.2342E-01
    4730.0     701.0    4029.0 2549.24     0.2374E-01
    4730.0     700.0    4030.0 2550.15     0.2406E-01
    4730.0     699.0    4031.0 2551.07     0.2439E-01
    4730.0     698.0    4032.0 2551.98     0.2472E-01
    4730.0     697.0    4033.0 2552.89     0.2506E-01
    4730.0     696.0    4034.0 2553.80     0.2540E-01
    4730.0     695.0    4035.0 2554.71     0.2575E-01
    4730.0     694.0    4036.0 2555.62     0.2610E-01
    4730.0     693.0    4037.0 2556.52     0.2646E-01
    4730.0     692.0    4038.0 2557.43     0.2683E-01
    4730.0     691.0    4039.0 2558.34     0.2719E-01
    4730.0     690.0    4040.0 2559.25     0.2757E-01
    4730.0     689.0    4041.0 2560.16     0.2795E-01
    4730.0     688.0    4042.0 2561.07     0.2833E-01
    4730.0     687.0    4043.0 2561.97     0.2872E-01
    4730.0     686.0    4044.0 2562.88     0.2912E-01
    4730.0     685.0    4045.0 2563.79     0.2952E-01
    4730.0     684.0    4046.0 2564.69     0.2993E-01
    4730.0     683.0    4047.0 2565.60     0.3034E-01
    4730.0     682.0    4048.0 2566.50     0.3076E-01
    4730.0     681.0    4049.0 2567.41     0.3119E-01
    4730.0     680.0    4050.0 2568.31     0.3162E-01
    4730.0     679.0    4051.0 2569.22     0.3206E-01
    4730.0     678.0    4052.0 2570.12     0.3250E-01
    4730.0     677.0    4053.0 2571.03     0.3295E-01
    4730.0     676.0    4054.0 2571.93     0.3341E-01
    4730.0     675.0    4055.0 2572.83     0.3388E-01
    4730.0     674.0    4056.0 2573.74     0.3435E-01
    4730.0     673.0    4057.0 2574.64     0.3483E-01
    4730.0     672.0    4058.0 2575.54     0.3531E-01
    4730.0     671.0    4059.0 2576.44     0.3581E-01
    4730.0     670.0    4060.0 2577.34     0.3631E-01
    4730.0     669.0    4061.0 2578.25     0.3682E-01
    4730.0     668.0    4062.0 2579.15     0.3733E-01
    4730.0     667.0    4063.0 2580.05     0.3785E-01
    4730.0     666.0    4064.0 2580.95     0.3839E-01
    4730.0     665.0    4065.0 2581.85     0.3892E-01
    4730.0     664.0    4066.0 2582.75     0.3947E-01
    4730.0     663.0    4067.0 2583.65     0.4003E-01
    4730.0     662.0    4068.0 2584.55     0.4059E-01
    4730.0     661.0    4069.0 2585.45     0.4116E-01
    4730.0     660.0    4070.0 2586.34     0.4174E-01
    4730.0     659.0    4071.0 2587.24     0.4233E-01
    4730.0     658.0    4072.0 2588.14     0.4293E-01
    4730.0     657.0    4073.0 2589.04     0.4353E-01
    4730.0     656.0    4074.0 2589.94     0.4415E-01
    4730.0     655.0    4075.0 2590.83     0.4477E-01
    4730.0     654.0    4076.0 2591.73     0.4540E-01
    4730.0     653.0    4077.0 2592.63     0.4605E-01
    4730.0     652.0    4078.0 2593.52     0.4670E-01
    4730.0     651.0    4079.0 2594.42     0.4736E-01
    4730.0     650.0    4080.0 2595.31     0.4803E-01
    4730.0     649.0    4081.0 2596.21     0.4872E-01
    4730.0     648.0    4082.0 2597.10     0.4941E-01
    4730.0     647.0    4083.0 2598.00     0.5011E-01
    4730.0     646.0    4084.0 2598.89     0.5083E-01
    4730.0     645.0    4085.0 2599.79     0.5155E-01
    4730.0     644.0    4086.0 2600.68     0.5228E-01
    4730.0     643.0    4087.0 2601.57     0.5303E-01
    4730.0     642.0    4088.0 2602.47     0.5379E-01
    4730.0     641.0    4089.0 2603.36     0.5455E-01
    4730.0     640.0    4090.0 2604.25     0.5533E-01
    4730.0     639.0    4091.0 2605.14     0.5612E-01
    4730.0     638.0    4092.0 2606.04     0.5693E-01
    4730.0     637.0    4093.0 2606.93     0.5774E-01
    4730.0     636.0    4094.0 2607.82     0.5857E-01
    4730.0     635.0    4095.0 2608.71     0.5941E-01
    4730.0     634.0    4096.0 2609.60     0.6026E-01
    4730.0     633.0    4097.0 2610.49     0.6113E-01
    4730.0     632.0    4098.0 2611.38     0.6200E-01
    4730.0     631.0    4099.0 2612.27     0.6289E-01
    4730.0     630.0    4100.0 2613.16     0.6380E-01
    4730.0     629.0    4101.0 2614.05     0.6472E-01
    4730.0     628.0    4102.0 2614.94     0.6565E-01
    4730.0     627.0    4103.0 2615.83     0.6659E-01
    4730.0     626.0    4104.0 2616.71     0.6755E-01
    4730.0     625.0    4105.0 2617.60     0.6853E-01
    4730.0     624.0    4106.0 2618.49     0.6951E-01
    4730.0     623.0    4107.0 2619.38     0.7052E-01
    4730.0     622.0    4108.0 2620.26     0.7154E-01
    4730.0     621.0    4109.0 2621.15     0.7257E-01
    4730.0     620.0    4110.0 2622.04     0.7362E-01
    4730.0     619.0    4111.0 2622.92     0.7468E-01
    4730.0     618.0    4112.0 2623.81     0.7577E-01
    4730.0     617.0    4113.0 2624.69     0.7686E-01
    4730.0     616.0    4114.0 2625.58     0.7798E-01
    4730.0     615.0    4115.0 2626.46     0.7911E-01
    4730.0     614.0    4116.0 2627.35     0.8025E-01
    4730.0     613.0    4117.0 2628.23     0.8142E-01
    4730.0     612.0    4118.0 2629.12     0.8260E-01
    4730.0     611.0    4119.0 2630.00     0.8380E-01
    4730.0     610.0    4120.0 2630.88     0.8502E-01
    4730.0     609.0    4121.0 2631.77     0.8625E-01
    4730.0     608.0    4122.0 2632.65     0.8751E-01
    4730.0     607.0    4123.0 2633.53     0.8878E-01
    4730.0     606.0    4124.0 2634.41     0.9007E-01
    4730.0     605.0    4125.0 2635.30     0.9139E-01
    4730.0     604.0    4126.0 2636.18     0.9272E-01
    4730.0     603.0    4127.0 2637.06     0.9407E-01
    4730.0     602.0    4128.0 2637.94     0.9544E-01
    4730.0     601.0    4129.0 2638.82     0.9683E-01
    4730.0     600.0    4130.0 2639.70     0.9825E-01
    4730.0     599.0    4131.0 2640.58     0.9968E-01
    4730.0     598.0    4132.0 2641.46     0.1011E+00
    4730.0     597.0    4133.0 2642.34     0.1026E+00
    4730.0     596.0    4134.0 2643.22     0.1041E+00
    4730.0     595.0    4135.0 2644.10     0.1056E+00
    4730.0     594.0    4136.0 2644.98     0.1072E+00
    4730.0     593.0    4137.0 2645.86     0.1088E+00
    4730.0     592.0    4138.0 2646.73     0.1103E+00
    4730.0     591.0    4139.0 2647.61     0.1120E+00
    4730.0     590.0    4140.0 2648.49     0.1136E+00
    4730.0     589.0    4141.0 2649.37     0.1153E+00
    4730.0     588.0    4142.0 2650.24     0.1170E+00
    4730.0     587.0    4143.0 2651.12     0.1187E+00
    4730.0     586.0    4144.0 2652.00     0.1204E+00
    4730.0     585.0    4145.0 2652.87     0.1222E+00
    4730.0     584.0    4146.0 2653.75     0.1240E+00
    4730.0     583.0    4147.0 2654.62     0.1258E+00
    4730.0     582.0    4148.0 2655.50     0.1277E+00
    4730.0     581.0    4149.0 2656.37     0.1295E+00
    4730.0     580.0    4150.0 2657.25     0.1314E+00
