    1000.0     994.0       6.0  940.24     0.2326E+08
    1000.0     993.0       7.0  941.24     0.1568E+08
    1000.0     992.0       8.0  942.24     0.1187E+08
    1000.0     991.0       9.0  943.24     0.9567E+07
    1000.0     990.0      10.0  944.24     0.8025E+07
    1000.0     989.0      11.0  945.24     0.6917E+07
    1000.0     988.0      12.0  946.23     0.6083E+07
    1000.0     987.0      13.0  947.23     0.5432E+07
    1000.0     986.0      14.0  948.22     0.4909E+07
    1000.0     985.0      15.0  949.21     0.4479E+07
    1000.0     984.0      16.0  950.21     0.4120E+07
    1000.0     983.0      17.0  951.20     0.3815E+07
    1000.0     982.0      18.0  952.19     0.3553E+07
    1000.0     981.0      19.0  953.18     0.3325E+07
    1000.0     980.0      20.0  954.16     0.3126E+07
    1000.0     979.0      21.0  955.15     0.2949E+07
    1000.0     978.0      22.0  956.14     0.2792E+07
    1000.0     977.0      23.0  957.12     0.2651E+07
    1000.0     976.0      24.0  958.10     0.2523E+07
    1000.0     975.0      25.0  959.09     0.2408E+07
    1000.0     974.0      26.0  960.07     0.2303E+07
    1000.0     973.0      27.0  961.05     0.2207E+07
    1000.0     972.0      28.0  962.03     0.2119E+07
    1000.0     971.0      29.0  963.01     0.2037E+07
    1000.0     970.0      30.0  963.99     0.1962E+07
    1000.0     969.0      31.0  964.96     0.1892E+07
    1000.0     968.0      32.0  965.94     0.1828E+07
    1000.0     967.0      33.0  966.91     0.1767E+07
    1000.0     966.0      34.0  967.89     0.1711E+07
    1000.0     965.0      35.0  968.86     0.1658E+07
    1000.0     964.0      36.0  969.83     0.1608E+07
    1000.0     963.0      37.0  970.80     0.1562E+07
    1000.0     962.0      38.0  971.77     0.1518E+07
    1000.0     961.0      39.0  972.74     0.1476E+07
    1000.0     960.0      40.0  973.71     0.1437E+07
    1000.0     959.0      41.0  974.68     0.1400E+07
    1000.0     958.0      42.0  975.64     0.1364E+07
    1000.0     957.0      43.0  976.61     0.1331E+07
    1000.0     956.0      44.0  977.57     0.1299E+07
    1000.0     955.0      45.0  978.53     0.1269E+07
    1000.0     954.0      46.0  979.50     0.1240E+07
    1000.0     953.0      47.0  980.46     0.1212E+07
    1000.0     952.0      48.0  981.42     0.1186E+07
    1000.0     951.0      49.0  982.38     0.1161E+07
    1000.0     950.0      50.0  983.34     0.1136E+07
    1000.0     949.0      51.0  984.29     0.1113E+07
    1000.0     948.0      52.0  985.25     0.1091E+07
    1000.0     947.0      53.0  986.21     0.1070E+07
    1000.0     946.0      54.0  987.16     0.1049E+07
    1000.0     945.0      55.0  988.12     0.1030E+07
    1000.0     944.0      56.0  989.07     0.1011E+07
    1000.0     943.0      57.0  990.02     0.9927E+06
    1000.0     942.0      58.0  990.97     0.9752E+06
    1000.0     941.0      59.0  991.92     0.9583E+06
    1000.0     940.0      60.0  992.87     0.9420E+06
    1000.0     939.0      61.0  993.82     0.9262E+06
    1000.0     938.0      62.0  994.77     0.9110E+06
    1000.0     937.0      63.0  995.71     0.8963E+06
    1000.0     936.0      64.0  996.66     0.8820E+06
    1000.0     935.0      65.0  997.60     0.8683E+06
    1000.0     934.0      66.0  998.55     0.8549E+06
    1000.0     933.0      67.0  999.49     0.8420E+06
    1000.0     932.0      68.0 1000.43     0.8295E+06
    1000.0     931.0      69.0 1001.37     0.8174E+06
    1000.0     930.0      70.0 1002.31     0.8056E+06
    1000.0     929.0      71.0 1003.25     0.7941E+06
    1000.0     928.0      72.0 1004.19     0.7830E+06
    1000.0     927.0      73.0 1005.13     0.7723E+06
    1000.0     926.0      74.0 1006.07     0.7618E+06
    1000.0     925.0      75.0 1007.00     0.7516E+06
    1000.0     924.0      76.0 1007.94     0.7417E+06
    1000.0     923.0      77.0 1008.87     0.7321E+06
    1000.0     922.0      78.0 1009.81     0.7227E+06
    1000.0     921.0      79.0 1010.74     0.7135E+06
    1000.0     920.0      80.0 1011.67     0.7046E+06
    1000.0     919.0      81.0 1012.60     0.6960E+06
    1000.0     918.0      82.0 1013.53     0.6875E+06
    1000.0     917.0      83.0 1014.46     0.6793E+06
    1000.0     916.0      84.0 1015.39     0.6713E+06
    1000.0     915.0      85.0 1016.32     0.6634E+06
    1000.0     914.0      86.0 1017.24     0.6558E+06
    1000.0     913.0      87.0 1018.17     0.6483E+06
    1000.0     912.0      88.0 1019.09     0.6410E+06
    1000.0     911.0      89.0 1020.02     0.6339E+06
    1000.0     910.0      90.0 1020.94     0.6269E+06
    1000.0     909.0      91.0 1021.86     0.6201E+06
    1000.0     908.0      92.0 1022.78     0.6135E+06
    1000.0     907.0      93.0 1023.70     0.6070E+06
    1000.0     906.0      94.0 1024.62     0.6006E+06
    1000.0     905.0      95.0 1025.54     0.5944E+06
    1000.0     904.0      96.0 1026.46     0.5884E+06
    1000.0     903.0      97.0 1027.38     0.5824E+06
    1000.0     902.0      98.0 1028.30     0.5766E+06
    1000.0     901.0      99.0 1029.21     0.5709E+06
    1000.0     900.0     100.0 1030.13     0.5653E+06
    1000.0     899.0     101.0 1031.04     0.5598E+06
    1000.0     898.0     102.0 1031.95     0.5545E+06
    1000.0     897.0     103.0 1032.87     0.5492E+06
    1000.0     896.0     104.0 1033.78     0.5441E+06
    1000.0     895.0     105.0 1034.69     0.5390E+06
    1000.0     894.0     106.0 1035.60     0.5341E+06
    1000.0     893.0     107.0 1036.51     0.5292E+06
    1000.0     892.0     108.0 1037.42     0.5245E+06
    1000.0     891.0     109.0 1038.32     0.5198E+06
    1000.0     890.0     110.0 1039.23     0.5152E+06
    1000.0     889.0     111.0 1040.14     0.5107E+06
    1000.0     888.0     112.0 1041.04     0.5063E+06
    1000.0     887.0     113.0 1041.95     0.5020E+06
    1000.0     886.0     114.0 1042.85     0.4978E+06
    1000.0     885.0     115.0 1043.75     0.4936E+06
    1000.0     884.0     116.0 1044.66     0.4895E+06
    1000.0     883.0     117.0 1045.56     0.4855E+06
    1000.0     882.0     118.0 1046.46     0.4815E+06
    1000.0     881.0     119.0 1047.36     0.4776E+06
    1000.0     880.0     120.0 1048.26     0.4738E+06
    1000.0     879.0     121.0 1049.16     0.4700E+06
    1000.0     878.0     122.0 1050.05     0.4664E+06
    1000.0     877.0     123.0 1050.95     0.4627E+06
    1000.0     876.0     124.0 1051.85     0.4592E+06
    1000.0     875.0     125.0 1052.74     0.4557E+06
    1000.0     874.0     126.0 1053.64     0.4522E+06
    1000.0     873.0     127.0 1054.53     0.4488E+06
    1000.0     872.0     128.0 1055.42     0.4455E+06
    1000.0     871.0     129.0 1056.31     0.4422E+06
    1000.0     870.0     130.0 1057.21     0.4390E+06
    1000.0     869.0     131.0 1058.10     0.4358E+06
    1000.0     868.0     132.0 1058.99     0.4327E+06
    1000.0     867.0     133.0 1059.88     0.4296E+06
    1000.0     866.0     134.0 1060.76     0.4265E+06
    1000.0     865.0     135.0 1061.65     0.4236E+06
    1000.0     864.0     136.0 1062.54     0.4206E+06
    1000.0     863.0     137.0 1063.43     0.4177E+06
    1000.0     862.0     138.0 1064.31     0.4149E+06
    1000.0     861.0     139.0 1065.20     0.4121E+06
    1000.0     860.0     140.0 1066.08     0.4093E+06
    1000.0     859.0     141.0 1066.96     0.4066E+06
    1000.0     858.0     142.0 1067.85     0.4039E+06
    1000.0     857.0     143.0 1068.73     0.4013E+06
    1000.0     856.0     144.0 1069.61     0.3986E+06
    1000.0     855.0     145.0 1070.49     0.3961E+06
    1000.0     854.0     146.0 1071.37     0.3935E+06
    1000.0     853.0     147.0 1072.25     0.3910E+06
    1000.0     852.0     148.0 1073.13     0.3886E+06
    1000.0     851.0     149.0 1074.00     0.3862E+06
    1000.0     850.0     150.0 1074.88     0.3838E+06
    1000.0     849.0     151.0 1075.76     0.3814E+06
    1000.0     848.0     152.0 1076.63     0.3791E+06
    1000.0     847.0     153.0 1077.51     0.3768E+06
    1000.0     846.0     154.0 1078.38     0.3745E+06
    1000.0     845.0     155.0 1079.25     0.3723E+06
    1000.0     844.0     156.0 1080.13     0.3701E+06
    1000.0     843.0     157.0 1081.00     0.3679E+06
    1000.0     842.0     158.0 1081.87     0.3658E+06
    1000.0     841.0     159.0 1082.74     0.3637E+06
    1000.0     840.0     160.0 1083.61     0.3616E+06
    1000.0     839.0     161.0 1084.48     0.3595E+06
    1000.0     838.0     162.0 1085.35     0.3575E+06
    1000.0     837.0     163.0 1086.21     0.3555E+06
    1000.0     836.0     164.0 1087.08     0.3535E+06
    1000.0     835.0     165.0 1087.95     0.3516E+06
    1000.0     834.0     166.0 1088.81     0.3496E+06
    1000.0     833.0     167.0 1089.68     0.3477E+06
    1000.0     832.0     168.0 1090.54     0.3459E+06
    1000.0     831.0     169.0 1091.41     0.3440E+06
    1000.0     830.0     170.0 1092.27     0.3422E+06
    1000.0     829.0     171.0 1093.13     0.3404E+06
    1000.0     828.0     172.0 1093.99     0.3386E+06
    1000.0     827.0     173.0 1094.85     0.3368E+06
    1000.0     826.0     174.0 1095.71     0.3351E+06
    1000.0     825.0     175.0 1096.57     0.3333E+06
    1000.0     824.0     176.0 1097.43     0.3316E+06
    1000.0     823.0     177.0 1098.29     0.3300E+06
    1000.0     822.0     178.0 1099.15     0.3283E+06
    1000.0     821.0     179.0 1100.00     0.3267E+06
    1000.0     820.0     180.0 1100.86     0.3250E+06
    1000.0     819.0     181.0 1101.71     0.3234E+06
    1000.0     818.0     182.0 1102.57     0.3219E+06
    1000.0     817.0     183.0 1103.42     0.3203E+06
    1000.0     816.0     184.0 1104.28     0.3188E+06
    1000.0     815.0     185.0 1105.13     0.3172E+06
    1000.0     814.0     186.0 1105.98     0.3157E+06
    1000.0     813.0     187.0 1106.83     0.3142E+06
    1000.0     812.0     188.0 1107.68     0.3128E+06
    1000.0     811.0     189.0 1108.53     0.3113E+06
    1000.0     810.0     190.0 1109.38     0.3099E+06
    1000.0     809.0     191.0 1110.23     0.3084E+06
    1000.0     808.0     192.0 1111.08     0.3070E+06
    1000.0     807.0     193.0 1111.93     0.3056E+06
    1000.0     806.0     194.0 1112.78     0.3043E+06
    1000.0     805.0     195.0 1113.62     0.3029E+06
    1000.0     804.0     196.0 1114.47     0.3016E+06
    1000.0     803.0     197.0 1115.31     0.3002E+06
    1000.0     802.0     198.0 1116.16     0.2989E+06
    1000.0     801.0     199.0 1117.00     0.2976E+06
    1000.0     800.0     200.0 1117.84     0.2963E+06
    1000.0     799.0     201.0 1118.69     0.2951E+06
    1000.0     798.0     202.0 1119.53     0.2938E+06
    1000.0     797.0     203.0 1120.37     0.2926E+06
    1000.0     796.0     204.0 1121.21     0.2913E+06
    1000.0     795.0     205.0 1122.05     0.2901E+06
    1000.0     794.0     206.0 1122.89     0.2889E+06
    1000.0     793.0     207.0 1123.73     0.2877E+06
    1000.0     792.0     208.0 1124.57     0.2865E+06
    1000.0     791.0     209.0 1125.40     0.2854E+06
    1000.0     790.0     210.0 1126.24     0.2842E+06
    1000.0     789.0     211.0 1127.08     0.2831E+06
    1000.0     788.0     212.0 1127.91     0.2819E+06
    1000.0     787.0     213.0 1128.75     0.2808E+06
    1000.0     786.0     214.0 1129.58     0.2797E+06
    1000.0     785.0     215.0 1130.41     0.2786E+06
    1000.0     784.0     216.0 1131.25     0.2776E+06
    1000.0     783.0     217.0 1132.08     0.2765E+06
    1000.0     782.0     218.0 1132.91     0.2754E+06
    1000.0     781.0     219.0 1133.74     0.2744E+06
    1000.0     780.0     220.0 1134.57     0.2733E+06
    1000.0     779.0     221.0 1135.40     0.2723E+06
    1000.0     778.0     222.0 1136.23     0.2713E+06
    1000.0     777.0     223.0 1137.06     0.2703E+06
    1000.0     776.0     224.0 1137.89     0.2693E+06
    1000.0     775.0     225.0 1138.72     0.2683E+06
    1000.0     774.0     226.0 1139.54     0.2673E+06
    1000.0     773.0     227.0 1140.37     0.2664E+06
    1000.0     772.0     228.0 1141.20     0.2654E+06
    1000.0     771.0     229.0 1142.02     0.2645E+06
    1000.0     770.0     230.0 1142.85     0.2635E+06
    1000.0     769.0     231.0 1143.67     0.2626E+06
    1000.0     768.0     232.0 1144.49     0.2617E+06
    1000.0     767.0     233.0 1145.32     0.2608E+06
    1000.0     766.0     234.0 1146.14     0.2599E+06
    1000.0     765.0     235.0 1146.96     0.2590E+06
    1000.0     764.0     236.0 1147.78     0.2581E+06
    1000.0     763.0     237.0 1148.60     0.2572E+06
    1000.0     762.0     238.0 1149.42     0.2564E+06
    1000.0     761.0     239.0 1150.24     0.2555E+06
    1000.0     760.0     240.0 1151.06     0.2547E+06
    1000.0     759.0     241.0 1151.88     0.2538E+06
    1000.0     758.0     242.0 1152.70     0.2530E+06
    1000.0     757.0     243.0 1153.51     0.2522E+06
    1000.0     756.0     244.0 1154.33     0.2514E+06
    1000.0     755.0     245.0 1155.15     0.2506E+06
    1000.0     754.0     246.0 1155.96     0.2498E+06
    1000.0     753.0     247.0 1156.78     0.2490E+06
    1000.0     752.0     248.0 1157.59     0.2482E+06
    1000.0     751.0     249.0 1158.40     0.2474E+06
    1000.0     750.0     250.0 1159.22     0.2467E+06
    1000.0     749.0     251.0 1160.03     0.2459E+06
    1000.0     748.0     252.0 1160.84     0.2452E+06
    1000.0     747.0     253.0 1161.65     0.2444E+06
    1000.0     746.0     254.0 1162.46     0.2437E+06
    1000.0     745.0     255.0 1163.27     0.2429E+06
    1000.0     744.0     256.0 1164.08     0.2422E+06
    1000.0     743.0     257.0 1164.89     0.2415E+06
    1000.0     742.0     258.0 1165.70     0.2408E+06
    1000.0     741.0     259.0 1166.51     0.2401E+06
    1000.0     740.0     260.0 1167.31     0.2394E+06
    1000.0     739.0     261.0 1168.12     0.2387E+06
    1000.0     738.0     262.0 1168.93     0.2380E+06
    1000.0     737.0     263.0 1169.73     0.2374E+06
    1000.0     736.0     264.0 1170.54     0.2367E+06
    1000.0     735.0     265.0 1171.34     0.2360E+06
    1000.0     734.0     266.0 1172.15     0.2354E+06
    1000.0     733.0     267.0 1172.95     0.2347E+06
    1000.0     732.0     268.0 1173.75     0.2341E+06
    1000.0     731.0     269.0 1174.56     0.2334E+06
    1000.0     730.0     270.0 1175.36     0.2328E+06
    1000.0     729.0     271.0 1176.16     0.2322E+06
    1000.0     728.0     272.0 1176.96     0.2316E+06
    1000.0     727.0     273.0 1177.76     0.2310E+06
    1000.0     726.0     274.0 1178.56     0.2304E+06
    1000.0     725.0     275.0 1179.36     0.2298E+06
    1000.0     724.0     276.0 1180.16     0.2292E+06
    1000.0     723.0     277.0 1180.95     0.2286E+06
    1000.0     722.0     278.0 1181.75     0.2280E+06
    1000.0     721.0     279.0 1182.55     0.2274E+06
    1000.0     720.0     280.0 1183.35     0.2268E+06
    1000.0     719.0     281.0 1184.14     0.2263E+06
    1000.0     718.0     282.0 1184.94     0.2257E+06
    1000.0     717.0     283.0 1185.73     0.2251E+06
    1000.0     716.0     284.0 1186.53     0.2246E+06
    1000.0     715.0     285.0 1187.32     0.2241E+06
    1000.0     714.0     286.0 1188.11     0.2235E+06
    1000.0     713.0     287.0 1188.91     0.2230E+06
    1000.0     712.0     288.0 1189.70     0.2224E+06
    1000.0     711.0     289.0 1190.49     0.2219E+06
    1000.0     710.0     290.0 1191.28     0.2214E+06
    1000.0     709.0     291.0 1192.07     0.2209E+06
    1000.0     708.0     292.0 1192.86     0.2204E+06
    1000.0     707.0     293.0 1193.65     0.2199E+06
    1000.0     706.0     294.0 1194.44     0.2194E+06
    1000.0     705.0     295.0 1195.23     0.2189E+06
    1000.0     704.0     296.0 1196.02     0.2184E+06
    1000.0     703.0     297.0 1196.80     0.2179E+06
    1000.0     702.0     298.0 1197.59     0.2174E+06
    1000.0     701.0     299.0 1198.38     0.2169E+06
    1000.0     700.0     300.0 1199.16     0.2165E+06
    1000.0     699.0     301.0 1199.95     0.2160E+06
    1000.0     698.0     302.0 1200.73     0.2155E+06
    1000.0     697.0     303.0 1201.52     0.2151E+06
    1000.0     696.0     304.0 1202.30     0.2146E+06
    1000.0     695.0     305.0 1203.08     0.2142E+06
    1000.0     694.0     306.0 1203.87     0.2137E+06
    1000.0     693.0     307.0 1204.65     0.2133E+06
    1000.0     692.0     308.0 1205.43     0.2129E+06
    1000.0     691.0     309.0 1206.21     0.2124E+06
    1000.0     690.0     310.0 1206.99     0.2120E+06
    1000.0     689.0     311.0 1207.77     0.2116E+06
    1000.0     688.0     312.0 1208.55     0.2112E+06
    1000.0     687.0     313.0 1209.33     0.2108E+06
    1000.0     686.0     314.0 1210.11     0.2103E+06
    1000.0     685.0     315.0 1210.89     0.2099E+06
    1000.0     684.0     316.0 1211.67     0.2095E+06
    1000.0     683.0     317.0 1212.44     0.2091E+06
    1000.0     682.0     318.0 1213.22     0.2087E+06
    1000.0     681.0     319.0 1214.00     0.2084E+06
    1000.0     680.0     320.0 1214.77     0.2080E+06
    1000.0     679.0     321.0 1215.55     0.2076E+06
    1000.0     678.0     322.0 1216.32     0.2072E+06
    1000.0     677.0     323.0 1217.10     0.2068E+06
    1000.0     676.0     324.0 1217.87     0.2065E+06
    1000.0     675.0     325.0 1218.64     0.2061E+06
    1000.0     674.0     326.0 1219.42     0.2057E+06
    1000.0     673.0     327.0 1220.19     0.2054E+06
    1000.0     672.0     328.0 1220.96     0.2050E+06
    1000.0     671.0     329.0 1221.73     0.2047E+06
    1000.0     670.0     330.0 1222.50     0.2043E+06
    1000.0     669.0     331.0 1223.27     0.2040E+06
    1000.0     668.0     332.0 1224.04     0.2037E+06
    1000.0     667.0     333.0 1224.81     0.2033E+06
    1000.0     666.0     334.0 1225.58     0.2030E+06
    1000.0     665.0     335.0 1226.35     0.2027E+06
    1000.0     664.0     336.0 1227.12     0.2023E+06
    1000.0     663.0     337.0 1227.89     0.2020E+06
    1000.0     662.0     338.0 1228.65     0.2017E+06
    1000.0     661.0     339.0 1229.42     0.2014E+06
    1000.0     660.0     340.0 1230.19     0.2011E+06
    1000.0     659.0     341.0 1230.95     0.2008E+06
    1000.0     658.0     342.0 1231.72     0.2005E+06
    1000.0     657.0     343.0 1232.48     0.2002E+06
    1000.0     656.0     344.0 1233.24     0.1999E+06
    1000.0     655.0     345.0 1234.01     0.1996E+06
    1000.0     654.0     346.0 1234.77     0.1993E+06
    1000.0     653.0     347.0 1235.53     0.1990E+06
    1000.0     652.0     348.0 1236.30     0.1987E+06
    1000.0     651.0     349.0 1237.06     0.1984E+06
    1000.0     650.0     350.0 1237.82     0.1981E+06
    1000.0     649.0     351.0 1238.58     0.1979E+06
    1000.0     648.0     352.0 1239.34     0.1976E+06
    1000.0     647.0     353.0 1240.10     0.1973E+06
    1000.0     646.0     354.0 1240.86     0.1971E+06
    1000.0     645.0     355.0 1241.62     0.1968E+06
    1000.0     644.0     356.0 1242.38     0.1966E+06
    1000.0     643.0     357.0 1243.14     0.1963E+06
    1000.0     642.0     358.0 1243.89     0.1961E+06
    1000.0     641.0     359.0 1244.65     0.1958E+06
    1000.0     640.0     360.0 1245.41     0.1956E+06
    1000.0     639.0     361.0 1246.16     0.1953E+06
    1000.0     638.0     362.0 1246.92     0.1951E+06
    1000.0     637.0     363.0 1247.67     0.1948E+06
    1000.0     636.0     364.0 1248.43     0.1946E+06
    1000.0     635.0     365.0 1249.18     0.1944E+06
    1000.0     634.0     366.0 1249.94     0.1942E+06
    1000.0     633.0     367.0 1250.69     0.1939E+06
    1000.0     632.0     368.0 1251.44     0.1937E+06
    1000.0     631.0     369.0 1252.20     0.1935E+06
    1000.0     630.0     370.0 1252.95     0.1933E+06
    1000.0     629.0     371.0 1253.70     0.1931E+06
    1000.0     628.0     372.0 1254.45     0.1929E+06
    1000.0     627.0     373.0 1255.20     0.1927E+06
    1000.0     626.0     374.0 1255.95     0.1925E+06
    1000.0     625.0     375.0 1256.70     0.1923E+06
    1000.0     624.0     376.0 1257.45     0.1921E+06
    1000.0     623.0     377.0 1258.20     0.1919E+06
    1000.0     622.0     378.0 1258.95     0.1917E+06
    1000.0     621.0     379.0 1259.70     0.1915E+06
    1000.0     620.0     380.0 1260.45     0.1913E+06
    1000.0     619.0     381.0 1261.19     0.1911E+06
    1000.0     618.0     382.0 1261.94     0.1909E+06
    1000.0     617.0     383.0 1262.69     0.1908E+06
    1000.0     616.0     384.0 1263.43     0.1906E+06
    1000.0     615.0     385.0 1264.18     0.1904E+06
    1000.0     614.0     386.0 1264.92     0.1902E+06
    1000.0     613.0     387.0 1265.67     0.1901E+06
    1000.0     612.0     388.0 1266.41     0.1899E+06
    1000.0     611.0     389.0 1267.15     0.1898E+06
    1000.0     610.0     390.0 1267.90     0.1896E+06
    1000.0     609.0     391.0 1268.64     0.1895E+06
    1000.0     608.0     392.0 1269.38     0.1893E+06
    1000.0     607.0     393.0 1270.12     0.1892E+06
    1000.0     606.0     394.0 1270.87     0.1890E+06
    1000.0     605.0     395.0 1271.61     0.1889E+06
    1000.0     604.0     396.0 1272.35     0.1887E+06
    1000.0     603.0     397.0 1273.09     0.1886E+06
    1000.0     602.0     398.0 1273.83     0.1884E+06
    1000.0     601.0     399.0 1274.57     0.1883E+06
    1000.0     600.0     400.0 1275.31     0.1882E+06
    1000.0     599.0     401.0 1276.04     0.1881E+06
    1000.0     598.0     402.0 1276.78     0.1879E+06
    1000.0     597.0     403.0 1277.52     0.1878E+06
    1000.0     596.0     404.0 1278.26     0.1877E+06
    1000.0     595.0     405.0 1278.99     0.1876E+06
    1000.0     594.0     406.0 1279.73     0.1875E+06
    1000.0     593.0     407.0 1280.47     0.1874E+06
    1000.0     592.0     408.0 1281.20     0.1872E+06
    1000.0     591.0     409.0 1281.94     0.1871E+06
    1000.0     590.0     410.0 1282.67     0.1870E+06
    1000.0     589.0     411.0 1283.41     0.1869E+06
    1000.0     588.0     412.0 1284.14     0.1868E+06
    1000.0     587.0     413.0 1284.87     0.1867E+06
    1000.0     586.0     414.0 1285.61     0.1867E+06
    1000.0     585.0     415.0 1286.34     0.1866E+06
    1000.0     584.0     416.0 1287.07     0.1865E+06
    1000.0     583.0     417.0 1287.80     0.1864E+06
    1000.0     582.0     418.0 1288.53     0.1863E+06
    1000.0     581.0     419.0 1289.27     0.1862E+06
    1000.0     580.0     420.0 1290.00     0.1862E+06
    1000.0     579.0     421.0 1290.73     0.1861E+06
    1000.0     578.0     422.0 1291.46     0.1860E+06
    1000.0     577.0     423.0 1292.18     0.1859E+06
    1000.0     576.0     424.0 1292.91     0.1859E+06
    1000.0     575.0     425.0 1293.64     0.1858E+06
    1000.0     574.0     426.0 1294.37     0.1857E+06
    1000.0     573.0     427.0 1295.10     0.1857E+06
    1000.0     572.0     428.0 1295.82     0.1856E+06
    1000.0     571.0     429.0 1296.55     0.1856E+06
    1000.0     570.0     430.0 1297.28     0.1855E+06
    1000.0     569.0     431.0 1298.00     0.1855E+06
    1000.0     568.0     432.0 1298.73     0.1854E+06
    1000.0     567.0     433.0 1299.45     0.1854E+06
    1000.0     566.0     434.0 1300.18     0.1853E+06
    1000.0     565.0     435.0 1300.90     0.1853E+06
    1000.0     564.0     436.0 1301.63     0.1853E+06
    1000.0     563.0     437.0 1302.35     0.1852E+06
    1000.0     562.0     438.0 1303.07     0.1852E+06
    1000.0     561.0     439.0 1303.80     0.1852E+06
    1000.0     560.0     440.0 1304.52     0.1852E+06
    1000.0     559.0     441.0 1305.24     0.1851E+06
    1000.0     558.0     442.0 1305.96     0.1851E+06
    1000.0     557.0     443.0 1306.68     0.1851E+06
    1000.0     556.0     444.0 1307.41     0.1851E+06
    1000.0     555.0     445.0 1308.13     0.1851E+06
    1000.0     554.0     446.0 1308.85     0.1851E+06
    1000.0     553.0     447.0 1309.57     0.1851E+06
    1000.0     552.0     448.0 1310.28     0.1850E+06
    1000.0     551.0     449.0 1311.00     0.1850E+06
    1000.0     550.0     450.0 1311.72     0.1850E+06
    1000.0     549.0     451.0 1312.44     0.1850E+06
    1000.0     548.0     452.0 1313.16     0.1851E+06
    1000.0     547.0     453.0 1313.87     0.1851E+06
    1000.0     546.0     454.0 1314.59     0.1851E+06
    1000.0     545.0     455.0 1315.31     0.1851E+06
    1000.0     544.0     456.0 1316.02     0.1851E+06
    1000.0     543.0     457.0 1316.74     0.1851E+06
    1000.0     542.0     458.0 1317.45     0.1851E+06
    1000.0     541.0     459.0 1318.17     0.1852E+06
    1000.0     540.0     460.0 1318.88     0.1852E+06
    1000.0     539.0     461.0 1319.60     0.1852E+06
    1000.0     538.0     462.0 1320.31     0.1852E+06
    1000.0     537.0     463.0 1321.03     0.1853E+06
    1000.0     536.0     464.0 1321.74     0.1853E+06
    1000.0     535.0     465.0 1322.45     0.1853E+06
    1000.0     534.0     466.0 1323.16     0.1854E+06
    1000.0     533.0     467.0 1323.87     0.1854E+06
    1000.0     532.0     468.0 1324.59     0.1855E+06
    1000.0     531.0     469.0 1325.30     0.1855E+06
    1000.0     530.0     470.0 1326.01     0.1856E+06
    1000.0     529.0     471.0 1326.72     0.1856E+06
    1000.0     528.0     472.0 1327.43     0.1857E+06
    1000.0     527.0     473.0 1328.14     0.1858E+06
    1000.0     526.0     474.0 1328.85     0.1858E+06
    1000.0     525.0     475.0 1329.56     0.1859E+06
    1000.0     524.0     476.0 1330.26     0.1859E+06
    1000.0     523.0     477.0 1330.97     0.1860E+06
    1000.0     522.0     478.0 1331.68     0.1861E+06
    1000.0     521.0     479.0 1332.39     0.1862E+06
    1000.0     520.0     480.0 1333.09     0.1862E+06
    1000.0     519.0     481.0 1333.80     0.1863E+06
    1000.0     518.0     482.0 1334.51     0.1864E+06
    1000.0     517.0     483.0 1335.21     0.1865E+06
    1000.0     516.0     484.0 1335.92     0.1866E+06
    1000.0     515.0     485.0 1336.62     0.1867E+06
    1000.0     514.0     486.0 1337.33     0.1868E+06
    1000.0     513.0     487.0 1338.03     0.1869E+06
    1000.0     512.0     488.0 1338.73     0.1870E+06
    1000.0     511.0     489.0 1339.44     0.1871E+06
    1000.0     510.0     490.0 1340.14     0.1872E+06
    1000.0     509.0     491.0 1340.84     0.1873E+06
    1000.0     508.0     492.0 1341.55     0.1874E+06
    1000.0     507.0     493.0 1342.25     0.1875E+06
    1000.0     506.0     494.0 1342.95     0.1876E+06
    1000.0     505.0     495.0 1343.65     0.1877E+06
    1000.0     504.0     496.0 1344.35     0.1879E+06
    1000.0     503.0     497.0 1345.05     0.1880E+06
    1000.0     502.0     498.0 1345.75     0.1881E+06
    1000.0     501.0     499.0 1346.45     0.1882E+06
    1000.0     500.0     500.0 1347.15     0.1884E+06
    1000.0     499.0     501.0 1347.85     0.1885E+06
    1000.0     498.0     502.0 1348.55     0.1886E+06
    1000.0     497.0     503.0 1349.25     0.1888E+06
    1000.0     496.0     504.0 1349.95     0.1889E+06
    1000.0     495.0     505.0 1350.64     0.1891E+06
    1000.0     494.0     506.0 1351.34     0.1892E+06
    1000.0     493.0     507.0 1352.04     0.1894E+06
    1000.0     492.0     508.0 1352.74     0.1895E+06
    1000.0     491.0     509.0 1353.43     0.1897E+06
    1000.0     490.0     510.0 1354.13     0.1898E+06
    1000.0     489.0     511.0 1354.82     0.1900E+06
    1000.0     488.0     512.0 1355.52     0.1902E+06
    1000.0     487.0     513.0 1356.21     0.1903E+06
    1000.0     486.0     514.0 1356.91     0.1905E+06
    1000.0     485.0     515.0 1357.60     0.1907E+06
    1000.0     484.0     516.0 1358.30     0.1909E+06
    1000.0     483.0     517.0 1358.99     0.1911E+06
    1000.0     482.0     518.0 1359.68     0.1912E+06
    1000.0     481.0     519.0 1360.37     0.1914E+06
    1000.0     480.0     520.0 1361.07     0.1916E+06
    1000.0     479.0     521.0 1361.76     0.1918E+06
    1000.0     478.0     522.0 1362.45     0.1920E+06
    1000.0     477.0     523.0 1363.14     0.1922E+06
    1000.0     476.0     524.0 1363.83     0.1924E+06
    1000.0     475.0     525.0 1364.52     0.1926E+06
    1000.0     474.0     526.0 1365.21     0.1928E+06
    1000.0     473.0     527.0 1365.90     0.1930E+06
    1000.0     472.0     528.0 1366.59     0.1933E+06
    1000.0     471.0     529.0 1367.28     0.1935E+06
    1000.0     470.0     530.0 1367.97     0.1937E+06
    1000.0     469.0     531.0 1368.66     0.1939E+06
    1000.0     468.0     532.0 1369.35     0.1941E+06
    1000.0     467.0     533.0 1370.04     0.1944E+06
    1000.0     466.0     534.0 1370.72     0.1946E+06
    1000.0     465.0     535.0 1371.41     0.1949E+06
    1000.0     464.0     536.0 1372.10     0.1951E+06
    1000.0     463.0     537.0 1372.78     0.1953E+06
    1000.0     462.0     538.0 1373.47     0.1956E+06
    1000.0     461.0     539.0 1374.16     0.1958E+06
    1000.0     460.0     540.0 1374.84     0.1961E+06
    1000.0     459.0     541.0 1375.53     0.1963E+06
    1000.0     458.0     542.0 1376.21     0.1966E+06
    1000.0     457.0     543.0 1376.89     0.1969E+06
    1000.0     456.0     544.0 1377.58     0.1971E+06
    1000.0     455.0     545.0 1378.26     0.1974E+06
    1000.0     454.0     546.0 1378.95     0.1977E+06
    1000.0     453.0     547.0 1379.63     0.1980E+06
    1000.0     452.0     548.0 1380.31     0.1982E+06
    1000.0     451.0     549.0 1380.99     0.1985E+06
    1000.0     450.0     550.0 1381.68     0.1988E+06
    1000.0     449.0     551.0 1382.36     0.1991E+06
    1000.0     448.0     552.0 1383.04     0.1994E+06
    1000.0     447.0     553.0 1383.72     0.1997E+06
    1000.0     446.0     554.0 1384.40     0.2000E+06
    1000.0     445.0     555.0 1385.08     0.2003E+06
    1000.0     444.0     556.0 1385.76     0.2006E+06
    1000.0     443.0     557.0 1386.44     0.2009E+06
    1000.0     442.0     558.0 1387.12     0.2013E+06
    1000.0     441.0     559.0 1387.80     0.2016E+06
    1000.0     440.0     560.0 1388.48     0.2019E+06
    1000.0     439.0     561.0 1389.16     0.2022E+06
    1000.0     438.0     562.0 1389.83     0.2026E+06
    1000.0     437.0     563.0 1390.51     0.2029E+06
    1000.0     436.0     564.0 1391.19     0.2032E+06
    1000.0     435.0     565.0 1391.87     0.2036E+06
    1000.0     434.0     566.0 1392.54     0.2039E+06
    1000.0     433.0     567.0 1393.22     0.2043E+06
    1000.0     432.0     568.0 1393.90     0.2047E+06
    1000.0     431.0     569.0 1394.57     0.2050E+06
    1000.0     430.0     570.0 1395.25     0.2054E+06
    1000.0     429.0     571.0 1395.92     0.2057E+06
    1000.0     428.0     572.0 1396.60     0.2061E+06
    1000.0     427.0     573.0 1397.27     0.2065E+06
    1000.0     426.0     574.0 1397.94     0.2069E+06
    1000.0     425.0     575.0 1398.62     0.2073E+06
    1000.0     424.0     576.0 1399.29     0.2076E+06
    1000.0     423.0     577.0 1399.96     0.2080E+06
    1000.0     422.0     578.0 1400.64     0.2084E+06
    1000.0     421.0     579.0 1401.31     0.2088E+06
    1000.0     420.0     580.0 1401.98     0.2092E+06
    1000.0     419.0     581.0 1402.65     0.2097E+06
    1000.0     418.0     582.0 1403.33     0.2101E+06
    1000.0     417.0     583.0 1404.00     0.2105E+06
    1000.0     416.0     584.0 1404.67     0.2109E+06
    1000.0     415.0     585.0 1405.34     0.2113E+06
    1000.0     414.0     586.0 1406.01     0.2118E+06
    1000.0     413.0     587.0 1406.68     0.2122E+06
    1000.0     412.0     588.0 1407.35     0.2127E+06
    1000.0     411.0     589.0 1408.02     0.2131E+06
    1000.0     410.0     590.0 1408.69     0.2136E+06
    1000.0     409.0     591.0 1409.35     0.2140E+06
    1000.0     408.0     592.0 1410.02     0.2145E+06
    1000.0     407.0     593.0 1410.69     0.2149E+06
    1000.0     406.0     594.0 1411.36     0.2154E+06
    1000.0     405.0     595.0 1412.03     0.2159E+06
    1000.0     404.0     596.0 1412.69     0.2164E+06
    1000.0     403.0     597.0 1413.36     0.2168E+06
    1000.0     402.0     598.0 1414.03     0.2173E+06
    1000.0     401.0     599.0 1414.69     0.2178E+06
    1000.0     400.0     600.0 1415.36     0.2183E+06
    1000.0     399.0     601.0 1416.02     0.2188E+06
    1000.0     398.0     602.0 1416.69     0.2193E+06
    1000.0     397.0     603.0 1417.35     0.2199E+06
    1000.0     396.0     604.0 1418.02     0.2204E+06
    1000.0     395.0     605.0 1418.68     0.2209E+06
    1000.0     394.0     606.0 1419.35     0.2214E+06
    1000.0     393.0     607.0 1420.01     0.2220E+06
    1000.0     392.0     608.0 1420.67     0.2225E+06
    1000.0     391.0     609.0 1421.34     0.2230E+06
    1000.0     390.0     610.0 1422.00     0.2236E+06
    1000.0     389.0     611.0 1422.66     0.2242E+06
    1000.0     388.0     612.0 1423.32     0.2247E+06
    1000.0     387.0     613.0 1423.98     0.2253E+06
    1000.0     386.0     614.0 1424.65     0.2259E+06
    1000.0     385.0     615.0 1425.31     0.2264E+06
    1000.0     384.0     616.0 1425.97     0.2270E+06
    1000.0     383.0     617.0 1426.63     0.2276E+06
    1000.0     382.0     618.0 1427.29     0.2282E+06
    1000.0     381.0     619.0 1427.95     0.2288E+06
    1000.0     380.0     620.0 1428.61     0.2294E+06
    1000.0     379.0     621.0 1429.27     0.2300E+06
    1000.0     378.0     622.0 1429.93     0.2307E+06
    1000.0     377.0     623.0 1430.58     0.2313E+06
    1000.0     376.0     624.0 1431.24     0.2319E+06
    1000.0     375.0     625.0 1431.90     0.2326E+06
    1000.0     374.0     626.0 1432.56     0.2332E+06
    1000.0     373.0     627.0 1433.22     0.2339E+06
    1000.0     372.0     628.0 1433.87     0.2345E+06
    1000.0     371.0     629.0 1434.53     0.2352E+06
    1000.0     370.0     630.0 1435.19     0.2359E+06
    1000.0     369.0     631.0 1435.84     0.2365E+06
    1000.0     368.0     632.0 1436.50     0.2372E+06
    1000.0     367.0     633.0 1437.15     0.2379E+06
    1000.0     366.0     634.0 1437.81     0.2386E+06
    1000.0     365.0     635.0 1438.47     0.2393E+06
    1000.0     364.0     636.0 1439.12     0.2400E+06
    1000.0     363.0     637.0 1439.77     0.2407E+06
    1000.0     362.0     638.0 1440.43     0.2415E+06
    1000.0     361.0     639.0 1441.08     0.2422E+06
    1000.0     360.0     640.0 1441.74     0.2429E+06
    1000.0     359.0     641.0 1442.39     0.2437E+06
    1000.0     358.0     642.0 1443.04     0.2444E+06
    1000.0     357.0     643.0 1443.69     0.2452E+06
    1000.0     356.0     644.0 1444.35     0.2460E+06
    1000.0     355.0     645.0 1445.00     0.2467E+06
    1000.0     354.0     646.0 1445.65     0.2475E+06
    1000.0     353.0     647.0 1446.30     0.2483E+06
    1000.0     352.0     648.0 1446.95     0.2491E+06
    1000.0     351.0     649.0 1447.60     0.2499E+06
    1000.0     350.0     650.0 1448.26     0.2507E+06
    1000.0     349.0     651.0 1448.91     0.2516E+06
    1000.0     348.0     652.0 1449.56     0.2524E+06
    1000.0     347.0     653.0 1450.21     0.2532E+06
    1000.0     346.0     654.0 1450.86     0.2541E+06
    1000.0     345.0     655.0 1451.50     0.2549E+06
    1000.0     344.0     656.0 1452.15     0.2558E+06
    1000.0     343.0     657.0 1452.80     0.2567E+06
    1000.0     342.0     658.0 1453.45     0.2576E+06
    1000.0     341.0     659.0 1454.10     0.2585E+06
    1000.0     340.0     660.0 1454.75     0.2594E+06
    1000.0     339.0     661.0 1455.39     0.2603E+06
    1000.0     338.0     662.0 1456.04     0.2612E+06
    1000.0     337.0     663.0 1456.69     0.2621E+06
    1000.0     336.0     664.0 1457.33     0.2630E+06
    1000.0     335.0     665.0 1457.98     0.2640E+06
    1000.0     334.0     666.0 1458.63     0.2649E+06
    1000.0     333.0     667.0 1459.27     0.2659E+06
    1000.0     332.0     668.0 1459.92     0.2669E+06
    1000.0     331.0     669.0 1460.56     0.2679E+06
    1000.0     330.0     670.0 1461.21     0.2688E+06
    1000.0     329.0     671.0 1461.85     0.2699E+06
    1000.0     328.0     672.0 1462.50     0.2709E+06
    1000.0     327.0     673.0 1463.14     0.2719E+06
    1000.0     326.0     674.0 1463.78     0.2729E+06
    1000.0     325.0     675.0 1464.43     0.2740E+06
    1000.0     324.0     676.0 1465.07     0.2750E+06
    1000.0     323.0     677.0 1465.71     0.2761E+06
    1000.0     322.0     678.0 1466.36     0.2771E+06
    1000.0     321.0     679.0 1467.00     0.2782E+06
    1000.0     320.0     680.0 1467.64     0.2793E+06
    1000.0     319.0     681.0 1468.28     0.2804E+06
    1000.0     318.0     682.0 1468.92     0.2816E+06
    1000.0     317.0     683.0 1469.56     0.2827E+06
    1000.0     316.0     684.0 1470.21     0.2838E+06
    1000.0     315.0     685.0 1470.85     0.2850E+06
    1000.0     314.0     686.0 1471.49     0.2861E+06
    1000.0     313.0     687.0 1472.13     0.2873E+06
    1000.0     312.0     688.0 1472.77     0.2885E+06
    1000.0     311.0     689.0 1473.41     0.2897E+06
    1000.0     310.0     690.0 1474.05     0.2909E+06
    1000.0     309.0     691.0 1474.68     0.2921E+06
    1000.0     308.0     692.0 1475.32     0.2934E+06
    1000.0     307.0     693.0 1475.96     0.2946E+06
    1000.0     306.0     694.0 1476.60     0.2959E+06
    1000.0     305.0     695.0 1477.24     0.2972E+06
    1000.0     304.0     696.0 1477.88     0.2985E+06
    1000.0     303.0     697.0 1478.51     0.2998E+06
    1000.0     302.0     698.0 1479.15     0.3011E+06
    1000.0     301.0     699.0 1479.79     0.3024E+06
    1000.0     300.0     700.0 1480.42     0.3037E+06
    1000.0     299.0     701.0 1481.06     0.3051E+06
    1000.0     298.0     702.0 1481.70     0.3065E+06
    1000.0     297.0     703.0 1482.33     0.3079E+06
    1000.0     296.0     704.0 1482.97     0.3093E+06
    1000.0     295.0     705.0 1483.60     0.3107E+06
    1000.0     294.0     706.0 1484.24     0.3121E+06
    1000.0     293.0     707.0 1484.87     0.3135E+06
    1000.0     292.0     708.0 1485.51     0.3150E+06
    1000.0     291.0     709.0 1486.14     0.3165E+06
    1000.0     290.0     710.0 1486.77     0.3180E+06
    1000.0     289.0     711.0 1487.41     0.3195E+06
    1000.0     288.0     712.0 1488.04     0.3210E+06
    1000.0     287.0     713.0 1488.67     0.3225E+06
    1000.0     286.0     714.0 1489.31     0.3241E+06
    1000.0     285.0     715.0 1489.94     0.3257E+06
    1000.0     284.0     716.0 1490.57     0.3273E+06
    1000.0     283.0     717.0 1491.20     0.3289E+06
    1000.0     282.0     718.0 1491.83     0.3305E+06
    1000.0     281.0     719.0 1492.46     0.3321E+06
    1000.0     280.0     720.0 1493.10     0.3338E+06
    1000.0     279.0     721.0 1493.73     0.3355E+06
    1000.0     278.0     722.0 1494.36     0.3372E+06
    1000.0     277.0     723.0 1494.99     0.3389E+06
    1000.0     276.0     724.0 1495.62     0.3406E+06
    1000.0     275.0     725.0 1496.25     0.3424E+06
    1000.0     274.0     726.0 1496.88     0.3441E+06
    1000.0     273.0     727.0 1497.51     0.3459E+06
    1000.0     272.0     728.0 1498.13     0.3478E+06
    1000.0     271.0     729.0 1498.76     0.3496E+06
    1000.0     270.0     730.0 1499.39     0.3514E+06
    1000.0     269.0     731.0 1500.02     0.3533E+06
    1000.0     268.0     732.0 1500.65     0.3552E+06
    1000.0     267.0     733.0 1501.28     0.3571E+06
    1000.0     266.0     734.0 1501.90     0.3591E+06
    1000.0     265.0     735.0 1502.53     0.3610E+06
    1000.0     264.0     736.0 1503.16     0.3630E+06
    1000.0     263.0     737.0 1503.78     0.3650E+06
    1000.0     262.0     738.0 1504.41     0.3670E+06
    1000.0     261.0     739.0 1505.04     0.3691E+06
    1000.0     260.0     740.0 1505.66     0.3712E+06
    1000.0     259.0     741.0 1506.29     0.3733E+06
    1000.0     258.0     742.0 1506.91     0.3754E+06
    1000.0     257.0     743.0 1507.54     0.3775E+06
    1000.0     256.0     744.0 1508.16     0.3797E+06
    1000.0     255.0     745.0 1508.79     0.3819E+06
    1000.0     254.0     746.0 1509.41     0.3841E+06
    1000.0     253.0     747.0 1510.04     0.3864E+06
    1000.0     252.0     748.0 1510.66     0.3886E+06
    1000.0     251.0     749.0 1511.28     0.3909E+06
    1000.0     250.0     750.0 1511.91     0.3933E+06
    1000.0     249.0     751.0 1512.53     0.3956E+06
    1000.0     248.0     752.0 1513.15     0.3980E+06
    1000.0     247.0     753.0 1513.77     0.4004E+06
    1000.0     246.0     754.0 1514.40     0.4029E+06
    1000.0     245.0     755.0 1515.02     0.4053E+06
    1000.0     244.0     756.0 1515.64     0.4078E+06
    1000.0     243.0     757.0 1516.26     0.4104E+06
    1000.0     242.0     758.0 1516.88     0.4129E+06
    1000.0     241.0     759.0 1517.50     0.4155E+06
    1000.0     240.0     760.0 1518.12     0.4182E+06
    1000.0     239.0     761.0 1518.74     0.4208E+06
    1000.0     238.0     762.0 1519.36     0.4235E+06
    1000.0     237.0     763.0 1519.98     0.4262E+06
    1000.0     236.0     764.0 1520.60     0.4290E+06
    1000.0     235.0     765.0 1521.22     0.4318E+06
    1000.0     234.0     766.0 1521.84     0.4346E+06
    1000.0     233.0     767.0 1522.46     0.4375E+06
    1000.0     232.0     768.0 1523.08     0.4404E+06
    1000.0     231.0     769.0 1523.70     0.4433E+06
    1000.0     230.0     770.0 1524.32     0.4463E+06
    1000.0     229.0     771.0 1524.94     0.4493E+06
    1000.0     228.0     772.0 1525.55     0.4524E+06
    1000.0     227.0     773.0 1526.17     0.4555E+06
    1000.0     226.0     774.0 1526.79     0.4586E+06
    1000.0     225.0     775.0 1527.40     0.4618E+06
    1000.0     224.0     776.0 1528.02     0.4650E+06
    1000.0     223.0     777.0 1528.64     0.4682E+06
    1000.0     222.0     778.0 1529.25     0.4715E+06
    1000.0     221.0     779.0 1529.87     0.4749E+06
    1000.0     220.0     780.0 1530.48     0.4783E+06
    1000.0     219.0     781.0 1531.10     0.4817E+06
    1000.0     218.0     782.0 1531.72     0.4852E+06
    1000.0     217.0     783.0 1532.33     0.4887E+06
    1000.0     216.0     784.0 1532.95     0.4923E+06
    1000.0     215.0     785.0 1533.56     0.4959E+06
    1000.0     214.0     786.0 1534.17     0.4995E+06
    1000.0     213.0     787.0 1534.79     0.5033E+06
    1000.0     212.0     788.0 1535.40     0.5070E+06
    1000.0     211.0     789.0 1536.01     0.5109E+06
    1000.0     210.0     790.0 1536.63     0.5147E+06
    1000.0     209.0     791.0 1537.24     0.5187E+06
    1000.0     208.0     792.0 1537.85     0.5226E+06
    1000.0     207.0     793.0 1538.47     0.5267E+06
    1000.0     206.0     794.0 1539.08     0.5308E+06
    1000.0     205.0     795.0 1539.69     0.5349E+06
    1000.0     204.0     796.0 1540.30     0.5391E+06
    1000.0     203.0     797.0 1540.91     0.5434E+06
    1000.0     202.0     798.0 1541.52     0.5477E+06
    1000.0     201.0     799.0 1542.14     0.5521E+06
    1000.0     200.0     800.0 1542.75     0.5566E+06
    1000.0     199.0     801.0 1543.36     0.5611E+06
    1000.0     198.0     802.0 1543.97     0.5657E+06
    1000.0     197.0     803.0 1544.58     0.5704E+06
    1000.0     196.0     804.0 1545.19     0.5751E+06
    1000.0     195.0     805.0 1545.80     0.5799E+06
    1000.0     194.0     806.0 1546.41     0.5847E+06
    1000.0     193.0     807.0 1547.02     0.5897E+06
    1000.0     192.0     808.0 1547.62     0.5947E+06
    1000.0     191.0     809.0 1548.23     0.5998E+06
    1000.0     190.0     810.0 1548.84     0.6049E+06
    1000.0     189.0     811.0 1549.45     0.6102E+06
    1000.0     188.0     812.0 1550.06     0.6155E+06
    1000.0     187.0     813.0 1550.66     0.6209E+06
    1000.0     186.0     814.0 1551.27     0.6264E+06
    1000.0     185.0     815.0 1551.88     0.6320E+06
    1000.0     184.0     816.0 1552.49     0.6376E+06
    1000.0     183.0     817.0 1553.09     0.6434E+06
    1000.0     182.0     818.0 1553.70     0.6492E+06
    1000.0     181.0     819.0 1554.31     0.6551E+06
    1000.0     180.0     820.0 1554.91     0.6612E+06
    1000.0     179.0     821.0 1555.52     0.6673E+06
    1000.0     178.0     822.0 1556.12     0.6735E+06
    1000.0     177.0     823.0 1556.73     0.6798E+06
    1000.0     176.0     824.0 1557.33     0.6862E+06
    1000.0     175.0     825.0 1557.94     0.6928E+06
    1000.0     174.0     826.0 1558.54     0.6994E+06
    1000.0     173.0     827.0 1559.15     0.7061E+06
    1000.0     172.0     828.0 1559.75     0.7130E+06
    1000.0     171.0     829.0 1560.36     0.7200E+06
