   20000.0   18480.0    1520.0  959.07     0.4944E+02
   20000.0   18470.0    1530.0  969.59     0.3368E+02
   20000.0   18460.0    1540.0  980.00     0.2571E+02
   20000.0   18450.0    1550.0  990.30     0.2087E+02
   20000.0   18440.0    1560.0 1000.49     0.1762E+02
   20000.0   18430.0    1570.0 1010.57     0.1527E+02
   20000.0   18420.0    1580.0 1020.56     0.1350E+02
   20000.0   18410.0    1590.0 1030.45     0.1211E+02
   20000.0   18400.0    1600.0 1040.25     0.1099E+02
   20000.0   18390.0    1610.0 1049.96     0.1007E+02
   20000.0   18380.0    1620.0 1059.57     0.9301E+01
   20000.0   18370.0    1630.0 1069.10     0.8646E+01
   20000.0   18360.0    1640.0 1078.55     0.8081E+01
   20000.0   18350.0    1650.0 1087.92     0.7590E+01
   20000.0   18340.0    1660.0 1097.20     0.7159E+01
   20000.0   18330.0    1670.0 1106.41     0.6777E+01
   20000.0   18320.0    1680.0 1115.54     0.6436E+01
   20000.0   18310.0    1690.0 1124.59     0.6130E+01
   20000.0   18300.0    1700.0 1133.58     0.5854E+01
   20000.0   18290.0    1710.0 1142.49     0.5603E+01
   20000.0   18280.0    1720.0 1151.34     0.5375E+01
   20000.0   18270.0    1730.0 1160.11     0.5165E+01
   20000.0   18260.0    1740.0 1168.82     0.4973E+01
   20000.0   18250.0    1750.0 1177.47     0.4796E+01
   20000.0   18240.0    1760.0 1186.05     0.4632E+01
   20000.0   18230.0    1770.0 1194.58     0.4480E+01
   20000.0   18220.0    1780.0 1203.04     0.4338E+01
   20000.0   18210.0    1790.0 1211.44     0.4206E+01
   20000.0   18200.0    1800.0 1219.78     0.4083E+01
   20000.0   18190.0    1810.0 1228.07     0.3967E+01
   20000.0   18180.0    1820.0 1236.30     0.3858E+01
   20000.0   18170.0    1830.0 1244.48     0.3756E+01
   20000.0   18160.0    1840.0 1252.61     0.3660E+01
   20000.0   18150.0    1850.0 1260.68     0.3569E+01
   20000.0   18140.0    1860.0 1268.70     0.3483E+01
   20000.0   18130.0    1870.0 1276.67     0.3401E+01
   20000.0   18120.0    1880.0 1284.59     0.3324E+01
   20000.0   18110.0    1890.0 1292.46     0.3250E+01
   20000.0   18100.0    1900.0 1300.29     0.3181E+01
   20000.0   18090.0    1910.0 1308.07     0.3114E+01
   20000.0   18080.0    1920.0 1315.80     0.3051E+01
   20000.0   18070.0    1930.0 1323.48     0.2990E+01
   20000.0   18060.0    1940.0 1331.13     0.2932E+01
   20000.0   18050.0    1950.0 1338.73     0.2877E+01
   20000.0   18040.0    1960.0 1346.28     0.2824E+01
   20000.0   18030.0    1970.0 1353.80     0.2774E+01
   20000.0   18020.0    1980.0 1361.27     0.2725E+01
   20000.0   18010.0    1990.0 1368.70     0.2678E+01
   20000.0   18000.0    2000.0 1376.09     0.2633E+01
   20000.0   17990.0    2010.0 1383.44     0.2590E+01
   20000.0   17980.0    2020.0 1390.76     0.2549E+01
   20000.0   17970.0    2030.0 1398.03     0.2509E+01
   20000.0   17960.0    2040.0 1405.27     0.2471E+01
   20000.0   17950.0    2050.0 1412.47     0.2434E+01
   20000.0   17940.0    2060.0 1419.63     0.2398E+01
   20000.0   17930.0    2070.0 1426.76     0.2363E+01
   20000.0   17920.0    2080.0 1433.85     0.2330E+01
   20000.0   17910.0    2090.0 1440.91     0.2298E+01
   20000.0   17900.0    2100.0 1447.93     0.2267E+01
   20000.0   17890.0    2110.0 1454.92     0.2237E+01
   20000.0   17880.0    2120.0 1461.87     0.2208E+01
   20000.0   17870.0    2130.0 1468.80     0.2179E+01
   20000.0   17860.0    2140.0 1475.69     0.2152E+01
   20000.0   17850.0    2150.0 1482.54     0.2126E+01
   20000.0   17840.0    2160.0 1489.37     0.2100E+01
   20000.0   17830.0    2170.0 1496.17     0.2075E+01
   20000.0   17820.0    2180.0 1502.93     0.2051E+01
   20000.0   17810.0    2190.0 1509.67     0.2027E+01
   20000.0   17800.0    2200.0 1516.37     0.2005E+01
   20000.0   17790.0    2210.0 1523.04     0.1983E+01
   20000.0   17780.0    2220.0 1529.69     0.1961E+01
   20000.0   17770.0    2230.0 1536.31     0.1940E+01
   20000.0   17760.0    2240.0 1542.90     0.1920E+01
   20000.0   17750.0    2250.0 1549.46     0.1900E+01
   20000.0   17740.0    2260.0 1555.99     0.1881E+01
   20000.0   17730.0    2270.0 1562.49     0.1862E+01
   20000.0   17720.0    2280.0 1568.97     0.1844E+01
   20000.0   17710.0    2290.0 1575.43     0.1826E+01
   20000.0   17700.0    2300.0 1581.85     0.1809E+01
   20000.0   17690.0    2310.0 1588.25     0.1792E+01
   20000.0   17680.0    2320.0 1594.62     0.1775E+01
   20000.0   17670.0    2330.0 1600.97     0.1759E+01
   20000.0   17660.0    2340.0 1607.30     0.1744E+01
   20000.0   17650.0    2350.0 1613.60     0.1729E+01
   20000.0   17640.0    2360.0 1619.87     0.1714E+01
   20000.0   17630.0    2370.0 1626.12     0.1699E+01
   20000.0   17620.0    2380.0 1632.35     0.1685E+01
   20000.0   17610.0    2390.0 1638.55     0.1671E+01
   20000.0   17600.0    2400.0 1644.73     0.1658E+01
   20000.0   17590.0    2410.0 1650.88     0.1644E+01
   20000.0   17580.0    2420.0 1657.02     0.1631E+01
   20000.0   17570.0    2430.0 1663.13     0.1619E+01
   20000.0   17560.0    2440.0 1669.21     0.1606E+01
   20000.0   17550.0    2450.0 1675.28     0.1594E+01
   20000.0   17540.0    2460.0 1681.32     0.1583E+01
   20000.0   17530.0    2470.0 1687.35     0.1571E+01
   20000.0   17520.0    2480.0 1693.35     0.1560E+01
   20000.0   17510.0    2490.0 1699.33     0.1549E+01
   20000.0   17500.0    2500.0 1705.29     0.1538E+01
   20000.0   17490.0    2510.0 1711.22     0.1527E+01
   20000.0   17480.0    2520.0 1717.14     0.1517E+01
   20000.0   17470.0    2530.0 1723.04     0.1507E+01
   20000.0   17460.0    2540.0 1728.92     0.1497E+01
   20000.0   17450.0    2550.0 1734.77     0.1487E+01
   20000.0   17440.0    2560.0 1740.61     0.1478E+01
   20000.0   17430.0    2570.0 1746.43     0.1469E+01
   20000.0   17420.0    2580.0 1752.23     0.1460E+01
   20000.0   17410.0    2590.0 1758.01     0.1451E+01
   20000.0   17400.0    2600.0 1763.77     0.1442E+01
   20000.0   17390.0    2610.0 1769.51     0.1433E+01
   20000.0   17380.0    2620.0 1775.23     0.1425E+01
   20000.0   17370.0    2630.0 1780.94     0.1417E+01
   20000.0   17360.0    2640.0 1786.62     0.1409E+01
   20000.0   17350.0    2650.0 1792.29     0.1401E+01
   20000.0   17340.0    2660.0 1797.94     0.1393E+01
   20000.0   17330.0    2670.0 1803.58     0.1385E+01
   20000.0   17320.0    2680.0 1809.19     0.1378E+01
   20000.0   17310.0    2690.0 1814.79     0.1371E+01
   20000.0   17300.0    2700.0 1820.37     0.1363E+01
   20000.0   17290.0    2710.0 1825.94     0.1356E+01
   20000.0   17280.0    2720.0 1831.48     0.1349E+01
   20000.0   17270.0    2730.0 1837.01     0.1343E+01
   20000.0   17260.0    2740.0 1842.53     0.1336E+01
   20000.0   17250.0    2750.0 1848.02     0.1330E+01
   20000.0   17240.0    2760.0 1853.50     0.1323E+01
   20000.0   17230.0    2770.0 1858.97     0.1317E+01
   20000.0   17220.0    2780.0 1864.42     0.1311E+01
   20000.0   17210.0    2790.0 1869.85     0.1305E+01
   20000.0   17200.0    2800.0 1875.27     0.1299E+01
   20000.0   17190.0    2810.0 1880.67     0.1293E+01
   20000.0   17180.0    2820.0 1886.06     0.1287E+01
   20000.0   17170.0    2830.0 1891.43     0.1282E+01
   20000.0   17160.0    2840.0 1896.78     0.1276E+01
   20000.0   17150.0    2850.0 1902.12     0.1271E+01
   20000.0   17140.0    2860.0 1907.45     0.1265E+01
   20000.0   17130.0    2870.0 1912.76     0.1260E+01
   20000.0   17120.0    2880.0 1918.05     0.1255E+01
   20000.0   17110.0    2890.0 1923.34     0.1250E+01
   20000.0   17100.0    2900.0 1928.60     0.1245E+01
   20000.0   17090.0    2910.0 1933.85     0.1240E+01
   20000.0   17080.0    2920.0 1939.09     0.1236E+01
   20000.0   17070.0    2930.0 1944.32     0.1231E+01
   20000.0   17060.0    2940.0 1949.53     0.1226E+01
   20000.0   17050.0    2950.0 1954.72     0.1222E+01
   20000.0   17040.0    2960.0 1959.91     0.1217E+01
   20000.0   17030.0    2970.0 1965.07     0.1213E+01
   20000.0   17020.0    2980.0 1970.23     0.1209E+01
   20000.0   17010.0    2990.0 1975.37     0.1205E+01
   20000.0   17000.0    3000.0 1980.50     0.1201E+01
   20000.0   16990.0    3010.0 1985.62     0.1196E+01
   20000.0   16980.0    3020.0 1990.72     0.1193E+01
   20000.0   16970.0    3030.0 1995.81     0.1189E+01
   20000.0   16960.0    3040.0 2000.88     0.1185E+01
   20000.0   16950.0    3050.0 2005.95     0.1181E+01
   20000.0   16940.0    3060.0 2011.00     0.1177E+01
   20000.0   16930.0    3070.0 2016.03     0.1174E+01
   20000.0   16920.0    3080.0 2021.06     0.1170E+01
   20000.0   16910.0    3090.0 2026.07     0.1167E+01
   20000.0   16900.0    3100.0 2031.07     0.1163E+01
   20000.0   16890.0    3110.0 2036.06     0.1160E+01
   20000.0   16880.0    3120.0 2041.04     0.1157E+01
   20000.0   16870.0    3130.0 2046.00     0.1153E+01
   20000.0   16860.0    3140.0 2050.95     0.1150E+01
   20000.0   16850.0    3150.0 2055.89     0.1147E+01
   20000.0   16840.0    3160.0 2060.82     0.1144E+01
   20000.0   16830.0    3170.0 2065.74     0.1141E+01
   20000.0   16820.0    3180.0 2070.64     0.1138E+01
   20000.0   16810.0    3190.0 2075.53     0.1135E+01
   20000.0   16800.0    3200.0 2080.42     0.1132E+01
   20000.0   16790.0    3210.0 2085.29     0.1130E+01
   20000.0   16780.0    3220.0 2090.15     0.1127E+01
   20000.0   16770.0    3230.0 2094.99     0.1124E+01
   20000.0   16760.0    3240.0 2099.83     0.1122E+01
   20000.0   16750.0    3250.0 2104.65     0.1119E+01
   20000.0   16740.0    3260.0 2109.47     0.1116E+01
   20000.0   16730.0    3270.0 2114.27     0.1114E+01
   20000.0   16720.0    3280.0 2119.06     0.1111E+01
   20000.0   16710.0    3290.0 2123.85     0.1109E+01
   20000.0   16700.0    3300.0 2128.62     0.1107E+01
   20000.0   16690.0    3310.0 2133.38     0.1104E+01
   20000.0   16680.0    3320.0 2138.13     0.1102E+01
   20000.0   16670.0    3330.0 2142.86     0.1100E+01
   20000.0   16660.0    3340.0 2147.59     0.1098E+01
   20000.0   16650.0    3350.0 2152.31     0.1096E+01
   20000.0   16640.0    3360.0 2157.02     0.1094E+01
   20000.0   16630.0    3370.0 2161.72     0.1092E+01
   20000.0   16620.0    3380.0 2166.40     0.1090E+01
   20000.0   16610.0    3390.0 2171.08     0.1088E+01
   20000.0   16600.0    3400.0 2175.75     0.1086E+01
   20000.0   16590.0    3410.0 2180.41     0.1084E+01
   20000.0   16580.0    3420.0 2185.05     0.1082E+01
   20000.0   16570.0    3430.0 2189.69     0.1080E+01
   20000.0   16560.0    3440.0 2194.32     0.1078E+01
   20000.0   16550.0    3450.0 2198.94     0.1077E+01
   20000.0   16540.0    3460.0 2203.54     0.1075E+01
   20000.0   16530.0    3470.0 2208.14     0.1073E+01
   20000.0   16520.0    3480.0 2212.73     0.1072E+01
   20000.0   16510.0    3490.0 2217.31     0.1070E+01
   20000.0   16500.0    3500.0 2221.88     0.1069E+01
   20000.0   16490.0    3510.0 2226.44     0.1067E+01
   20000.0   16480.0    3520.0 2230.99     0.1066E+01
   20000.0   16470.0    3530.0 2235.54     0.1064E+01
   20000.0   16460.0    3540.0 2240.07     0.1063E+01
   20000.0   16450.0    3550.0 2244.59     0.1061E+01
   20000.0   16440.0    3560.0 2249.11     0.1060E+01
   20000.0   16430.0    3570.0 2253.61     0.1059E+01
   20000.0   16420.0    3580.0 2258.11     0.1058E+01
   20000.0   16410.0    3590.0 2262.60     0.1056E+01
   20000.0   16400.0    3600.0 2267.08     0.1055E+01
   20000.0   16390.0    3610.0 2271.55     0.1054E+01
   20000.0   16380.0    3620.0 2276.01     0.1053E+01
   20000.0   16370.0    3630.0 2280.46     0.1052E+01
   20000.0   16360.0    3640.0 2284.90     0.1051E+01
   20000.0   16350.0    3650.0 2289.34     0.1050E+01
   20000.0   16340.0    3660.0 2293.77     0.1049E+01
   20000.0   16330.0    3670.0 2298.18     0.1048E+01
   20000.0   16320.0    3680.0 2302.59     0.1047E+01
   20000.0   16310.0    3690.0 2306.99     0.1046E+01
   20000.0   16300.0    3700.0 2311.39     0.1045E+01
   20000.0   16290.0    3710.0 2315.77     0.1044E+01
   20000.0   16280.0    3720.0 2320.15     0.1043E+01
   20000.0   16270.0    3730.0 2324.52     0.1042E+01
   20000.0   16260.0    3740.0 2328.88     0.1041E+01
   20000.0   16250.0    3750.0 2333.23     0.1041E+01
   20000.0   16240.0    3760.0 2337.57     0.1040E+01
   20000.0   16230.0    3770.0 2341.91     0.1039E+01
   20000.0   16220.0    3780.0 2346.23     0.1039E+01
   20000.0   16210.0    3790.0 2350.55     0.1038E+01
   20000.0   16200.0    3800.0 2354.86     0.1037E+01
   20000.0   16190.0    3810.0 2359.17     0.1037E+01
   20000.0   16180.0    3820.0 2363.46     0.1036E+01
   20000.0   16170.0    3830.0 2367.75     0.1036E+01
   20000.0   16160.0    3840.0 2372.03     0.1035E+01
   20000.0   16150.0    3850.0 2376.30     0.1035E+01
   20000.0   16140.0    3860.0 2380.57     0.1034E+01
   20000.0   16130.0    3870.0 2384.83     0.1034E+01
   20000.0   16120.0    3880.0 2389.08     0.1033E+01
   20000.0   16110.0    3890.0 2393.32     0.1033E+01
   20000.0   16100.0    3900.0 2397.55     0.1032E+01
   20000.0   16090.0    3910.0 2401.78     0.1032E+01
   20000.0   16080.0    3920.0 2406.00     0.1032E+01
   20000.0   16070.0    3930.0 2410.21     0.1031E+01
   20000.0   16060.0    3940.0 2414.42     0.1031E+01
   20000.0   16050.0    3950.0 2418.62     0.1031E+01
   20000.0   16040.0    3960.0 2422.81     0.1031E+01
   20000.0   16030.0    3970.0 2426.99     0.1030E+01
   20000.0   16020.0    3980.0 2431.16     0.1030E+01
   20000.0   16010.0    3990.0 2435.33     0.1030E+01
   20000.0   16000.0    4000.0 2439.50     0.1030E+01
   20000.0   15990.0    4010.0 2443.65     0.1030E+01
   20000.0   15980.0    4020.0 2447.80     0.1030E+01
   20000.0   15970.0    4030.0 2451.94     0.1030E+01
   20000.0   15960.0    4040.0 2456.07     0.1029E+01
   20000.0   15950.0    4050.0 2460.20     0.1029E+01
   20000.0   15940.0    4060.0 2464.32     0.1029E+01
   20000.0   15930.0    4070.0 2468.43     0.1029E+01
   20000.0   15920.0    4080.0 2472.54     0.1029E+01
   20000.0   15910.0    4090.0 2476.64     0.1029E+01
   20000.0   15900.0    4100.0 2480.73     0.1030E+01
   20000.0   15890.0    4110.0 2484.81     0.1030E+01
   20000.0   15880.0    4120.0 2488.89     0.1030E+01
   20000.0   15870.0    4130.0 2492.97     0.1030E+01
   20000.0   15860.0    4140.0 2497.03     0.1030E+01
   20000.0   15850.0    4150.0 2501.09     0.1030E+01
   20000.0   15840.0    4160.0 2505.14     0.1030E+01
   20000.0   15830.0    4170.0 2509.19     0.1031E+01
   20000.0   15820.0    4180.0 2513.23     0.1031E+01
   20000.0   15810.0    4190.0 2517.26     0.1031E+01
   20000.0   15800.0    4200.0 2521.29     0.1031E+01
   20000.0   15790.0    4210.0 2525.31     0.1032E+01
   20000.0   15780.0    4220.0 2529.32     0.1032E+01
   20000.0   15770.0    4230.0 2533.33     0.1032E+01
   20000.0   15760.0    4240.0 2537.33     0.1033E+01
   20000.0   15750.0    4250.0 2541.32     0.1033E+01
   20000.0   15740.0    4260.0 2545.31     0.1033E+01
   20000.0   15730.0    4270.0 2549.29     0.1034E+01
   20000.0   15720.0    4280.0 2553.27     0.1034E+01
   20000.0   15710.0    4290.0 2557.24     0.1034E+01
   20000.0   15700.0    4300.0 2561.20     0.1035E+01
   20000.0   15690.0    4310.0 2565.16     0.1035E+01
   20000.0   15680.0    4320.0 2569.11     0.1036E+01
   20000.0   15670.0    4330.0 2573.06     0.1036E+01
   20000.0   15660.0    4340.0 2577.00     0.1037E+01
   20000.0   15650.0    4350.0 2580.93     0.1037E+01
   20000.0   15640.0    4360.0 2584.86     0.1038E+01
   20000.0   15630.0    4370.0 2588.78     0.1039E+01
   20000.0   15620.0    4380.0 2592.69     0.1039E+01
   20000.0   15610.0    4390.0 2596.60     0.1040E+01
   20000.0   15600.0    4400.0 2600.51     0.1040E+01
   20000.0   15590.0    4410.0 2604.41     0.1041E+01
   20000.0   15580.0    4420.0 2608.30     0.1042E+01
   20000.0   15570.0    4430.0 2612.18     0.1042E+01
   20000.0   15560.0    4440.0 2616.06     0.1043E+01
   20000.0   15550.0    4450.0 2619.94     0.1044E+01
   20000.0   15540.0    4460.0 2623.81     0.1045E+01
   20000.0   15530.0    4470.0 2627.67     0.1045E+01
   20000.0   15520.0    4480.0 2631.53     0.1046E+01
   20000.0   15510.0    4490.0 2635.38     0.1047E+01
   20000.0   15500.0    4500.0 2639.23     0.1048E+01
   20000.0   15490.0    4510.0 2643.07     0.1049E+01
   20000.0   15480.0    4520.0 2646.90     0.1049E+01
   20000.0   15470.0    4530.0 2650.73     0.1050E+01
   20000.0   15460.0    4540.0 2654.56     0.1051E+01
   20000.0   15450.0    4550.0 2658.37     0.1052E+01
   20000.0   15440.0    4560.0 2662.19     0.1053E+01
   20000.0   15430.0    4570.0 2665.99     0.1054E+01
   20000.0   15420.0    4580.0 2669.80     0.1055E+01
   20000.0   15410.0    4590.0 2673.59     0.1056E+01
   20000.0   15400.0    4600.0 2677.39     0.1057E+01
   20000.0   15390.0    4610.0 2681.17     0.1058E+01
   20000.0   15380.0    4620.0 2684.95     0.1059E+01
   20000.0   15370.0    4630.0 2688.73     0.1060E+01
   20000.0   15360.0    4640.0 2692.50     0.1061E+01
   20000.0   15350.0    4650.0 2696.26     0.1062E+01
   20000.0   15340.0    4660.0 2700.02     0.1063E+01
   20000.0   15330.0    4670.0 2703.78     0.1064E+01
   20000.0   15320.0    4680.0 2707.52     0.1065E+01
   20000.0   15310.0    4690.0 2711.27     0.1066E+01
   20000.0   15300.0    4700.0 2715.01     0.1067E+01
   20000.0   15290.0    4710.0 2718.74     0.1068E+01
   20000.0   15280.0    4720.0 2722.47     0.1070E+01
   20000.0   15270.0    4730.0 2726.19     0.1071E+01
   20000.0   15260.0    4740.0 2729.91     0.1072E+01
   20000.0   15250.0    4750.0 2733.62     0.1073E+01
   20000.0   15240.0    4760.0 2737.33     0.1074E+01
   20000.0   15230.0    4770.0 2741.04     0.1076E+01
   20000.0   15220.0    4780.0 2744.73     0.1077E+01
   20000.0   15210.0    4790.0 2748.43     0.1078E+01
   20000.0   15200.0    4800.0 2752.12     0.1079E+01
   20000.0   15190.0    4810.0 2755.80     0.1081E+01
   20000.0   15180.0    4820.0 2759.48     0.1082E+01
   20000.0   15170.0    4830.0 2763.15     0.1083E+01
   20000.0   15160.0    4840.0 2766.82     0.1085E+01
   20000.0   15150.0    4850.0 2770.48     0.1086E+01
   20000.0   15140.0    4860.0 2774.14     0.1087E+01
   20000.0   15130.0    4870.0 2777.80     0.1089E+01
   20000.0   15120.0    4880.0 2781.45     0.1090E+01
   20000.0   15110.0    4890.0 2785.09     0.1092E+01
   20000.0   15100.0    4900.0 2788.73     0.1093E+01
   20000.0   15090.0    4910.0 2792.37     0.1095E+01
   20000.0   15080.0    4920.0 2796.00     0.1096E+01
   20000.0   15070.0    4930.0 2799.62     0.1098E+01
   20000.0   15060.0    4940.0 2803.24     0.1099E+01
   20000.0   15050.0    4950.0 2806.86     0.1101E+01
   20000.0   15040.0    4960.0 2810.47     0.1102E+01
   20000.0   15030.0    4970.0 2814.08     0.1104E+01
   20000.0   15020.0    4980.0 2817.68     0.1105E+01
   20000.0   15010.0    4990.0 2821.28     0.1107E+01
   20000.0   15000.0    5000.0 2824.87     0.1108E+01
   20000.0   14990.0    5010.0 2828.46     0.1110E+01
   20000.0   14980.0    5020.0 2832.04     0.1112E+01
   20000.0   14970.0    5030.0 2835.62     0.1113E+01
   20000.0   14960.0    5040.0 2839.20     0.1115E+01
   20000.0   14950.0    5050.0 2842.77     0.1117E+01
   20000.0   14940.0    5060.0 2846.33     0.1118E+01
   20000.0   14930.0    5070.0 2849.90     0.1120E+01
   20000.0   14920.0    5080.0 2853.45     0.1122E+01
   20000.0   14910.0    5090.0 2857.01     0.1123E+01
   20000.0   14900.0    5100.0 2860.55     0.1125E+01
   20000.0   14890.0    5110.0 2864.10     0.1127E+01
   20000.0   14880.0    5120.0 2867.64     0.1129E+01
   20000.0   14870.0    5130.0 2871.17     0.1130E+01
   20000.0   14860.0    5140.0 2874.70     0.1132E+01
   20000.0   14850.0    5150.0 2878.23     0.1134E+01
   20000.0   14840.0    5160.0 2881.75     0.1136E+01
   20000.0   14830.0    5170.0 2885.27     0.1138E+01
   20000.0   14820.0    5180.0 2888.78     0.1140E+01
   20000.0   14810.0    5190.0 2892.29     0.1142E+01
   20000.0   14800.0    5200.0 2895.80     0.1143E+01
   20000.0   14790.0    5210.0 2899.30     0.1145E+01
   20000.0   14780.0    5220.0 2902.80     0.1147E+01
   20000.0   14770.0    5230.0 2906.29     0.1149E+01
   20000.0   14760.0    5240.0 2909.78     0.1151E+01
   20000.0   14750.0    5250.0 2913.26     0.1153E+01
   20000.0   14740.0    5260.0 2916.74     0.1155E+01
   20000.0   14730.0    5270.0 2920.22     0.1157E+01
   20000.0   14720.0    5280.0 2923.69     0.1159E+01
   20000.0   14710.0    5290.0 2927.15     0.1161E+01
   20000.0   14700.0    5300.0 2930.62     0.1163E+01
   20000.0   14690.0    5310.0 2934.08     0.1165E+01
   20000.0   14680.0    5320.0 2937.53     0.1167E+01
   20000.0   14670.0    5330.0 2940.98     0.1169E+01
   20000.0   14660.0    5340.0 2944.43     0.1172E+01
   20000.0   14650.0    5350.0 2947.87     0.1174E+01
   20000.0   14640.0    5360.0 2951.31     0.1176E+01
   20000.0   14630.0    5370.0 2954.75     0.1178E+01
   20000.0   14620.0    5380.0 2958.18     0.1180E+01
   20000.0   14610.0    5390.0 2961.61     0.1182E+01
   20000.0   14600.0    5400.0 2965.03     0.1184E+01
   20000.0   14590.0    5410.0 2968.45     0.1187E+01
   20000.0   14580.0    5420.0 2971.86     0.1189E+01
   20000.0   14570.0    5430.0 2975.27     0.1191E+01
   20000.0   14560.0    5440.0 2978.68     0.1193E+01
   20000.0   14550.0    5450.0 2982.09     0.1196E+01
   20000.0   14540.0    5460.0 2985.48     0.1198E+01
   20000.0   14530.0    5470.0 2988.88     0.1200E+01
   20000.0   14520.0    5480.0 2992.27     0.1203E+01
   20000.0   14510.0    5490.0 2995.66     0.1205E+01
   20000.0   14500.0    5500.0 2999.04     0.1207E+01
   20000.0   14490.0    5510.0 3002.43     0.1210E+01
   20000.0   14480.0    5520.0 3005.80     0.1212E+01
   20000.0   14470.0    5530.0 3009.17     0.1214E+01
   20000.0   14460.0    5540.0 3012.54     0.1217E+01
   20000.0   14450.0    5550.0 3015.91     0.1219E+01
   20000.0   14440.0    5560.0 3019.27     0.1222E+01
   20000.0   14430.0    5570.0 3022.63     0.1224E+01
   20000.0   14420.0    5580.0 3025.98     0.1227E+01
   20000.0   14410.0    5590.0 3029.33     0.1229E+01
   20000.0   14400.0    5600.0 3032.68     0.1232E+01
   20000.0   14390.0    5610.0 3036.02     0.1234E+01
   20000.0   14380.0    5620.0 3039.36     0.1237E+01
   20000.0   14370.0    5630.0 3042.70     0.1239E+01
   20000.0   14360.0    5640.0 3046.03     0.1242E+01
   20000.0   14350.0    5650.0 3049.36     0.1244E+01
   20000.0   14340.0    5660.0 3052.68     0.1247E+01
   20000.0   14330.0    5670.0 3056.00     0.1249E+01
   20000.0   14320.0    5680.0 3059.32     0.1252E+01
   20000.0   14310.0    5690.0 3062.64     0.1255E+01
   20000.0   14300.0    5700.0 3065.95     0.1257E+01
   20000.0   14290.0    5710.0 3069.25     0.1260E+01
   20000.0   14280.0    5720.0 3072.56     0.1263E+01
   20000.0   14270.0    5730.0 3075.86     0.1265E+01
   20000.0   14260.0    5740.0 3079.15     0.1268E+01
   20000.0   14250.0    5750.0 3082.44     0.1271E+01
   20000.0   14240.0    5760.0 3085.73     0.1274E+01
   20000.0   14230.0    5770.0 3089.02     0.1276E+01
   20000.0   14220.0    5780.0 3092.30     0.1279E+01
   20000.0   14210.0    5790.0 3095.58     0.1282E+01
   20000.0   14200.0    5800.0 3098.85     0.1285E+01
   20000.0   14190.0    5810.0 3102.13     0.1288E+01
   20000.0   14180.0    5820.0 3105.39     0.1290E+01
   20000.0   14170.0    5830.0 3108.66     0.1293E+01
   20000.0   14160.0    5840.0 3111.92     0.1296E+01
   20000.0   14150.0    5850.0 3115.18     0.1299E+01
   20000.0   14140.0    5860.0 3118.43     0.1302E+01
   20000.0   14130.0    5870.0 3121.68     0.1305E+01
   20000.0   14120.0    5880.0 3124.93     0.1308E+01
   20000.0   14110.0    5890.0 3128.18     0.1311E+01
   20000.0   14100.0    5900.0 3131.42     0.1314E+01
   20000.0   14090.0    5910.0 3134.65     0.1317E+01
   20000.0   14080.0    5920.0 3137.89     0.1320E+01
   20000.0   14070.0    5930.0 3141.12     0.1323E+01
   20000.0   14060.0    5940.0 3144.35     0.1326E+01
   20000.0   14050.0    5950.0 3147.57     0.1329E+01
   20000.0   14040.0    5960.0 3150.79     0.1332E+01
   20000.0   14030.0    5970.0 3154.01     0.1335E+01
   20000.0   14020.0    5980.0 3157.23     0.1338E+01
   20000.0   14010.0    5990.0 3160.44     0.1341E+01
   20000.0   14000.0    6000.0 3163.64     0.1344E+01
   20000.0   13990.0    6010.0 3166.85     0.1348E+01
   20000.0   13980.0    6020.0 3170.05     0.1351E+01
   20000.0   13970.0    6030.0 3173.25     0.1354E+01
   20000.0   13960.0    6040.0 3176.44     0.1357E+01
   20000.0   13950.0    6050.0 3179.64     0.1360E+01
   20000.0   13940.0    6060.0 3182.82     0.1364E+01
   20000.0   13930.0    6070.0 3186.01     0.1367E+01
   20000.0   13920.0    6080.0 3189.19     0.1370E+01
   20000.0   13910.0    6090.0 3192.37     0.1373E+01
   20000.0   13900.0    6100.0 3195.55     0.1377E+01
   20000.0   13890.0    6110.0 3198.72     0.1380E+01
   20000.0   13880.0    6120.0 3201.89     0.1383E+01
   20000.0   13870.0    6130.0 3205.06     0.1387E+01
   20000.0   13860.0    6140.0 3208.22     0.1390E+01
   20000.0   13850.0    6150.0 3211.38     0.1393E+01
   20000.0   13840.0    6160.0 3214.54     0.1397E+01
   20000.0   13830.0    6170.0 3217.69     0.1400E+01
   20000.0   13820.0    6180.0 3220.84     0.1404E+01
   20000.0   13810.0    6190.0 3223.99     0.1407E+01
   20000.0   13800.0    6200.0 3227.13     0.1411E+01
   20000.0   13790.0    6210.0 3230.28     0.1414E+01
   20000.0   13780.0    6220.0 3233.42     0.1418E+01
   20000.0   13770.0    6230.0 3236.55     0.1421E+01
   20000.0   13760.0    6240.0 3239.68     0.1425E+01
   20000.0   13750.0    6250.0 3242.81     0.1428E+01
   20000.0   13740.0    6260.0 3245.94     0.1432E+01
   20000.0   13730.0    6270.0 3249.06     0.1435E+01
   20000.0   13720.0    6280.0 3252.18     0.1439E+01
   20000.0   13710.0    6290.0 3255.30     0.1443E+01
   20000.0   13700.0    6300.0 3258.42     0.1446E+01
   20000.0   13690.0    6310.0 3261.53     0.1450E+01
   20000.0   13680.0    6320.0 3264.64     0.1454E+01
   20000.0   13670.0    6330.0 3267.74     0.1457E+01
   20000.0   13660.0    6340.0 3270.84     0.1461E+01
   20000.0   13650.0    6350.0 3273.94     0.1465E+01
   20000.0   13640.0    6360.0 3277.04     0.1468E+01
   20000.0   13630.0    6370.0 3280.14     0.1472E+01
   20000.0   13620.0    6380.0 3283.23     0.1476E+01
   20000.0   13610.0    6390.0 3286.31     0.1480E+01
   20000.0   13600.0    6400.0 3289.40     0.1484E+01
   20000.0   13590.0    6410.0 3292.48     0.1487E+01
   20000.0   13580.0    6420.0 3295.56     0.1491E+01
   20000.0   13570.0    6430.0 3298.64     0.1495E+01
   20000.0   13560.0    6440.0 3301.71     0.1499E+01
   20000.0   13550.0    6450.0 3304.78     0.1503E+01
   20000.0   13540.0    6460.0 3307.85     0.1507E+01
   20000.0   13530.0    6470.0 3310.92     0.1511E+01
   20000.0   13520.0    6480.0 3313.98     0.1515E+01
   20000.0   13510.0    6490.0 3317.04     0.1519E+01
   20000.0   13500.0    6500.0 3320.09     0.1523E+01
   20000.0   13490.0    6510.0 3323.15     0.1527E+01
   20000.0   13480.0    6520.0 3326.20     0.1531E+01
   20000.0   13470.0    6530.0 3329.25     0.1535E+01
   20000.0   13460.0    6540.0 3332.29     0.1539E+01
   20000.0   13450.0    6550.0 3335.34     0.1543E+01
   20000.0   13440.0    6560.0 3338.38     0.1547E+01
   20000.0   13430.0    6570.0 3341.41     0.1551E+01
   20000.0   13420.0    6580.0 3344.45     0.1556E+01
   20000.0   13410.0    6590.0 3347.48     0.1560E+01
   20000.0   13400.0    6600.0 3350.51     0.1564E+01
   20000.0   13390.0    6610.0 3353.53     0.1568E+01
   20000.0   13380.0    6620.0 3356.56     0.1572E+01
   20000.0   13370.0    6630.0 3359.58     0.1577E+01
   20000.0   13360.0    6640.0 3362.60     0.1581E+01
   20000.0   13350.0    6650.0 3365.61     0.1585E+01
   20000.0   13340.0    6660.0 3368.62     0.1590E+01
   20000.0   13330.0    6670.0 3371.63     0.1594E+01
   20000.0   13320.0    6680.0 3374.64     0.1598E+01
   20000.0   13310.0    6690.0 3377.65     0.1603E+01
   20000.0   13300.0    6700.0 3380.65     0.1607E+01
   20000.0   13290.0    6710.0 3383.65     0.1611E+01
   20000.0   13280.0    6720.0 3386.64     0.1616E+01
   20000.0   13270.0    6730.0 3389.64     0.1620E+01
   20000.0   13260.0    6740.0 3392.63     0.1625E+01
   20000.0   13250.0    6750.0 3395.62     0.1629E+01
   20000.0   13240.0    6760.0 3398.60     0.1634E+01
   20000.0   13230.0    6770.0 3401.59     0.1638E+01
   20000.0   13220.0    6780.0 3404.57     0.1643E+01
   20000.0   13210.0    6790.0 3407.55     0.1647E+01
   20000.0   13200.0    6800.0 3410.52     0.1652E+01
   20000.0   13190.0    6810.0 3413.49     0.1657E+01
   20000.0   13180.0    6820.0 3416.46     0.1661E+01
   20000.0   13170.0    6830.0 3419.43     0.1666E+01
   20000.0   13160.0    6840.0 3422.40     0.1671E+01
   20000.0   13150.0    6850.0 3425.36     0.1675E+01
   20000.0   13140.0    6860.0 3428.32     0.1680E+01
   20000.0   13130.0    6870.0 3431.28     0.1685E+01
   20000.0   13120.0    6880.0 3434.23     0.1689E+01
   20000.0   13110.0    6890.0 3437.19     0.1694E+01
   20000.0   13100.0    6900.0 3440.14     0.1699E+01
   20000.0   13090.0    6910.0 3443.08     0.1704E+01
   20000.0   13080.0    6920.0 3446.03     0.1709E+01
   20000.0   13070.0    6930.0 3448.97     0.1714E+01
   20000.0   13060.0    6940.0 3451.91     0.1718E+01
   20000.0   13050.0    6950.0 3454.85     0.1723E+01
   20000.0   13040.0    6960.0 3457.78     0.1728E+01
   20000.0   13030.0    6970.0 3460.71     0.1733E+01
   20000.0   13020.0    6980.0 3463.64     0.1738E+01
   20000.0   13010.0    6990.0 3466.57     0.1743E+01
   20000.0   13000.0    7000.0 3469.50     0.1748E+01
   20000.0   12990.0    7010.0 3472.42     0.1753E+01
   20000.0   12980.0    7020.0 3475.34     0.1758E+01
   20000.0   12970.0    7030.0 3478.26     0.1763E+01
   20000.0   12960.0    7040.0 3481.17     0.1768E+01
   20000.0   12950.0    7050.0 3484.08     0.1774E+01
   20000.0   12940.0    7060.0 3486.99     0.1779E+01
   20000.0   12930.0    7070.0 3489.90     0.1784E+01
   20000.0   12920.0    7080.0 3492.81     0.1789E+01
   20000.0   12910.0    7090.0 3495.71     0.1794E+01
   20000.0   12900.0    7100.0 3498.61     0.1800E+01
   20000.0   12890.0    7110.0 3501.51     0.1805E+01
   20000.0   12880.0    7120.0 3504.41     0.1810E+01
   20000.0   12870.0    7130.0 3507.30     0.1815E+01
   20000.0   12860.0    7140.0 3510.19     0.1821E+01
   20000.0   12850.0    7150.0 3513.08     0.1826E+01
   20000.0   12840.0    7160.0 3515.96     0.1831E+01
   20000.0   12830.0    7170.0 3518.85     0.1837E+01
   20000.0   12820.0    7180.0 3521.73     0.1842E+01
   20000.0   12810.0    7190.0 3524.61     0.1848E+01
   20000.0   12800.0    7200.0 3527.49     0.1853E+01
   20000.0   12790.0    7210.0 3530.36     0.1859E+01
   20000.0   12780.0    7220.0 3533.23     0.1864E+01
   20000.0   12770.0    7230.0 3536.10     0.1870E+01
   20000.0   12760.0    7240.0 3538.97     0.1875E+01
   20000.0   12750.0    7250.0 3541.83     0.1881E+01
   20000.0   12740.0    7260.0 3544.70     0.1886E+01
   20000.0   12730.0    7270.0 3547.56     0.1892E+01
   20000.0   12720.0    7280.0 3550.42     0.1898E+01
   20000.0   12710.0    7290.0 3553.27     0.1903E+01
   20000.0   12700.0    7300.0 3556.13     0.1909E+01
   20000.0   12690.0    7310.0 3558.98     0.1915E+01
   20000.0   12680.0    7320.0 3561.83     0.1921E+01
   20000.0   12670.0    7330.0 3564.67     0.1926E+01
   20000.0   12660.0    7340.0 3567.52     0.1932E+01
   20000.0   12650.0    7350.0 3570.36     0.1938E+01
   20000.0   12640.0    7360.0 3573.20     0.1944E+01
   20000.0   12630.0    7370.0 3576.04     0.1950E+01
   20000.0   12620.0    7380.0 3578.87     0.1956E+01
   20000.0   12610.0    7390.0 3581.71     0.1962E+01
   20000.0   12600.0    7400.0 3584.54     0.1968E+01
   20000.0   12590.0    7410.0 3587.37     0.1973E+01
   20000.0   12580.0    7420.0 3590.19     0.1979E+01
   20000.0   12570.0    7430.0 3593.02     0.1986E+01
   20000.0   12560.0    7440.0 3595.84     0.1992E+01
   20000.0   12550.0    7450.0 3598.66     0.1998E+01
   20000.0   12540.0    7460.0 3601.48     0.2004E+01
   20000.0   12530.0    7470.0 3604.29     0.2010E+01
   20000.0   12520.0    7480.0 3607.11     0.2016E+01
   20000.0   12510.0    7490.0 3609.92     0.2022E+01
   20000.0   12500.0    7500.0 3612.73     0.2028E+01
   20000.0   12490.0    7510.0 3615.53     0.2035E+01
   20000.0   12480.0    7520.0 3618.34     0.2041E+01
   20000.0   12470.0    7530.0 3621.14     0.2047E+01
   20000.0   12460.0    7540.0 3623.94     0.2053E+01
   20000.0   12450.0    7550.0 3626.74     0.2060E+01
   20000.0   12440.0    7560.0 3629.53     0.2066E+01
   20000.0   12430.0    7570.0 3632.33     0.2073E+01
   20000.0   12420.0    7580.0 3635.12     0.2079E+01
   20000.0   12410.0    7590.0 3637.91     0.2085E+01
   20000.0   12400.0    7600.0 3640.69     0.2092E+01
   20000.0   12390.0    7610.0 3643.48     0.2098E+01
   20000.0   12380.0    7620.0 3646.26     0.2105E+01
   20000.0   12370.0    7630.0 3649.04     0.2111E+01
   20000.0   12360.0    7640.0 3651.82     0.2118E+01
   20000.0   12350.0    7650.0 3654.60     0.2125E+01
   20000.0   12340.0    7660.0 3657.37     0.2131E+01
   20000.0   12330.0    7670.0 3660.15     0.2138E+01
   20000.0   12320.0    7680.0 3662.92     0.2145E+01
   20000.0   12310.0    7690.0 3665.69     0.2151E+01
   20000.0   12300.0    7700.0 3668.45     0.2158E+01
   20000.0   12290.0    7710.0 3671.22     0.2165E+01
   20000.0   12280.0    7720.0 3673.98     0.2172E+01
   20000.0   12270.0    7730.0 3676.74     0.2179E+01
   20000.0   12260.0    7740.0 3679.50     0.2185E+01
   20000.0   12250.0    7750.0 3682.25     0.2192E+01
   20000.0   12240.0    7760.0 3685.00     0.2199E+01
   20000.0   12230.0    7770.0 3687.76     0.2206E+01
   20000.0   12220.0    7780.0 3690.51     0.2213E+01
   20000.0   12210.0    7790.0 3693.25     0.2220E+01
   20000.0   12200.0    7800.0 3696.00     0.2227E+01
   20000.0   12190.0    7810.0 3698.74     0.2234E+01
   20000.0   12180.0    7820.0 3701.48     0.2241E+01
   20000.0   12170.0    7830.0 3704.22     0.2248E+01
   20000.0   12160.0    7840.0 3706.96     0.2256E+01
   20000.0   12150.0    7850.0 3709.70     0.2263E+01
   20000.0   12140.0    7860.0 3712.43     0.2270E+01
   20000.0   12130.0    7870.0 3715.16     0.2277E+01
   20000.0   12120.0    7880.0 3717.89     0.2284E+01
   20000.0   12110.0    7890.0 3720.62     0.2292E+01
   20000.0   12100.0    7900.0 3723.34     0.2299E+01
   20000.0   12090.0    7910.0 3726.07     0.2306E+01
   20000.0   12080.0    7920.0 3728.79     0.2314E+01
   20000.0   12070.0    7930.0 3731.51     0.2321E+01
   20000.0   12060.0    7940.0 3734.22     0.2329E+01
   20000.0   12050.0    7950.0 3736.94     0.2336E+01
   20000.0   12040.0    7960.0 3739.65     0.2344E+01
   20000.0   12030.0    7970.0 3742.37     0.2351E+01
   20000.0   12020.0    7980.0 3745.07     0.2359E+01
   20000.0   12010.0    7990.0 3747.78     0.2366E+01
   20000.0   12000.0    8000.0 3750.49     0.2374E+01
   20000.0   11990.0    8010.0 3753.19     0.2382E+01
   20000.0   11980.0    8020.0 3755.89     0.2389E+01
   20000.0   11970.0    8030.0 3758.59     0.2397E+01
   20000.0   11960.0    8040.0 3761.29     0.2405E+01
   20000.0   11950.0    8050.0 3763.99     0.2413E+01
   20000.0   11940.0    8060.0 3766.68     0.2421E+01
   20000.0   11930.0    8070.0 3769.37     0.2428E+01
   20000.0   11920.0    8080.0 3772.06     0.2436E+01
   20000.0   11910.0    8090.0 3774.75     0.2444E+01
   20000.0   11900.0    8100.0 3777.44     0.2452E+01
   20000.0   11890.0    8110.0 3780.12     0.2460E+01
   20000.0   11880.0    8120.0 3782.80     0.2468E+01
   20000.0   11870.0    8130.0 3785.49     0.2476E+01
   20000.0   11860.0    8140.0 3788.16     0.2484E+01
   20000.0   11850.0    8150.0 3790.84     0.2493E+01
   20000.0   11840.0    8160.0 3793.52     0.2501E+01
   20000.0   11830.0    8170.0 3796.19     0.2509E+01
   20000.0   11820.0    8180.0 3798.86     0.2517E+01
   20000.0   11810.0    8190.0 3801.53     0.2525E+01
   20000.0   11800.0    8200.0 3804.20     0.2534E+01
   20000.0   11790.0    8210.0 3806.86     0.2542E+01
   20000.0   11780.0    8220.0 3809.53     0.2550E+01
   20000.0   11770.0    8230.0 3812.19     0.2559E+01
   20000.0   11760.0    8240.0 3814.85     0.2567E+01
   20000.0   11750.0    8250.0 3817.51     0.2576E+01
   20000.0   11740.0    8260.0 3820.16     0.2584E+01
   20000.0   11730.0    8270.0 3822.82     0.2593E+01
   20000.0   11720.0    8280.0 3825.47     0.2601E+01
   20000.0   11710.0    8290.0 3828.12     0.2610E+01
   20000.0   11700.0    8300.0 3830.77     0.2619E+01
   20000.0   11690.0    8310.0 3833.42     0.2627E+01
   20000.0   11680.0    8320.0 3836.06     0.2636E+01
   20000.0   11670.0    8330.0 3838.70     0.2645E+01
   20000.0   11660.0    8340.0 3841.35     0.2654E+01
   20000.0   11650.0    8350.0 3843.99     0.2662E+01
   20000.0   11640.0    8360.0 3846.62     0.2671E+01
   20000.0   11630.0    8370.0 3849.26     0.2680E+01
   20000.0   11620.0    8380.0 3851.89     0.2689E+01
   20000.0   11610.0    8390.0 3854.53     0.2698E+01
   20000.0   11600.0    8400.0 3857.16     0.2707E+01
   20000.0   11590.0    8410.0 3859.79     0.2716E+01
   20000.0   11580.0    8420.0 3862.41     0.2725E+01
   20000.0   11570.0    8430.0 3865.04     0.2734E+01
   20000.0   11560.0    8440.0 3867.66     0.2744E+01
   20000.0   11550.0    8450.0 3870.28     0.2753E+01
   20000.0   11540.0    8460.0 3872.90     0.2762E+01
   20000.0   11530.0    8470.0 3875.52     0.2771E+01
   20000.0   11520.0    8480.0 3878.14     0.2781E+01
   20000.0   11510.0    8490.0 3880.75     0.2790E+01
   20000.0   11500.0    8500.0 3883.37     0.2799E+01
   20000.0   11490.0    8510.0 3885.98     0.2809E+01
   20000.0   11480.0    8520.0 3888.59     0.2818E+01
   20000.0   11470.0    8530.0 3891.20     0.2828E+01
   20000.0   11460.0    8540.0 3893.80     0.2837E+01
   20000.0   11450.0    8550.0 3896.41     0.2847E+01
   20000.0   11440.0    8560.0 3899.01     0.2856E+01
   20000.0   11430.0    8570.0 3901.61     0.2866E+01
   20000.0   11420.0    8580.0 3904.21     0.2876E+01
   20000.0   11410.0    8590.0 3906.81     0.2886E+01
   20000.0   11400.0    8600.0 3909.40     0.2895E+01
   20000.0   11390.0    8610.0 3911.99     0.2905E+01
   20000.0   11380.0    8620.0 3914.59     0.2915E+01
   20000.0   11370.0    8630.0 3917.18     0.2925E+01
   20000.0   11360.0    8640.0 3919.77     0.2935E+01
   20000.0   11350.0    8650.0 3922.35     0.2945E+01
   20000.0   11340.0    8660.0 3924.94     0.2955E+01
   20000.0   11330.0    8670.0 3927.52     0.2965E+01
   20000.0   11320.0    8680.0 3930.10     0.2975E+01
   20000.0   11310.0    8690.0 3932.68     0.2985E+01
   20000.0   11300.0    8700.0 3935.26     0.2996E+01
   20000.0   11290.0    8710.0 3937.84     0.3006E+01
   20000.0   11280.0    8720.0 3940.41     0.3016E+01
   20000.0   11270.0    8730.0 3942.99     0.3026E+01
   20000.0   11260.0    8740.0 3945.56     0.3037E+01
   20000.0   11250.0    8750.0 3948.13     0.3047E+01
   20000.0   11240.0    8760.0 3950.70     0.3058E+01
   20000.0   11230.0    8770.0 3953.26     0.3068E+01
   20000.0   11220.0    8780.0 3955.83     0.3079E+01
   20000.0   11210.0    8790.0 3958.39     0.3089E+01
   20000.0   11200.0    8800.0 3960.96     0.3100E+01
   20000.0   11190.0    8810.0 3963.52     0.3111E+01
   20000.0   11180.0    8820.0 3966.07     0.3121E+01
   20000.0   11170.0    8830.0 3968.63     0.3132E+01
   20000.0   11160.0    8840.0 3971.19     0.3143E+01
   20000.0   11150.0    8850.0 3973.74     0.3154E+01
   20000.0   11140.0    8860.0 3976.29     0.3165E+01
   20000.0   11130.0    8870.0 3978.84     0.3176E+01
   20000.0   11120.0    8880.0 3981.39     0.3187E+01
   20000.0   11110.0    8890.0 3983.94     0.3198E+01
   20000.0   11100.0    8900.0 3986.48     0.3209E+01
   20000.0   11090.0    8910.0 3989.03     0.3220E+01
   20000.0   11080.0    8920.0 3991.57     0.3231E+01
   20000.0   11070.0    8930.0 3994.11     0.3242E+01
   20000.0   11060.0    8940.0 3996.65     0.3253E+01
   20000.0   11050.0    8950.0 3999.18     0.3265E+01
   20000.0   11040.0    8960.0 4001.72     0.3276E+01
   20000.0   11030.0    8970.0 4004.25     0.3288E+01
   20000.0   11020.0    8980.0 4006.79     0.3299E+01
   20000.0   11010.0    8990.0 4009.32     0.3311E+01
   20000.0   11000.0    9000.0 4011.85     0.3322E+01
   20000.0   10990.0    9010.0 4014.37     0.3334E+01
   20000.0   10980.0    9020.0 4016.90     0.3345E+01
   20000.0   10970.0    9030.0 4019.43     0.3357E+01
   20000.0   10960.0    9040.0 4021.95     0.3369E+01
   20000.0   10950.0    9050.0 4024.47     0.3381E+01
   20000.0   10940.0    9060.0 4026.99     0.3392E+01
   20000.0   10930.0    9070.0 4029.51     0.3404E+01
   20000.0   10920.0    9080.0 4032.02     0.3416E+01
   20000.0   10910.0    9090.0 4034.54     0.3428E+01
   20000.0   10900.0    9100.0 4037.05     0.3440E+01
   20000.0   10890.0    9110.0 4039.56     0.3452E+01
   20000.0   10880.0    9120.0 4042.07     0.3465E+01
   20000.0   10870.0    9130.0 4044.58     0.3477E+01
   20000.0   10860.0    9140.0 4047.09     0.3489E+01
   20000.0   10850.0    9150.0 4049.60     0.3501E+01
   20000.0   10840.0    9160.0 4052.10     0.3514E+01
   20000.0   10830.0    9170.0 4054.60     0.3526E+01
   20000.0   10820.0    9180.0 4057.10     0.3538E+01
   20000.0   10810.0    9190.0 4059.60     0.3551E+01
   20000.0   10800.0    9200.0 4062.10     0.3564E+01
   20000.0   10790.0    9210.0 4064.60     0.3576E+01
   20000.0   10780.0    9220.0 4067.09     0.3589E+01
   20000.0   10770.0    9230.0 4069.59     0.3602E+01
   20000.0   10760.0    9240.0 4072.08     0.3614E+01
   20000.0   10750.0    9250.0 4074.57     0.3627E+01
   20000.0   10740.0    9260.0 4077.06     0.3640E+01
   20000.0   10730.0    9270.0 4079.54     0.3653E+01
   20000.0   10720.0    9280.0 4082.03     0.3666E+01
   20000.0   10710.0    9290.0 4084.51     0.3679E+01
   20000.0   10700.0    9300.0 4087.00     0.3692E+01
   20000.0   10690.0    9310.0 4089.48     0.3705E+01
   20000.0   10680.0    9320.0 4091.96     0.3718E+01
   20000.0   10670.0    9330.0 4094.44     0.3732E+01
   20000.0   10660.0    9340.0 4096.91     0.3745E+01
   20000.0   10650.0    9350.0 4099.39     0.3758E+01
   20000.0   10640.0    9360.0 4101.86     0.3772E+01
   20000.0   10630.0    9370.0 4104.33     0.3785E+01
   20000.0   10620.0    9380.0 4106.80     0.3799E+01
   20000.0   10610.0    9390.0 4109.27     0.3812E+01
   20000.0   10600.0    9400.0 4111.74     0.3826E+01
   20000.0   10590.0    9410.0 4114.21     0.3840E+01
   20000.0   10580.0    9420.0 4116.67     0.3854E+01
   20000.0   10570.0    9430.0 4119.14     0.3867E+01
   20000.0   10560.0    9440.0 4121.60     0.3881E+01
   20000.0   10550.0    9450.0 4124.06     0.3895E+01
   20000.0   10540.0    9460.0 4126.52     0.3909E+01
   20000.0   10530.0    9470.0 4128.97     0.3923E+01
   20000.0   10520.0    9480.0 4131.43     0.3937E+01
   20000.0   10510.0    9490.0 4133.89     0.3952E+01
   20000.0   10500.0    9500.0 4136.34     0.3966E+01
   20000.0   10490.0    9510.0 4138.79     0.3980E+01
   20000.0   10480.0    9520.0 4141.24     0.3994E+01
   20000.0   10470.0    9530.0 4143.69     0.4009E+01
   20000.0   10460.0    9540.0 4146.14     0.4023E+01
   20000.0   10450.0    9550.0 4148.58     0.4038E+01
   20000.0   10440.0    9560.0 4151.03     0.4053E+01
   20000.0   10430.0    9570.0 4153.47     0.4067E+01
   20000.0   10420.0    9580.0 4155.91     0.4082E+01
   20000.0   10410.0    9590.0 4158.35     0.4097E+01
   20000.0   10400.0    9600.0 4160.79     0.4112E+01
   20000.0   10390.0    9610.0 4163.23     0.4127E+01
   20000.0   10380.0    9620.0 4165.66     0.4141E+01
   20000.0   10370.0    9630.0 4168.10     0.4157E+01
   20000.0   10360.0    9640.0 4170.53     0.4172E+01
   20000.0   10350.0    9650.0 4172.96     0.4187E+01
   20000.0   10340.0    9660.0 4175.39     0.4202E+01
   20000.0   10330.0    9670.0 4177.82     0.4217E+01
   20000.0   10320.0    9680.0 4180.25     0.4233E+01
   20000.0   10310.0    9690.0 4182.67     0.4248E+01
   20000.0   10300.0    9700.0 4185.10     0.4264E+01
   20000.0   10290.0    9710.0 4187.52     0.4279E+01
   20000.0   10280.0    9720.0 4189.94     0.4295E+01
   20000.0   10270.0    9730.0 4192.36     0.4311E+01
   20000.0   10260.0    9740.0 4194.78     0.4326E+01
   20000.0   10250.0    9750.0 4197.20     0.4342E+01
   20000.0   10240.0    9760.0 4199.62     0.4358E+01
   20000.0   10230.0    9770.0 4202.03     0.4374E+01
   20000.0   10220.0    9780.0 4204.44     0.4390E+01
   20000.0   10210.0    9790.0 4206.86     0.4406E+01
   20000.0   10200.0    9800.0 4209.27     0.4422E+01
   20000.0   10190.0    9810.0 4211.68     0.4439E+01
   20000.0   10180.0    9820.0 4214.08     0.4455E+01
   20000.0   10170.0    9830.0 4216.49     0.4471E+01
   20000.0   10160.0    9840.0 4218.89     0.4488E+01
   20000.0   10150.0    9850.0 4221.30     0.4504E+01
   20000.0   10140.0    9860.0 4223.70     0.4521E+01
   20000.0   10130.0    9870.0 4226.10     0.4538E+01
   20000.0   10120.0    9880.0 4228.50     0.4554E+01
   20000.0   10110.0    9890.0 4230.90     0.4571E+01
   20000.0   10100.0    9900.0 4233.30     0.4588E+01
   20000.0   10090.0    9910.0 4235.69     0.4605E+01
   20000.0   10080.0    9920.0 4238.09     0.4622E+01
   20000.0   10070.0    9930.0 4240.48     0.4639E+01
   20000.0   10060.0    9940.0 4242.87     0.4656E+01
   20000.0   10050.0    9950.0 4245.26     0.4673E+01
   20000.0   10040.0    9960.0 4247.65     0.4691E+01
   20000.0   10030.0    9970.0 4250.04     0.4708E+01
   20000.0   10020.0    9980.0 4252.42     0.4726E+01
   20000.0   10010.0    9990.0 4254.81     0.4743E+01
   20000.0   10000.0   10000.0 4257.19     0.4761E+01
   20000.0    9990.0   10010.0 4259.57     0.4778E+01
   20000.0    9980.0   10020.0 4261.95     0.4796E+01
   20000.0    9970.0   10030.0 4264.33     0.4814E+01
   20000.0    9960.0   10040.0 4266.71     0.4832E+01
   20000.0    9950.0   10050.0 4269.09     0.4850E+01
   20000.0    9940.0   10060.0 4271.46     0.4868E+01
   20000.0    9930.0   10070.0 4273.84     0.4886E+01
   20000.0    9920.0   10080.0 4276.21     0.4904E+01
   20000.0    9910.0   10090.0 4278.58     0.4923E+01
   20000.0    9900.0   10100.0 4280.95     0.4941E+01
   20000.0    9890.0   10110.0 4283.32     0.4960E+01
   20000.0    9880.0   10120.0 4285.69     0.4978E+01
   20000.0    9870.0   10130.0 4288.05     0.4997E+01
   20000.0    9860.0   10140.0 4290.42     0.5016E+01
   20000.0    9850.0   10150.0 4292.78     0.5034E+01
   20000.0    9840.0   10160.0 4295.15     0.5053E+01
   20000.0    9830.0   10170.0 4297.51     0.5072E+01
   20000.0    9820.0   10180.0 4299.87     0.5091E+01
   20000.0    9810.0   10190.0 4302.22     0.5110E+01
   20000.0    9800.0   10200.0 4304.58     0.5129E+01
   20000.0    9790.0   10210.0 4306.94     0.5149E+01
   20000.0    9780.0   10220.0 4309.29     0.5168E+01
   20000.0    9770.0   10230.0 4311.65     0.5188E+01
   20000.0    9760.0   10240.0 4314.00     0.5207E+01
   20000.0    9750.0   10250.0 4316.35     0.5227E+01
   20000.0    9740.0   10260.0 4318.70     0.5246E+01
   20000.0    9730.0   10270.0 4321.05     0.5266E+01
   20000.0    9720.0   10280.0 4323.39     0.5286E+01
   20000.0    9710.0   10290.0 4325.74     0.5306E+01
   20000.0    9700.0   10300.0 4328.08     0.5326E+01
   20000.0    9690.0   10310.0 4330.43     0.5346E+01
   20000.0    9680.0   10320.0 4332.77     0.5367E+01
   20000.0    9670.0   10330.0 4335.11     0.5387E+01
   20000.0    9660.0   10340.0 4337.45     0.5407E+01
   20000.0    9650.0   10350.0 4339.79     0.5428E+01
   20000.0    9640.0   10360.0 4342.12     0.5448E+01
   20000.0    9630.0   10370.0 4344.46     0.5469E+01
   20000.0    9620.0   10380.0 4346.79     0.5490E+01
   20000.0    9610.0   10390.0 4349.12     0.5511E+01
   20000.0    9600.0   10400.0 4351.46     0.5532E+01
   20000.0    9590.0   10410.0 4353.79     0.5553E+01
   20000.0    9580.0   10420.0 4356.12     0.5574E+01
   20000.0    9570.0   10430.0 4358.44     0.5595E+01
   20000.0    9560.0   10440.0 4360.77     0.5616E+01
   20000.0    9550.0   10450.0 4363.10     0.5638E+01
   20000.0    9540.0   10460.0 4365.42     0.5659E+01
   20000.0    9530.0   10470.0 4367.74     0.5681E+01
   20000.0    9520.0   10480.0 4370.07     0.5703E+01
   20000.0    9510.0   10490.0 4372.39     0.5724E+01
   20000.0    9500.0   10500.0 4374.71     0.5746E+01
   20000.0    9490.0   10510.0 4377.02     0.5768E+01
   20000.0    9480.0   10520.0 4379.34     0.5790E+01
   20000.0    9470.0   10530.0 4381.66     0.5812E+01
   20000.0    9460.0   10540.0 4383.97     0.5835E+01
   20000.0    9450.0   10550.0 4386.28     0.5857E+01
   20000.0    9440.0   10560.0 4388.60     0.5880E+01
   20000.0    9430.0   10570.0 4390.91     0.5902E+01
   20000.0    9420.0   10580.0 4393.22     0.5925E+01
   20000.0    9410.0   10590.0 4395.52     0.5948E+01
   20000.0    9400.0   10600.0 4397.83     0.5970E+01
   20000.0    9390.0   10610.0 4400.14     0.5993E+01
   20000.0    9380.0   10620.0 4402.44     0.6016E+01
   20000.0    9370.0   10630.0 4404.75     0.6040E+01
   20000.0    9360.0   10640.0 4407.05     0.6063E+01
   20000.0    9350.0   10650.0 4409.35     0.6086E+01
   20000.0    9340.0   10660.0 4411.65     0.6110E+01
   20000.0    9330.0   10670.0 4413.95     0.6133E+01
   20000.0    9320.0   10680.0 4416.25     0.6157E+01
   20000.0    9310.0   10690.0 4418.54     0.6181E+01
   20000.0    9300.0   10700.0 4420.84     0.6205E+01
   20000.0    9290.0   10710.0 4423.13     0.6229E+01
   20000.0    9280.0   10720.0 4425.42     0.6253E+01
   20000.0    9270.0   10730.0 4427.72     0.6277E+01
   20000.0    9260.0   10740.0 4430.01     0.6301E+01
   20000.0    9250.0   10750.0 4432.30     0.6326E+01
   20000.0    9240.0   10760.0 4434.58     0.6350E+01
   20000.0    9230.0   10770.0 4436.87     0.6375E+01
   20000.0    9220.0   10780.0 4439.16     0.6400E+01
   20000.0    9210.0   10790.0 4441.44     0.6425E+01
   20000.0    9200.0   10800.0 4443.72     0.6450E+01
   20000.0    9190.0   10810.0 4446.01     0.6475E+01
   20000.0    9180.0   10820.0 4448.29     0.6500E+01
   20000.0    9170.0   10830.0 4450.57     0.6525E+01
   20000.0    9160.0   10840.0 4452.84     0.6551E+01
   20000.0    9150.0   10850.0 4455.12     0.6576E+01
   20000.0    9140.0   10860.0 4457.40     0.6602E+01
   20000.0    9130.0   10870.0 4459.67     0.6628E+01
   20000.0    9120.0   10880.0 4461.95     0.6654E+01
   20000.0    9110.0   10890.0 4464.22     0.6680E+01
   20000.0    9100.0   10900.0 4466.49     0.6706E+01
   20000.0    9090.0   10910.0 4468.76     0.6732E+01
   20000.0    9080.0   10920.0 4471.03     0.6758E+01
   20000.0    9070.0   10930.0 4473.30     0.6785E+01
   20000.0    9060.0   10940.0 4475.57     0.6811E+01
   20000.0    9050.0   10950.0 4477.83     0.6838E+01
   20000.0    9040.0   10960.0 4480.10     0.6865E+01
   20000.0    9030.0   10970.0 4482.36     0.6892E+01
   20000.0    9020.0   10980.0 4484.62     0.6919E+01
   20000.0    9010.0   10990.0 4486.89     0.6946E+01
   20000.0    9000.0   11000.0 4489.15     0.6974E+01
   20000.0    8990.0   11010.0 4491.40     0.7001E+01
   20000.0    8980.0   11020.0 4493.66     0.7029E+01
   20000.0    8970.0   11030.0 4495.92     0.7056E+01
   20000.0    8960.0   11040.0 4498.18     0.7084E+01
   20000.0    8950.0   11050.0 4500.43     0.7112E+01
   20000.0    8940.0   11060.0 4502.68     0.7140E+01
   20000.0    8930.0   11070.0 4504.94     0.7168E+01
   20000.0    8920.0   11080.0 4507.19     0.7197E+01
   20000.0    8910.0   11090.0 4509.44     0.7225E+01
   20000.0    8900.0   11100.0 4511.69     0.7254E+01
   20000.0    8890.0   11110.0 4513.93     0.7282E+01
   20000.0    8880.0   11120.0 4516.18     0.7311E+01
   20000.0    8870.0   11130.0 4518.43     0.7340E+01
   20000.0    8860.0   11140.0 4520.67     0.7369E+01
   20000.0    8850.0   11150.0 4522.91     0.7399E+01
   20000.0    8840.0   11160.0 4525.16     0.7428E+01
   20000.0    8830.0   11170.0 4527.40     0.7457E+01
   20000.0    8820.0   11180.0 4529.64     0.7487E+01
   20000.0    8810.0   11190.0 4531.88     0.7517E+01
   20000.0    8800.0   11200.0 4534.11     0.7547E+01
   20000.0    8790.0   11210.0 4536.35     0.7577E+01
   20000.0    8780.0   11220.0 4538.59     0.7607E+01
   20000.0    8770.0   11230.0 4540.82     0.7637E+01
   20000.0    8760.0   11240.0 4543.05     0.7668E+01
   20000.0    8750.0   11250.0 4545.29     0.7698E+01
   20000.0    8740.0   11260.0 4547.52     0.7729E+01
   20000.0    8730.0   11270.0 4549.75     0.7760E+01
   20000.0    8720.0   11280.0 4551.98     0.7791E+01
   20000.0    8710.0   11290.0 4554.20     0.7822E+01
   20000.0    8700.0   11300.0 4556.43     0.7853E+01
   20000.0    8690.0   11310.0 4558.66     0.7885E+01
   20000.0    8680.0   11320.0 4560.88     0.7917E+01
   20000.0    8670.0   11330.0 4563.10     0.7948E+01
   20000.0    8660.0   11340.0 4565.33     0.7980E+01
   20000.0    8650.0   11350.0 4567.55     0.8012E+01
   20000.0    8640.0   11360.0 4569.77     0.8044E+01
   20000.0    8630.0   11370.0 4571.99     0.8077E+01
   20000.0    8620.0   11380.0 4574.21     0.8109E+01
   20000.0    8610.0   11390.0 4576.42     0.8142E+01
   20000.0    8600.0   11400.0 4578.64     0.8175E+01
   20000.0    8590.0   11410.0 4580.85     0.8207E+01
   20000.0    8580.0   11420.0 4583.07     0.8241E+01
   20000.0    8570.0   11430.0 4585.28     0.8274E+01
   20000.0    8560.0   11440.0 4587.49     0.8307E+01
   20000.0    8550.0   11450.0 4589.70     0.8341E+01
   20000.0    8540.0   11460.0 4591.91     0.8374E+01
   20000.0    8530.0   11470.0 4594.12     0.8408E+01
   20000.0    8520.0   11480.0 4596.33     0.8442E+01
   20000.0    8510.0   11490.0 4598.53     0.8476E+01
   20000.0    8500.0   11500.0 4600.74     0.8511E+01
   20000.0    8490.0   11510.0 4602.94     0.8545E+01
   20000.0    8480.0   11520.0 4605.15     0.8580E+01
   20000.0    8470.0   11530.0 4607.35     0.8615E+01
   20000.0    8460.0   11540.0 4609.55     0.8650E+01
   20000.0    8450.0   11550.0 4611.75     0.8685E+01
   20000.0    8440.0   11560.0 4613.95     0.8720E+01
   20000.0    8430.0   11570.0 4616.15     0.8755E+01
   20000.0    8420.0   11580.0 4618.34     0.8791E+01
   20000.0    8410.0   11590.0 4620.54     0.8827E+01
   20000.0    8400.0   11600.0 4622.74     0.8863E+01
   20000.0    8390.0   11610.0 4624.93     0.8899E+01
   20000.0    8380.0   11620.0 4627.12     0.8935E+01
   20000.0    8370.0   11630.0 4629.31     0.8972E+01
   20000.0    8360.0   11640.0 4631.50     0.9008E+01
   20000.0    8350.0   11650.0 4633.69     0.9045E+01
   20000.0    8340.0   11660.0 4635.88     0.9082E+01
   20000.0    8330.0   11670.0 4638.07     0.9119E+01
   20000.0    8320.0   11680.0 4640.26     0.9156E+01
   20000.0    8310.0   11690.0 4642.44     0.9194E+01
   20000.0    8300.0   11700.0 4644.63     0.9232E+01
   20000.0    8290.0   11710.0 4646.81     0.9269E+01
   20000.0    8280.0   11720.0 4648.99     0.9307E+01
   20000.0    8270.0   11730.0 4651.17     0.9346E+01
   20000.0    8260.0   11740.0 4653.35     0.9384E+01
   20000.0    8250.0   11750.0 4655.53     0.9422E+01
   20000.0    8240.0   11760.0 4657.71     0.9461E+01
   20000.0    8230.0   11770.0 4659.89     0.9500E+01
   20000.0    8220.0   11780.0 4662.07     0.9539E+01
   20000.0    8210.0   11790.0 4664.24     0.9579E+01
   20000.0    8200.0   11800.0 4666.42     0.9618E+01
   20000.0    8190.0   11810.0 4668.59     0.9658E+01
   20000.0    8180.0   11820.0 4670.76     0.9697E+01
   20000.0    8170.0   11830.0 4672.93     0.9738E+01
   20000.0    8160.0   11840.0 4675.10     0.9778E+01
   20000.0    8150.0   11850.0 4677.27     0.9818E+01
   20000.0    8140.0   11860.0 4679.44     0.9859E+01
   20000.0    8130.0   11870.0 4681.61     0.9900E+01
   20000.0    8120.0   11880.0 4683.77     0.9940E+01
   20000.0    8110.0   11890.0 4685.94     0.9982E+01
   20000.0    8100.0   11900.0 4688.10     0.1002E+02
   20000.0    8090.0   11910.0 4690.27     0.1006E+02
   20000.0    8080.0   11920.0 4692.43     0.1011E+02
   20000.0    8070.0   11930.0 4694.59     0.1015E+02
   20000.0    8060.0   11940.0 4696.75     0.1019E+02
   20000.0    8050.0   11950.0 4698.91     0.1023E+02
   20000.0    8040.0   11960.0 4701.07     0.1028E+02
   20000.0    8030.0   11970.0 4703.22     0.1032E+02
   20000.0    8020.0   11980.0 4705.38     0.1036E+02
   20000.0    8010.0   11990.0 4707.54     0.1040E+02
   20000.0    8000.0   12000.0 4709.69     0.1045E+02
   20000.0    7990.0   12010.0 4711.84     0.1049E+02
   20000.0    7980.0   12020.0 4714.00     0.1054E+02
   20000.0    7970.0   12030.0 4716.15     0.1058E+02
   20000.0    7960.0   12040.0 4718.30     0.1062E+02
   20000.0    7950.0   12050.0 4720.45     0.1067E+02
   20000.0    7940.0   12060.0 4722.60     0.1071E+02
   20000.0    7930.0   12070.0 4724.74     0.1076E+02
   20000.0    7920.0   12080.0 4726.89     0.1080E+02
   20000.0    7910.0   12090.0 4729.04     0.1085E+02
   20000.0    7900.0   12100.0 4731.18     0.1089E+02
   20000.0    7890.0   12110.0 4733.32     0.1094E+02
   20000.0    7880.0   12120.0 4735.47     0.1098E+02
   20000.0    7870.0   12130.0 4737.61     0.1103E+02
   20000.0    7860.0   12140.0 4739.75     0.1108E+02
   20000.0    7850.0   12150.0 4741.89     0.1112E+02
   20000.0    7840.0   12160.0 4744.03     0.1117E+02
   20000.0    7830.0   12170.0 4746.16     0.1122E+02
   20000.0    7820.0   12180.0 4748.30     0.1127E+02
   20000.0    7810.0   12190.0 4750.44     0.1131E+02
   20000.0    7800.0   12200.0 4752.57     0.1136E+02
   20000.0    7790.0   12210.0 4754.71     0.1141E+02
   20000.0    7780.0   12220.0 4756.84     0.1146E+02
   20000.0    7770.0   12230.0 4758.97     0.1151E+02
   20000.0    7760.0   12240.0 4761.10     0.1155E+02
   20000.0    7750.0   12250.0 4763.23     0.1160E+02
   20000.0    7740.0   12260.0 4765.36     0.1165E+02
   20000.0    7730.0   12270.0 4767.49     0.1170E+02
   20000.0    7720.0   12280.0 4769.62     0.1175E+02
   20000.0    7710.0   12290.0 4771.74     0.1180E+02
   20000.0    7700.0   12300.0 4773.87     0.1185E+02
   20000.0    7690.0   12310.0 4775.99     0.1190E+02
   20000.0    7680.0   12320.0 4778.12     0.1195E+02
   20000.0    7670.0   12330.0 4780.24     0.1200E+02
   20000.0    7660.0   12340.0 4782.36     0.1205E+02
   20000.0    7650.0   12350.0 4784.48     0.1211E+02
   20000.0    7640.0   12360.0 4786.60     0.1216E+02
   20000.0    7630.0   12370.0 4788.72     0.1221E+02
   20000.0    7620.0   12380.0 4790.84     0.1226E+02
   20000.0    7610.0   12390.0 4792.95     0.1231E+02
   20000.0    7600.0   12400.0 4795.07     0.1237E+02
   20000.0    7590.0   12410.0 4797.18     0.1242E+02
   20000.0    7580.0   12420.0 4799.30     0.1247E+02
   20000.0    7570.0   12430.0 4801.41     0.1252E+02
   20000.0    7560.0   12440.0 4803.52     0.1258E+02
   20000.0    7550.0   12450.0 4805.63     0.1263E+02
   20000.0    7540.0   12460.0 4807.75     0.1269E+02
   20000.0    7530.0   12470.0 4809.85     0.1274E+02
   20000.0    7520.0   12480.0 4811.96     0.1280E+02
   20000.0    7510.0   12490.0 4814.07     0.1285E+02
   20000.0    7500.0   12500.0 4816.18     0.1291E+02
   20000.0    7490.0   12510.0 4818.28     0.1296E+02
   20000.0    7480.0   12520.0 4820.39     0.1302E+02
   20000.0    7470.0   12530.0 4822.49     0.1307E+02
   20000.0    7460.0   12540.0 4824.59     0.1313E+02
   20000.0    7450.0   12550.0 4826.70     0.1319E+02
   20000.0    7440.0   12560.0 4828.80     0.1324E+02
   20000.0    7430.0   12570.0 4830.90     0.1330E+02
   20000.0    7420.0   12580.0 4833.00     0.1336E+02
   20000.0    7410.0   12590.0 4835.10     0.1342E+02
   20000.0    7400.0   12600.0 4837.19     0.1347E+02
   20000.0    7390.0   12610.0 4839.29     0.1353E+02
   20000.0    7380.0   12620.0 4841.39     0.1359E+02
   20000.0    7370.0   12630.0 4843.48     0.1365E+02
   20000.0    7360.0   12640.0 4845.57     0.1371E+02
   20000.0    7350.0   12650.0 4847.67     0.1377E+02
   20000.0    7340.0   12660.0 4849.76     0.1383E+02
   20000.0    7330.0   12670.0 4851.85     0.1389E+02
   20000.0    7320.0   12680.0 4853.94     0.1395E+02
   20000.0    7310.0   12690.0 4856.03     0.1401E+02
   20000.0    7300.0   12700.0 4858.12     0.1407E+02
   20000.0    7290.0   12710.0 4860.21     0.1413E+02
   20000.0    7280.0   12720.0 4862.29     0.1419E+02
   20000.0    7270.0   12730.0 4864.38     0.1426E+02
   20000.0    7260.0   12740.0 4866.46     0.1432E+02
   20000.0    7250.0   12750.0 4868.55     0.1438E+02
   20000.0    7240.0   12760.0 4870.63     0.1444E+02
   20000.0    7230.0   12770.0 4872.71     0.1451E+02
   20000.0    7220.0   12780.0 4874.79     0.1457E+02
   20000.0    7210.0   12790.0 4876.87     0.1463E+02
   20000.0    7200.0   12800.0 4878.95     0.1470E+02
   20000.0    7190.0   12810.0 4881.03     0.1476E+02
   20000.0    7180.0   12820.0 4883.11     0.1483E+02
   20000.0    7170.0   12830.0 4885.19     0.1489E+02
   20000.0    7160.0   12840.0 4887.26     0.1496E+02
   20000.0    7150.0   12850.0 4889.34     0.1502E+02
   20000.0    7140.0   12860.0 4891.41     0.1509E+02
   20000.0    7130.0   12870.0 4893.49     0.1516E+02
   20000.0    7120.0   12880.0 4895.56     0.1522E+02
   20000.0    7110.0   12890.0 4897.63     0.1529E+02
   20000.0    7100.0   12900.0 4899.70     0.1536E+02
   20000.0    7090.0   12910.0 4901.77     0.1543E+02
   20000.0    7080.0   12920.0 4903.84     0.1549E+02
   20000.0    7070.0   12930.0 4905.91     0.1556E+02
   20000.0    7060.0   12940.0 4907.97     0.1563E+02
   20000.0    7050.0   12950.0 4910.04     0.1570E+02
   20000.0    7040.0   12960.0 4912.11     0.1577E+02
   20000.0    7030.0   12970.0 4914.17     0.1584E+02
   20000.0    7020.0   12980.0 4916.23     0.1591E+02
   20000.0    7010.0   12990.0 4918.30     0.1598E+02
   20000.0    7000.0   13000.0 4920.36     0.1605E+02
   20000.0    6990.0   13010.0 4922.42     0.1612E+02
   20000.0    6980.0   13020.0 4924.48     0.1619E+02
   20000.0    6970.0   13030.0 4926.54     0.1627E+02
   20000.0    6960.0   13040.0 4928.60     0.1634E+02
   20000.0    6950.0   13050.0 4930.66     0.1641E+02
   20000.0    6940.0   13060.0 4932.71     0.1648E+02
   20000.0    6930.0   13070.0 4934.77     0.1656E+02
   20000.0    6920.0   13080.0 4936.83     0.1663E+02
   20000.0    6910.0   13090.0 4938.88     0.1671E+02
   20000.0    6900.0   13100.0 4940.93     0.1678E+02
   20000.0    6890.0   13110.0 4942.99     0.1686E+02
   20000.0    6880.0   13120.0 4945.04     0.1693E+02
   20000.0    6870.0   13130.0 4947.09     0.1701E+02
   20000.0    6860.0   13140.0 4949.14     0.1708E+02
   20000.0    6850.0   13150.0 4951.19     0.1716E+02
   20000.0    6840.0   13160.0 4953.24     0.1724E+02
   20000.0    6830.0   13170.0 4955.28     0.1732E+02
   20000.0    6820.0   13180.0 4957.33     0.1739E+02
   20000.0    6810.0   13190.0 4959.38     0.1747E+02
   20000.0    6800.0   13200.0 4961.42     0.1755E+02
   20000.0    6790.0   13210.0 4963.46     0.1763E+02
   20000.0    6780.0   13220.0 4965.51     0.1771E+02
   20000.0    6770.0   13230.0 4967.55     0.1779E+02
   20000.0    6760.0   13240.0 4969.59     0.1787E+02
   20000.0    6750.0   13250.0 4971.63     0.1795E+02
   20000.0    6740.0   13260.0 4973.67     0.1803E+02
   20000.0    6730.0   13270.0 4975.71     0.1811E+02
   20000.0    6720.0   13280.0 4977.75     0.1819E+02
   20000.0    6710.0   13290.0 4979.79     0.1828E+02
   20000.0    6700.0   13300.0 4981.82     0.1836E+02
   20000.0    6690.0   13310.0 4983.86     0.1844E+02
   20000.0    6680.0   13320.0 4985.89     0.1853E+02
   20000.0    6670.0   13330.0 4987.93     0.1861E+02
   20000.0    6660.0   13340.0 4989.96     0.1870E+02
   20000.0    6650.0   13350.0 4991.99     0.1878E+02
   20000.0    6640.0   13360.0 4994.03     0.1887E+02
   20000.0    6630.0   13370.0 4996.06     0.1895E+02
   20000.0    6620.0   13380.0 4998.09     0.1904E+02
   20000.0    6610.0   13390.0 5000.12     0.1913E+02
   20000.0    6600.0   13400.0 5002.14     0.1921E+02
   20000.0    6590.0   13410.0 5004.17     0.1930E+02
   20000.0    6580.0   13420.0 5006.20     0.1939E+02
   20000.0    6570.0   13430.0 5008.22     0.1948E+02
   20000.0    6560.0   13440.0 5010.25     0.1957E+02
   20000.0    6550.0   13450.0 5012.27     0.1966E+02
   20000.0    6540.0   13460.0 5014.30     0.1975E+02
   20000.0    6530.0   13470.0 5016.32     0.1984E+02
   20000.0    6520.0   13480.0 5018.34     0.1993E+02
   20000.0    6510.0   13490.0 5020.36     0.2002E+02
   20000.0    6500.0   13500.0 5022.38     0.2011E+02
   20000.0    6490.0   13510.0 5024.40     0.2021E+02
   20000.0    6480.0   13520.0 5026.42     0.2030E+02
   20000.0    6470.0   13530.0 5028.44     0.2039E+02
   20000.0    6460.0   13540.0 5030.45     0.2049E+02
   20000.0    6450.0   13550.0 5032.47     0.2058E+02
   20000.0    6440.0   13560.0 5034.49     0.2068E+02
   20000.0    6430.0   13570.0 5036.50     0.2077E+02
   20000.0    6420.0   13580.0 5038.51     0.2087E+02
   20000.0    6410.0   13590.0 5040.53     0.2096E+02
   20000.0    6400.0   13600.0 5042.54     0.2106E+02
   20000.0    6390.0   13610.0 5044.55     0.2116E+02
   20000.0    6380.0   13620.0 5046.56     0.2126E+02
   20000.0    6370.0   13630.0 5048.57     0.2136E+02
   20000.0    6360.0   13640.0 5050.58     0.2146E+02
   20000.0    6350.0   13650.0 5052.59     0.2156E+02
   20000.0    6340.0   13660.0 5054.59     0.2166E+02
   20000.0    6330.0   13670.0 5056.60     0.2176E+02
   20000.0    6320.0   13680.0 5058.61     0.2186E+02
   20000.0    6310.0   13690.0 5060.61     0.2196E+02
   20000.0    6300.0   13700.0 5062.61     0.2206E+02
   20000.0    6290.0   13710.0 5064.62     0.2217E+02
   20000.0    6280.0   13720.0 5066.62     0.2227E+02
   20000.0    6270.0   13730.0 5068.62     0.2237E+02
   20000.0    6260.0   13740.0 5070.62     0.2248E+02
   20000.0    6250.0   13750.0 5072.62     0.2258E+02
   20000.0    6240.0   13760.0 5074.62     0.2269E+02
   20000.0    6230.0   13770.0 5076.62     0.2280E+02
   20000.0    6220.0   13780.0 5078.62     0.2290E+02
   20000.0    6210.0   13790.0 5080.62     0.2301E+02
   20000.0    6200.0   13800.0 5082.61     0.2312E+02
   20000.0    6190.0   13810.0 5084.61     0.2323E+02
   20000.0    6180.0   13820.0 5086.60     0.2334E+02
   20000.0    6170.0   13830.0 5088.60     0.2345E+02
   20000.0    6160.0   13840.0 5090.59     0.2356E+02
   20000.0    6150.0   13850.0 5092.58     0.2367E+02
   20000.0    6140.0   13860.0 5094.57     0.2378E+02
   20000.0    6130.0   13870.0 5096.56     0.2390E+02
   20000.0    6120.0   13880.0 5098.55     0.2401E+02
   20000.0    6110.0   13890.0 5100.54     0.2412E+02
   20000.0    6100.0   13900.0 5102.53     0.2424E+02
   20000.0    6090.0   13910.0 5104.52     0.2435E+02
   20000.0    6080.0   13920.0 5106.51     0.2447E+02
   20000.0    6070.0   13930.0 5108.49     0.2458E+02
   20000.0    6060.0   13940.0 5110.48     0.2470E+02
   20000.0    6050.0   13950.0 5112.46     0.2482E+02
   20000.0    6040.0   13960.0 5114.44     0.2494E+02
   20000.0    6030.0   13970.0 5116.43     0.2506E+02
   20000.0    6020.0   13980.0 5118.41     0.2518E+02
   20000.0    6010.0   13990.0 5120.39     0.2530E+02
   20000.0    6000.0   14000.0 5122.37     0.2542E+02
   20000.0    5990.0   14010.0 5124.35     0.2554E+02
   20000.0    5980.0   14020.0 5126.33     0.2566E+02
   20000.0    5970.0   14030.0 5128.31     0.2578E+02
   20000.0    5960.0   14040.0 5130.29     0.2591E+02
   20000.0    5950.0   14050.0 5132.26     0.2603E+02
   20000.0    5940.0   14060.0 5134.24     0.2616E+02
   20000.0    5930.0   14070.0 5136.22     0.2628E+02
   20000.0    5920.0   14080.0 5138.19     0.2641E+02
   20000.0    5910.0   14090.0 5140.16     0.2654E+02
   20000.0    5900.0   14100.0 5142.14     0.2666E+02
   20000.0    5890.0   14110.0 5144.11     0.2679E+02
   20000.0    5880.0   14120.0 5146.08     0.2692E+02
   20000.0    5870.0   14130.0 5148.05     0.2705E+02
   20000.0    5860.0   14140.0 5150.02     0.2718E+02
   20000.0    5850.0   14150.0 5151.99     0.2732E+02
   20000.0    5840.0   14160.0 5153.96     0.2745E+02
   20000.0    5830.0   14170.0 5155.93     0.2758E+02
   20000.0    5820.0   14180.0 5157.89     0.2771E+02
   20000.0    5810.0   14190.0 5159.86     0.2785E+02
   20000.0    5800.0   14200.0 5161.83     0.2798E+02
   20000.0    5790.0   14210.0 5163.79     0.2812E+02
   20000.0    5780.0   14220.0 5165.75     0.2826E+02
   20000.0    5770.0   14230.0 5167.72     0.2840E+02
   20000.0    5760.0   14240.0 5169.68     0.2853E+02
   20000.0    5750.0   14250.0 5171.64     0.2867E+02
   20000.0    5740.0   14260.0 5173.60     0.2881E+02
   20000.0    5730.0   14270.0 5175.56     0.2895E+02
   20000.0    5720.0   14280.0 5177.52     0.2910E+02
   20000.0    5710.0   14290.0 5179.48     0.2924E+02
   20000.0    5700.0   14300.0 5181.44     0.2938E+02
   20000.0    5690.0   14310.0 5183.40     0.2953E+02
   20000.0    5680.0   14320.0 5185.35     0.2967E+02
   20000.0    5670.0   14330.0 5187.31     0.2982E+02
   20000.0    5660.0   14340.0 5189.27     0.2996E+02
   20000.0    5650.0   14350.0 5191.22     0.3011E+02
   20000.0    5640.0   14360.0 5193.17     0.3026E+02
   20000.0    5630.0   14370.0 5195.13     0.3041E+02
   20000.0    5620.0   14380.0 5197.08     0.3056E+02
   20000.0    5610.0   14390.0 5199.03     0.3071E+02
   20000.0    5600.0   14400.0 5200.98     0.3086E+02
   20000.0    5590.0   14410.0 5202.93     0.3102E+02
   20000.0    5580.0   14420.0 5204.88     0.3117E+02
   20000.0    5570.0   14430.0 5206.83     0.3133E+02
   20000.0    5560.0   14440.0 5208.78     0.3148E+02
   20000.0    5550.0   14450.0 5210.72     0.3164E+02
   20000.0    5540.0   14460.0 5212.67     0.3179E+02
   20000.0    5530.0   14470.0 5214.62     0.3195E+02
   20000.0    5520.0   14480.0 5216.56     0.3211E+02
   20000.0    5510.0   14490.0 5218.50     0.3227E+02
   20000.0    5500.0   14500.0 5220.45     0.3243E+02
   20000.0    5490.0   14510.0 5222.39     0.3260E+02
   20000.0    5480.0   14520.0 5224.33     0.3276E+02
   20000.0    5470.0   14530.0 5226.27     0.3292E+02
   20000.0    5460.0   14540.0 5228.21     0.3309E+02
   20000.0    5450.0   14550.0 5230.15     0.3325E+02
   20000.0    5440.0   14560.0 5232.09     0.3342E+02
   20000.0    5430.0   14570.0 5234.03     0.3359E+02
   20000.0    5420.0   14580.0 5235.97     0.3376E+02
   20000.0    5410.0   14590.0 5237.91     0.3393E+02
   20000.0    5400.0   14600.0 5239.84     0.3410E+02
   20000.0    5390.0   14610.0 5241.78     0.3427E+02
   20000.0    5380.0   14620.0 5243.71     0.3445E+02
   20000.0    5370.0   14630.0 5245.65     0.3462E+02
   20000.0    5360.0   14640.0 5247.58     0.3479E+02
   20000.0    5350.0   14650.0 5249.51     0.3497E+02
   20000.0    5340.0   14660.0 5251.45     0.3515E+02
   20000.0    5330.0   14670.0 5253.38     0.3533E+02
   20000.0    5320.0   14680.0 5255.31     0.3551E+02
   20000.0    5310.0   14690.0 5257.24     0.3569E+02
   20000.0    5300.0   14700.0 5259.17     0.3587E+02
   20000.0    5290.0   14710.0 5261.09     0.3605E+02
   20000.0    5280.0   14720.0 5263.02     0.3624E+02
   20000.0    5270.0   14730.0 5264.95     0.3642E+02
   20000.0    5260.0   14740.0 5266.88     0.3661E+02
   20000.0    5250.0   14750.0 5268.80     0.3679E+02
   20000.0    5240.0   14760.0 5270.73     0.3698E+02
   20000.0    5230.0   14770.0 5272.65     0.3717E+02
   20000.0    5220.0   14780.0 5274.57     0.3736E+02
   20000.0    5210.0   14790.0 5276.50     0.3755E+02
   20000.0    5200.0   14800.0 5278.42     0.3775E+02
   20000.0    5190.0   14810.0 5280.34     0.3794E+02
   20000.0    5180.0   14820.0 5282.26     0.3814E+02
   20000.0    5170.0   14830.0 5284.18     0.3833E+02
   20000.0    5160.0   14840.0 5286.10     0.3853E+02
   20000.0    5150.0   14850.0 5288.02     0.3873E+02
   20000.0    5140.0   14860.0 5289.94     0.3893E+02
   20000.0    5130.0   14870.0 5291.85     0.3913E+02
   20000.0    5120.0   14880.0 5293.77     0.3934E+02
   20000.0    5110.0   14890.0 5295.69     0.3954E+02
   20000.0    5100.0   14900.0 5297.60     0.3975E+02
   20000.0    5090.0   14910.0 5299.52     0.3995E+02
   20000.0    5080.0   14920.0 5301.43     0.4016E+02
   20000.0    5070.0   14930.0 5303.34     0.4037E+02
   20000.0    5060.0   14940.0 5305.25     0.4058E+02
   20000.0    5050.0   14950.0 5307.17     0.4079E+02
   20000.0    5040.0   14960.0 5309.08     0.4101E+02
   20000.0    5030.0   14970.0 5310.99     0.4122E+02
   20000.0    5020.0   14980.0 5312.90     0.4144E+02
   20000.0    5010.0   14990.0 5314.81     0.4165E+02
   20000.0    5000.0   15000.0 5316.71     0.4187E+02
   20000.0    4990.0   15010.0 5318.62     0.4209E+02
   20000.0    4980.0   15020.0 5320.53     0.4231E+02
   20000.0    4970.0   15030.0 5322.44     0.4254E+02
   20000.0    4960.0   15040.0 5324.34     0.4276E+02
   20000.0    4950.0   15050.0 5326.25     0.4299E+02
   20000.0    4940.0   15060.0 5328.15     0.4321E+02
   20000.0    4930.0   15070.0 5330.05     0.4344E+02
   20000.0    4920.0   15080.0 5331.96     0.4367E+02
   20000.0    4910.0   15090.0 5333.86     0.4391E+02
   20000.0    4900.0   15100.0 5335.76     0.4414E+02
   20000.0    4890.0   15110.0 5337.66     0.4437E+02
   20000.0    4880.0   15120.0 5339.56     0.4461E+02
   20000.0    4870.0   15130.0 5341.46     0.4485E+02
   20000.0    4860.0   15140.0 5343.36     0.4509E+02
   20000.0    4850.0   15150.0 5345.26     0.4533E+02
   20000.0    4840.0   15160.0 5347.15     0.4557E+02
   20000.0    4830.0   15170.0 5349.05     0.4581E+02
   20000.0    4820.0   15180.0 5350.95     0.4606E+02
   20000.0    4810.0   15190.0 5352.84     0.4631E+02
   20000.0    4800.0   15200.0 5354.74     0.4655E+02
   20000.0    4790.0   15210.0 5356.63     0.4680E+02
   20000.0    4780.0   15220.0 5358.52     0.4706E+02
   20000.0    4770.0   15230.0 5360.42     0.4731E+02
   20000.0    4760.0   15240.0 5362.31     0.4756E+02
   20000.0    4750.0   15250.0 5364.20     0.4782E+02
   20000.0    4740.0   15260.0 5366.09     0.4808E+02
   20000.0    4730.0   15270.0 5367.98     0.4834E+02
   20000.0    4720.0   15280.0 5369.87     0.4860E+02
   20000.0    4710.0   15290.0 5371.76     0.4887E+02
   20000.0    4700.0   15300.0 5373.65     0.4913E+02
   20000.0    4690.0   15310.0 5375.53     0.4940E+02
   20000.0    4680.0   15320.0 5377.42     0.4967E+02
   20000.0    4670.0   15330.0 5379.31     0.4994E+02
   20000.0    4660.0   15340.0 5381.19     0.5021E+02
   20000.0    4650.0   15350.0 5383.08     0.5049E+02
   20000.0    4640.0   15360.0 5384.96     0.5076E+02
   20000.0    4630.0   15370.0 5386.84     0.5104E+02
   20000.0    4620.0   15380.0 5388.73     0.5132E+02
   20000.0    4610.0   15390.0 5390.61     0.5160E+02
   20000.0    4600.0   15400.0 5392.49     0.5189E+02
   20000.0    4590.0   15410.0 5394.37     0.5217E+02
   20000.0    4580.0   15420.0 5396.25     0.5246E+02
   20000.0    4570.0   15430.0 5398.13     0.5275E+02
   20000.0    4560.0   15440.0 5400.01     0.5304E+02
   20000.0    4550.0   15450.0 5401.89     0.5333E+02
   20000.0    4540.0   15460.0 5403.77     0.5363E+02
   20000.0    4530.0   15470.0 5405.64     0.5393E+02
   20000.0    4520.0   15480.0 5407.52     0.5423E+02
   20000.0    4510.0   15490.0 5409.39     0.5453E+02
   20000.0    4500.0   15500.0 5411.27     0.5483E+02
   20000.0    4490.0   15510.0 5413.14     0.5514E+02
   20000.0    4480.0   15520.0 5415.02     0.5545E+02
   20000.0    4470.0   15530.0 5416.89     0.5576E+02
   20000.0    4460.0   15540.0 5418.76     0.5607E+02
   20000.0    4450.0   15550.0 5420.63     0.5638E+02
   20000.0    4440.0   15560.0 5422.50     0.5670E+02
   20000.0    4430.0   15570.0 5424.37     0.5702E+02
   20000.0    4420.0   15580.0 5426.24     0.5734E+02
   20000.0    4410.0   15590.0 5428.11     0.5766E+02
   20000.0    4400.0   15600.0 5429.98     0.5799E+02
   20000.0    4390.0   15610.0 5431.85     0.5832E+02
   20000.0    4380.0   15620.0 5433.72     0.5864E+02
   20000.0    4370.0   15630.0 5435.58     0.5898E+02
   20000.0    4360.0   15640.0 5437.45     0.5931E+02
   20000.0    4350.0   15650.0 5439.31     0.5965E+02
   20000.0    4340.0   15660.0 5441.18     0.5999E+02
   20000.0    4330.0   15670.0 5443.04     0.6033E+02
   20000.0    4320.0   15680.0 5444.91     0.6067E+02
   20000.0    4310.0   15690.0 5446.77     0.6102E+02
   20000.0    4300.0   15700.0 5448.63     0.6137E+02
   20000.0    4290.0   15710.0 5450.49     0.6172E+02
   20000.0    4280.0   15720.0 5452.35     0.6208E+02
   20000.0    4270.0   15730.0 5454.21     0.6243E+02
   20000.0    4260.0   15740.0 5456.07     0.6279E+02
   20000.0    4250.0   15750.0 5457.93     0.6315E+02
   20000.0    4240.0   15760.0 5459.79     0.6352E+02
   20000.0    4230.0   15770.0 5461.65     0.6388E+02
   20000.0    4220.0   15780.0 5463.50     0.6425E+02
   20000.0    4210.0   15790.0 5465.36     0.6463E+02
   20000.0    4200.0   15800.0 5467.22     0.6500E+02
   20000.0    4190.0   15810.0 5469.07     0.6538E+02
   20000.0    4180.0   15820.0 5470.93     0.6576E+02
   20000.0    4170.0   15830.0 5472.78     0.6614E+02
   20000.0    4160.0   15840.0 5474.63     0.6653E+02
   20000.0    4150.0   15850.0 5476.49     0.6692E+02
   20000.0    4140.0   15860.0 5478.34     0.6731E+02
   20000.0    4130.0   15870.0 5480.19     0.6770E+02
   20000.0    4120.0   15880.0 5482.04     0.6810E+02
   20000.0    4110.0   15890.0 5483.89     0.6850E+02
   20000.0    4100.0   15900.0 5485.74     0.6890E+02
   20000.0    4090.0   15910.0 5487.59     0.6931E+02
   20000.0    4080.0   15920.0 5489.44     0.6972E+02
   20000.0    4070.0   15930.0 5491.28     0.7013E+02
   20000.0    4060.0   15940.0 5493.13     0.7055E+02
   20000.0    4050.0   15950.0 5494.98     0.7097E+02
   20000.0    4040.0   15960.0 5496.82     0.7139E+02
   20000.0    4030.0   15970.0 5498.67     0.7181E+02
   20000.0    4020.0   15980.0 5500.51     0.7224E+02
   20000.0    4010.0   15990.0 5502.36     0.7267E+02
   20000.0    4000.0   16000.0 5504.20     0.7311E+02
   20000.0    3990.0   16010.0 5506.04     0.7354E+02
   20000.0    3980.0   16020.0 5507.88     0.7399E+02
   20000.0    3970.0   16030.0 5509.73     0.7443E+02
   20000.0    3960.0   16040.0 5511.57     0.7488E+02
   20000.0    3950.0   16050.0 5513.41     0.7533E+02
   20000.0    3940.0   16060.0 5515.25     0.7578E+02
   20000.0    3930.0   16070.0 5517.08     0.7624E+02
   20000.0    3920.0   16080.0 5518.92     0.7670E+02
   20000.0    3910.0   16090.0 5520.76     0.7717E+02
   20000.0    3900.0   16100.0 5522.60     0.7764E+02
   20000.0    3890.0   16110.0 5524.43     0.7811E+02
   20000.0    3880.0   16120.0 5526.27     0.7859E+02
   20000.0    3870.0   16130.0 5528.11     0.7907E+02
   20000.0    3860.0   16140.0 5529.94     0.7955E+02
   20000.0    3850.0   16150.0 5531.77     0.8004E+02
   20000.0    3840.0   16160.0 5533.61     0.8053E+02
   20000.0    3830.0   16170.0 5535.44     0.8102E+02
   20000.0    3820.0   16180.0 5537.27     0.8152E+02
   20000.0    3810.0   16190.0 5539.10     0.8202E+02
   20000.0    3800.0   16200.0 5540.93     0.8253E+02
   20000.0    3790.0   16210.0 5542.77     0.8304E+02
   20000.0    3780.0   16220.0 5544.60     0.8356E+02
   20000.0    3770.0   16230.0 5546.42     0.8407E+02
   20000.0    3760.0   16240.0 5548.25     0.8460E+02
   20000.0    3750.0   16250.0 5550.08     0.8512E+02
   20000.0    3740.0   16260.0 5551.91     0.8566E+02
   20000.0    3730.0   16270.0 5553.74     0.8619E+02
   20000.0    3720.0   16280.0 5555.56     0.8673E+02
   20000.0    3710.0   16290.0 5557.39     0.8728E+02
   20000.0    3700.0   16300.0 5559.21     0.8782E+02
   20000.0    3690.0   16310.0 5561.04     0.8838E+02
   20000.0    3680.0   16320.0 5562.86     0.8893E+02
   20000.0    3670.0   16330.0 5564.68     0.8950E+02
   20000.0    3660.0   16340.0 5566.51     0.9006E+02
   20000.0    3650.0   16350.0 5568.33     0.9063E+02
   20000.0    3640.0   16360.0 5570.15     0.9121E+02
   20000.0    3630.0   16370.0 5571.97     0.9179E+02
   20000.0    3620.0   16380.0 5573.79     0.9238E+02
   20000.0    3610.0   16390.0 5575.61     0.9297E+02
   20000.0    3600.0   16400.0 5577.43     0.9356E+02
   20000.0    3590.0   16410.0 5579.25     0.9416E+02
   20000.0    3580.0   16420.0 5581.07     0.9477E+02
   20000.0    3570.0   16430.0 5582.88     0.9538E+02
   20000.0    3560.0   16440.0 5584.70     0.9599E+02
   20000.0    3550.0   16450.0 5586.51     0.9661E+02
   20000.0    3540.0   16460.0 5588.33     0.9724E+02
   20000.0    3530.0   16470.0 5590.15     0.9787E+02
   20000.0    3520.0   16480.0 5591.96     0.9850E+02
   20000.0    3510.0   16490.0 5593.77     0.9915E+02
   20000.0    3500.0   16500.0 5595.59     0.9979E+02
   20000.0    3490.0   16510.0 5597.40     0.1004E+03
   20000.0    3480.0   16520.0 5599.21     0.1011E+03
   20000.0    3470.0   16530.0 5601.02     0.1018E+03
   20000.0    3460.0   16540.0 5602.83     0.1024E+03
   20000.0    3450.0   16550.0 5604.64     0.1031E+03
   20000.0    3440.0   16560.0 5606.45     0.1038E+03
   20000.0    3430.0   16570.0 5608.26     0.1045E+03
   20000.0    3420.0   16580.0 5610.07     0.1052E+03
   20000.0    3410.0   16590.0 5611.88     0.1059E+03
   20000.0    3400.0   16600.0 5613.69     0.1066E+03
   20000.0    3390.0   16610.0 5615.49     0.1073E+03
   20000.0    3380.0   16620.0 5617.30     0.1080E+03
   20000.0    3370.0   16630.0 5619.10     0.1087E+03
   20000.0    3360.0   16640.0 5620.91     0.1095E+03
   20000.0    3350.0   16650.0 5622.71     0.1102E+03
   20000.0    3340.0   16660.0 5624.52     0.1109E+03
   20000.0    3330.0   16670.0 5626.32     0.1117E+03
   20000.0    3320.0   16680.0 5628.12     0.1124E+03
   20000.0    3310.0   16690.0 5629.92     0.1132E+03
   20000.0    3300.0   16700.0 5631.73     0.1140E+03
   20000.0    3290.0   16710.0 5633.53     0.1147E+03
   20000.0    3280.0   16720.0 5635.33     0.1155E+03
   20000.0    3270.0   16730.0 5637.13     0.1163E+03
   20000.0    3260.0   16740.0 5638.93     0.1171E+03
   20000.0    3250.0   16750.0 5640.72     0.1179E+03
   20000.0    3240.0   16760.0 5642.52     0.1187E+03
   20000.0    3230.0   16770.0 5644.32     0.1196E+03
   20000.0    3220.0   16780.0 5646.12     0.1204E+03
   20000.0    3210.0   16790.0 5647.91     0.1212E+03
   20000.0    3200.0   16800.0 5649.71     0.1221E+03
   20000.0    3190.0   16810.0 5651.50     0.1229E+03
   20000.0    3180.0   16820.0 5653.30     0.1238E+03
   20000.0    3170.0   16830.0 5655.09     0.1246E+03
   20000.0    3160.0   16840.0 5656.89     0.1255E+03
   20000.0    3150.0   16850.0 5658.68     0.1264E+03
   20000.0    3140.0   16860.0 5660.47     0.1273E+03
   20000.0    3130.0   16870.0 5662.26     0.1282E+03
   20000.0    3120.0   16880.0 5664.05     0.1291E+03
   20000.0    3110.0   16890.0 5665.85     0.1300E+03
   20000.0    3100.0   16900.0 5667.64     0.1309E+03
   20000.0    3090.0   16910.0 5669.42     0.1318E+03
   20000.0    3080.0   16920.0 5671.21     0.1328E+03
   20000.0    3070.0   16930.0 5673.00     0.1337E+03
   20000.0    3060.0   16940.0 5674.79     0.1347E+03
   20000.0    3050.0   16950.0 5676.58     0.1357E+03
   20000.0    3040.0   16960.0 5678.36     0.1366E+03
   20000.0    3030.0   16970.0 5680.15     0.1376E+03
   20000.0    3020.0   16980.0 5681.94     0.1386E+03
   20000.0    3010.0   16990.0 5683.72     0.1396E+03
   20000.0    3000.0   17000.0 5685.50     0.1407E+03
   20000.0    2990.0   17010.0 5687.29     0.1417E+03
   20000.0    2980.0   17020.0 5689.07     0.1427E+03
   20000.0    2970.0   17030.0 5690.85     0.1438E+03
   20000.0    2960.0   17040.0 5692.64     0.1448E+03
   20000.0    2950.0   17050.0 5694.42     0.1459E+03
   20000.0    2940.0   17060.0 5696.20     0.1470E+03
   20000.0    2930.0   17070.0 5697.98     0.1481E+03
   20000.0    2920.0   17080.0 5699.76     0.1492E+03
   20000.0    2910.0   17090.0 5701.54     0.1503E+03
   20000.0    2900.0   17100.0 5703.32     0.1514E+03
   20000.0    2890.0   17110.0 5705.10     0.1525E+03
   20000.0    2880.0   17120.0 5706.87     0.1537E+03
   20000.0    2870.0   17130.0 5708.65     0.1548E+03
   20000.0    2860.0   17140.0 5710.43     0.1560E+03
   20000.0    2850.0   17150.0 5712.20     0.1572E+03
   20000.0    2840.0   17160.0 5713.98     0.1584E+03
   20000.0    2830.0   17170.0 5715.75     0.1596E+03
   20000.0    2820.0   17180.0 5717.53     0.1608E+03
   20000.0    2810.0   17190.0 5719.30     0.1620E+03
   20000.0    2800.0   17200.0 5721.08     0.1633E+03
   20000.0    2790.0   17210.0 5722.85     0.1645E+03
   20000.0    2780.0   17220.0 5724.62     0.1658E+03
   20000.0    2770.0   17230.0 5726.39     0.1671E+03
   20000.0    2760.0   17240.0 5728.16     0.1684E+03
   20000.0    2750.0   17250.0 5729.93     0.1697E+03
   20000.0    2740.0   17260.0 5731.70     0.1710E+03
   20000.0    2730.0   17270.0 5733.47     0.1723E+03
   20000.0    2720.0   17280.0 5735.24     0.1737E+03
   20000.0    2710.0   17290.0 5737.01     0.1750E+03
   20000.0    2700.0   17300.0 5738.78     0.1764E+03
   20000.0    2690.0   17310.0 5740.55     0.1778E+03
   20000.0    2680.0   17320.0 5742.31     0.1792E+03
   20000.0    2670.0   17330.0 5744.08     0.1807E+03
   20000.0    2660.0   17340.0 5745.85     0.1821E+03
   20000.0    2650.0   17350.0 5747.61     0.1836E+03
   20000.0    2640.0   17360.0 5749.38     0.1850E+03
   20000.0    2630.0   17370.0 5751.14     0.1865E+03
   20000.0    2620.0   17380.0 5752.90     0.1880E+03
   20000.0    2610.0   17390.0 5754.67     0.1896E+03
   20000.0    2600.0   17400.0 5756.43     0.1911E+03
   20000.0    2590.0   17410.0 5758.19     0.1926E+03
   20000.0    2580.0   17420.0 5759.95     0.1942E+03
   20000.0    2570.0   17430.0 5761.71     0.1958E+03
   20000.0    2560.0   17440.0 5763.47     0.1974E+03
   20000.0    2550.0   17450.0 5765.23     0.1991E+03
   20000.0    2540.0   17460.0 5766.99     0.2007E+03
   20000.0    2530.0   17470.0 5768.75     0.2024E+03
   20000.0    2520.0   17480.0 5770.51     0.2041E+03
   20000.0    2510.0   17490.0 5772.27     0.2058E+03
   20000.0    2500.0   17500.0 5774.02     0.2075E+03
   20000.0    2490.0   17510.0 5775.78     0.2092E+03
   20000.0    2480.0   17520.0 5777.54     0.2110E+03
   20000.0    2470.0   17530.0 5779.29     0.2128E+03
   20000.0    2460.0   17540.0 5781.05     0.2146E+03
   20000.0    2450.0   17550.0 5782.80     0.2164E+03
   20000.0    2440.0   17560.0 5784.55     0.2183E+03
   20000.0    2430.0   17570.0 5786.31     0.2201E+03
   20000.0    2420.0   17580.0 5788.06     0.2220E+03
   20000.0    2410.0   17590.0 5789.81     0.2240E+03
   20000.0    2400.0   17600.0 5791.56     0.2259E+03
   20000.0    2390.0   17610.0 5793.32     0.2279E+03
   20000.0    2380.0   17620.0 5795.07     0.2298E+03
   20000.0    2370.0   17630.0 5796.82     0.2319E+03
   20000.0    2360.0   17640.0 5798.57     0.2339E+03
   20000.0    2350.0   17650.0 5800.32     0.2360E+03
   20000.0    2340.0   17660.0 5802.06     0.2380E+03
   20000.0    2330.0   17670.0 5803.81     0.2402E+03
   20000.0    2320.0   17680.0 5805.56     0.2423E+03
   20000.0    2310.0   17690.0 5807.31     0.2445E+03
   20000.0    2300.0   17700.0 5809.05     0.2467E+03
   20000.0    2290.0   17710.0 5810.80     0.2489E+03
   20000.0    2280.0   17720.0 5812.54     0.2511E+03
   20000.0    2270.0   17730.0 5814.29     0.2534E+03
   20000.0    2260.0   17740.0 5816.03     0.2557E+03
   20000.0    2250.0   17750.0 5817.78     0.2581E+03
   20000.0    2240.0   17760.0 5819.52     0.2604E+03
   20000.0    2230.0   17770.0 5821.26     0.2628E+03
   20000.0    2220.0   17780.0 5823.01     0.2652E+03
   20000.0    2210.0   17790.0 5824.75     0.2677E+03
   20000.0    2200.0   17800.0 5826.49     0.2702E+03
   20000.0    2190.0   17810.0 5828.23     0.2727E+03
   20000.0    2180.0   17820.0 5829.97     0.2753E+03
   20000.0    2170.0   17830.0 5831.71     0.2779E+03
   20000.0    2160.0   17840.0 5833.45     0.2805E+03
   20000.0    2150.0   17850.0 5835.19     0.2832E+03
   20000.0    2140.0   17860.0 5836.93     0.2859E+03
   20000.0    2130.0   17870.0 5838.66     0.2886E+03
   20000.0    2120.0   17880.0 5840.40     0.2914E+03
   20000.0    2110.0   17890.0 5842.14     0.2942E+03
   20000.0    2100.0   17900.0 5843.87     0.2970E+03
   20000.0    2090.0   17910.0 5845.61     0.2999E+03
   20000.0    2080.0   17920.0 5847.34     0.3029E+03
   20000.0    2070.0   17930.0 5849.08     0.3058E+03
   20000.0    2060.0   17940.0 5850.81     0.3088E+03
   20000.0    2050.0   17950.0 5852.55     0.3119E+03
   20000.0    2040.0   17960.0 5854.28     0.3150E+03
   20000.0    2030.0   17970.0 5856.01     0.3181E+03
   20000.0    2020.0   17980.0 5857.74     0.3213E+03
   20000.0    2010.0   17990.0 5859.47     0.3246E+03
   20000.0    2000.0   18000.0 5861.20     0.3278E+03
   20000.0    1990.0   18010.0 5862.94     0.3312E+03
   20000.0    1980.0   18020.0 5864.67     0.3345E+03
   20000.0    1970.0   18030.0 5866.39     0.3380E+03
   20000.0    1960.0   18040.0 5868.12     0.3414E+03
   20000.0    1950.0   18050.0 5869.85     0.3450E+03
   20000.0    1940.0   18060.0 5871.58     0.3485E+03
   20000.0    1930.0   18070.0 5873.31     0.3522E+03
   20000.0    1920.0   18080.0 5875.03     0.3559E+03
   20000.0    1910.0   18090.0 5876.76     0.3596E+03
   20000.0    1900.0   18100.0 5878.49     0.3634E+03
   20000.0    1890.0   18110.0 5880.21     0.3673E+03
   20000.0    1880.0   18120.0 5881.94     0.3712E+03
   20000.0    1870.0   18130.0 5883.66     0.3752E+03
   20000.0    1860.0   18140.0 5885.38     0.3792E+03
   20000.0    1850.0   18150.0 5887.11     0.3833E+03
   20000.0    1840.0   18160.0 5888.83     0.3875E+03
   20000.0    1830.0   18170.0 5890.55     0.3917E+03
   20000.0    1820.0   18180.0 5892.27     0.3960E+03
   20000.0    1810.0   18190.0 5894.00     0.4003E+03
   20000.0    1800.0   18200.0 5895.72     0.4048E+03
   20000.0    1790.0   18210.0 5897.44     0.4093E+03
   20000.0    1780.0   18220.0 5899.16     0.4139E+03
   20000.0    1770.0   18230.0 5900.88     0.4185E+03
   20000.0    1760.0   18240.0 5902.59     0.4233E+03
   20000.0    1750.0   18250.0 5904.31     0.4281E+03
   20000.0    1740.0   18260.0 5906.03     0.4330E+03
   20000.0    1730.0   18270.0 5907.75     0.4379E+03
   20000.0    1720.0   18280.0 5909.46     0.4430E+03
   20000.0    1710.0   18290.0 5911.18     0.4481E+03
   20000.0    1700.0   18300.0 5912.90     0.4533E+03
   20000.0    1690.0   18310.0 5914.61     0.4587E+03
   20000.0    1680.0   18320.0 5916.33     0.4641E+03
   20000.0    1670.0   18330.0 5918.04     0.4696E+03
   20000.0    1660.0   18340.0 5919.75     0.4751E+03
   20000.0    1650.0   18350.0 5921.47     0.4808E+03
   20000.0    1640.0   18360.0 5923.18     0.4866E+03
   20000.0    1630.0   18370.0 5924.89     0.4925E+03
   20000.0    1620.0   18380.0 5926.61     0.4985E+03
   20000.0    1610.0   18390.0 5928.32     0.5046E+03
   20000.0    1600.0   18400.0 5930.03     0.5108E+03
   20000.0    1590.0   18410.0 5931.74     0.5172E+03
   20000.0    1580.0   18420.0 5933.45     0.5236E+03
   20000.0    1570.0   18430.0 5935.16     0.5302E+03
   20000.0    1560.0   18440.0 5936.87     0.5368E+03
   20000.0    1550.0   18450.0 5938.57     0.5437E+03
   20000.0    1540.0   18460.0 5940.28     0.5506E+03
   20000.0    1530.0   18470.0 5941.99     0.5577E+03
   20000.0    1520.0   18480.0 5943.70     0.5648E+03
   20000.0    1510.0   18490.0 5945.40     0.5722E+03
