%!PS-Adobe-2.0
%%Title: /home/whit/sane08/InSANE/main/detectors/BC_xVsy_wLucAndCer.ps: Canvas 1
%%Creator: ROOT Version 5.27/06a
%%CreationDate: Mon Sep 26 16:07:14 2011
%%Orientation: Portrait
%%EndComments
%%BeginProlog
/s {stroke} def /l {lineto} def /m {moveto} def /t {translate} def
/r {rotate} def /rl {roll}  def /R {repeat} def
/d {rlineto} def /rm {rmoveto} def /gr {grestore} def /f {eofill} def
/c {setrgbcolor} def /black {0 setgray} def /sd {setdash} def
/cl {closepath} def /sf {scalefont setfont} def /lw {setlinewidth} def
/box {m dup 0 exch d exch 0 d 0 exch neg d cl} def
/NC{systemdict begin initclip end}def/C{NC box clip newpath}def
/bl {box s} def /bf {box f} def /Y { 0 exch d} def /X { 0 d} def 
/K {{pop pop 0 moveto} exch kshow} bind def
/ita {/ang 15 def gsave [1 0 ang dup sin exch cos div 1 0 0] concat} def 
/mp {newpath /y exch def /x exch def} def
/side {[w .77 mul w .23 mul] .385 w mul sd w 0 l currentpoint t -144 r} def
/mr {mp x y w2 0 360 arc} def /m24 {mr s} def /m20 {mr f} def
/mb {mp x y w2 add m w2 neg 0 d 0 w neg d w 0 d 0 w d cl} def
/mt {mp x y w2 add m w2 neg w neg d w 0 d cl} def
/m21 {mb f} def /m25 {mb s} def /m22 {mt f} def /m26{mt s} def
/m23 {mp x y w2 sub m w2 w d w neg 0 d cl f} def
/m27 {mp x y w2 add m w3 neg w2 neg d w3 w2 neg d w3 w2 d cl s} def
/m28 {mp x w2 sub y w2 sub w3 add m w3 0 d  0 w3 neg d w3 0 d 0 w3 d w3 0 d  0 w3 d w3 neg 0 d 0 w3 d w3 neg 0 d 0 w3 neg d w3 neg 0 d cl s } def
/m29 {mp gsave x w2 sub y w2 add w3 sub m currentpoint t 4 {side} repeat cl fill gr} def
/m30 {mp gsave x w2 sub y w2 add w3 sub m currentpoint t 4 {side} repeat cl s gr} def
/m31 {mp x y w2 sub m 0 w d x w2 sub y m w 0 d x w2 sub y w2 add m w w neg d x w2 sub y w2 sub m w w d s} def
/m32 {mp x y w2 sub m w2 w d w neg 0 d cl s} def
/m33 {mp x y w2 add m w3 neg w2 neg d w3 w2 neg d w3 w2 d cl f} def
/m34 {mp x w2 sub y w2 sub w3 add m w3 0 d  0 w3 neg d w3 0 d 0 w3 d w3 0 d  0 w3 d w3 neg 0 d 0 w3 d w3 neg 0 d 0 w3 neg d w3 neg 0 d cl f } def
/m2 {mp x y w2 sub m 0 w d x w2 sub y m w 0 d s} def
/m5 {mp x w2 sub y w2 sub m w w d x w2 sub y w2 add m w w neg d s} def
/reEncode {exch findfont dup length dict begin {1 index /FID eq  {pop pop} {def} ifelse } forall /Encoding exch def currentdict end dup /FontName get exch definefont pop } def [/Times-Bold /Times-Italic /Times-BoldItalic /Helvetica /Helvetica-Oblique
 /Helvetica-Bold /Helvetica-BoldOblique /Courier /Courier-Oblique /Courier-Bold /Courier-BoldOblique /Times-Roman /AvantGarde-Book /AvantGarde-BookOblique /AvantGarde-Demi /AvantGarde-DemiOblique /Bookman-Demi /Bookman-DemiItalic /Bookman-Light
 /Bookman-LightItalic /Helvetica-Narrow /Helvetica-Narrow-Bold /Helvetica-Narrow-BoldOblique /Helvetica-Narrow-Oblique /NewCenturySchlbk-Roman /NewCenturySchlbk-Bold /NewCenturySchlbk-BoldItalic /NewCenturySchlbk-Italic /Palatino-Bold
 /Palatino-BoldItalic /Palatino-Italic /Palatino-Roman ] {ISOLatin1Encoding reEncode } forall/Zone {/iy exch def /ix exch def  ix 1 sub  2224 mul  1 iy sub  3144 mul t} def
%%EndProlog
%%BeginSetup
%%EndSetup
newpath  gsave  20 28 t .25 .25 scale  gsave 
%%Page: 1 1
 gsave  gsave 
 1 1 Zone
 gsave  0 0 t black[  ] 0 sd 3 lw 1 1 1 c 2268 2585 0 0 bf black 6 lw 1 1 1 c black 1813 2072 225 261 bl 1813 2072 225 261 bl 1 1 1 c black 1813 2072 225 261 bl 1813 2072 225 261 bl 1 1 1 c 0.796829 0.117073 0 c 45 51 361 365 bf 0.819565 0.988985
 0.171014 c 46 51 406 365 bf 0 0.706395 0.937326 c 45 51 452 365 bf 0 0.668721 0.914535 c 45 51 497 365 bf 0 0.725233 0.948721 c 46 51 542 365 bf 0 0.649884 0.90314 c 45 51 588 365 bf 0 0.452093 0.783488 c 45 51 633 365 bf 0 0.254302 0.663837 c 46 51
 678 365 bf 0 0.27314 0.675233 c 45 51 724 365 bf 0 0.197791 0.629651 c 45 51 769 365 bf 0 0.113023 0.578372 c 46 51 814 365 bf 0 0.197791 0.629651 c 45 51 860 365 bf 45 51 905 365 bf 0 0.0753488 0.555581 c 46 51 950 365 bf 0 0.113023 0.578372 c 45
 51 996 365 bf 0 0.0565116 0.544186 c 45 51 1041 365 bf 0 0.197791 0.629651 c 46 51 1086 365 bf 45 51 1132 365 bf 0 0.27314 0.675233 c 45 51 1177 365 bf 0 0.197791 0.629651 c 46 51 1222 365 bf 0 0.113023 0.578372 c 45 51 1268 365 bf 0 0.0753488
 0.555581 c 45 51 1313 365 bf 46 51 1358 365 bf 0 0.0565116 0.544186 c 45 51 1404 365 bf 0 0.0376744 0.532791 c 45 51 1449 365 bf 0 0.0188372 0.521395 c 46 51 1494 365 bf 45 51 1540 365 bf 0 0.0376744 0.532791 c 45 51 1585 365 bf 0 0.0565116 0.544186
 c 46 51 1630 365 bf 0 0.094186 0.566977 c 45 51 1676 365 bf 0 0.0565116 0.544186 c 45 51 1721 365 bf 0 0.0376744 0.532791 c 46 51 1766 365 bf 0 0.555698 0.846163 c 45 52 361 416 bf 0.47913 0.914638 0.515362 c 46 52 406 416 bf 0.10087 0.832029
 0.897971 c 45 52 452 416 bf 0.844783 0.994493 0.145507 c 45 52 497 416 bf 0.214348 0.856812 0.783188 c 46 52 542 416 bf 0 0.772326 0.977209 c 45 52 588 416 bf 0.0504348 0.821014 0.948986 c 45 52 633 416 bf 0 0.612209 0.880349 c 46 52 678 416 bf 0
 0.310814 0.698023 c 45 52 724 416 bf 0 0.150698 0.601163 c 45 52 769 416 bf 0 0.310814 0.698023 c 46 52 814 416 bf 0 0.348488 0.720814 c 45 52 860 416 bf 0 0.27314 0.675233 c 45 52 905 416 bf 0 0.348488 0.720814 c 46 52 950 416 bf 0 0.376744
 0.737907 c 45 52 996 416 bf 0 0.094186 0.566977 c 45 52 1041 416 bf 0 0.150698 0.601163 c 46 52 1086 416 bf 0 0.772326 0.977209 c 45 52 1132 416 bf 0 0.197791 0.629651 c 45 52 1177 416 bf 0 0.489767 0.806279 c 46 52 1222 416 bf 0 0.216628 0.641047 c
 45 52 1268 416 bf 0 0.150698 0.601163 c 45 52 1313 416 bf 46 52 1358 416 bf 45 52 1404 416 bf 0 0.0188372 0.521395 c 45 52 1449 416 bf 0 0.0565116 0.544186 c 46 52 1494 416 bf 0 0.094186 0.566977 c 45 52 1540 416 bf 0 0.113023 0.578372 c 45 52 1585
 416 bf 0 0.13186 0.589767 c 46 52 1630 416 bf 0 0.0565116 0.544186 c 45 52 1676 416 bf 45 52 1721 416 bf 0 0.376744 0.737907 c 45 52 361 468 bf 0 0.235465 0.652442 c 46 52 406 468 bf 0 0.291977 0.686628 c 45 52 452 468 bf 0 0.47093 0.794884 c 45 52
 497 468 bf 0.315217 0.878841 0.681159 c 46 52 542 468 bf 0 0.433256 0.772093 c 45 52 588 468 bf 0 0.395581 0.749302 c 45 52 633 468 bf 0 0.197791 0.629651 c 46 52 678 468 bf 0 0.13186 0.589767 c 45 52 724 468 bf 0 0.329651 0.709419 c 45 52 769 468
 bf 0 0.235465 0.652442 c 46 52 814 468 bf 0 0.150698 0.601163 c 45 52 860 468 bf 0 0.329651 0.709419 c 45 52 905 468 bf 0 0.376744 0.737907 c 46 52 950 468 bf 0 0.291977 0.686628 c 45 52 996 468 bf 0 0.235465 0.652442 c 45 52 1041 468 bf 0 0.216628
 0.641047 c 46 52 1086 468 bf 0 0.452093 0.783488 c 45 52 1132 468 bf 45 52 1177 468 bf 0 0.649884 0.90314 c 46 52 1222 468 bf 0 0.291977 0.686628 c 45 52 1268 468 bf 0 0.0753488 0.555581 c 45 52 1313 468 bf 0 0.235465 0.652442 c 46 52 1358 468 bf 0
 0.27314 0.675233 c 45 52 1404 468 bf 0 0.0188372 0.521395 c 45 52 1449 468 bf 0 0.0753488 0.555581 c 46 52 1494 468 bf 0 0.0188372 0.521395 c 45 52 1540 468 bf 0 0.0565116 0.544186 c 45 52 1585 468 bf 0 0.094186 0.566977 c 46 52 1630 468 bf 0
 0.0376744 0.532791 c 45 52 1676 468 bf 0 0.13186 0.589767 c 45 52 1721 468 bf 0 0.0376744 0.532791 c 46 52 1766 468 bf 0 0.216628 0.641047 c 45 52 361 520 bf 0 0.555698 0.846163 c 46 52 406 520 bf 0 0.376744 0.737907 c 45 52 452 520 bf 0.264783
 0.867826 0.732174 c 45 52 497 520 bf 0 0.687558 0.92593 c 46 52 542 520 bf 0 0.706395 0.937326 c 45 52 588 520 bf 0 0.508605 0.817674 c 45 52 633 520 bf 0 0.27314 0.675233 c 46 52 678 520 bf 0 0.631047 0.891744 c 45 52 724 520 bf 0 0.508605 0.817674
 c 45 52 769 520 bf 0 0.593372 0.868953 c 46 52 814 520 bf 0 0.291977 0.686628 c 45 52 860 520 bf 0 0.555698 0.846163 c 45 52 905 520 bf 46 52 950 520 bf 0 0.631047 0.891744 c 45 52 996 520 bf 0.214348 0.856812 0.783188 c 45 52 1041 520 bf 0 0.395581
 0.749302 c 46 52 1086 520 bf 0 0.668721 0.914535 c 45 52 1132 520 bf 0.29 0.873333 0.706667 c 45 52 1177 520 bf 0 0.527442 0.82907 c 46 52 1222 520 bf 0 0.489767 0.806279 c 45 52 1268 520 bf 0 0.593372 0.868953 c 45 52 1313 520 bf 0 0.376744
 0.737907 c 46 52 1358 520 bf 0 0.291977 0.686628 c 45 52 1404 520 bf 0 0.197791 0.629651 c 45 52 1449 520 bf 0 0.216628 0.641047 c 46 52 1494 520 bf 0 0.169535 0.612558 c 45 52 1540 520 bf 0 0.150698 0.601163 c 45 52 1585 520 bf 0 0.414419 0.760698
 c 46 52 1630 520 bf 0 0.254302 0.663837 c 45 52 1676 520 bf 0 0.216628 0.641047 c 45 52 1721 520 bf 0 0.113023 0.578372 c 46 52 1766 520 bf 0 0.0188372 0.521395 c 45 52 1812 520 bf 0 0.414419 0.760698 c 45 51 361 572 bf 0.668261 0.955942 0.324058 c
 46 51 406 572 bf 0.0756522 0.826522 0.923478 c 45 51 452 572 bf 0 0.27314 0.675233 c 45 51 497 572 bf 0.0252174 0.815507 0.974493 c 46 51 542 572 bf 0.239565 0.862319 0.757681 c 45 51 588 572 bf 0.214348 0.856812 0.783188 c 45 51 633 572 bf 0.668261
 0.955942 0.324058 c 46 51 678 572 bf 0 0.47093 0.794884 c 45 51 724 572 bf 0 0.81 1 c 45 51 769 572 bf 0 0.706395 0.937326 c 46 51 814 572 bf 0 0.291977 0.686628 c 45 51 860 572 bf 0 0.329651 0.709419 c 45 51 905 572 bf 0 0.508605 0.817674 c 46 51
 950 572 bf 45 51 996 572 bf 0 0.376744 0.737907 c 45 51 1041 572 bf 0 0.348488 0.720814 c 46 51 1086 572 bf 0 0.668721 0.914535 c 45 51 1132 572 bf 0 0.81 1 c 45 51 1177 572 bf 0 0.47093 0.794884 c 46 51 1222 572 bf 0 0.291977 0.686628 c 45 51 1268
 572 bf 0 0.348488 0.720814 c 45 51 1313 572 bf 0 0.235465 0.652442 c 46 51 1358 572 bf 0 0.169535 0.612558 c 45 51 1404 572 bf 0 0.094186 0.566977 c 45 51 1449 572 bf 0 0.254302 0.663837 c 46 51 1494 572 bf 0 0.0753488 0.555581 c 45 51 1540 572 bf 0
 0.150698 0.601163 c 45 51 1585 572 bf 0 0.0753488 0.555581 c 46 51 1630 572 bf 0 0.169535 0.612558 c 45 51 1676 572 bf 0 0.0565116 0.544186 c 45 51 1721 572 bf 0 0.0753488 0.555581 c 46 51 1766 572 bf 0 0.0376744 0.532791 c 45 51 1812 572 bf 0
 0.094186 0.566977 c 45 52 361 623 bf 0.264783 0.867826 0.732174 c 46 52 406 623 bf 0.504348 0.920145 0.489855 c 45 52 452 623 bf 0.47913 0.914638 0.515362 c 45 52 497 623 bf 0.87661 0.959322 0.113898 c 46 52 542 623 bf 0.428696 0.903623 0.566377 c
 45 52 588 623 bf 0.340435 0.884348 0.655652 c 45 52 633 623 bf 0 0.81 1 c 46 52 678 623 bf 0 0.452093 0.783488 c 45 52 724 623 bf 0 0.593372 0.868953 c 45 52 769 623 bf 0 0.348488 0.720814 c 46 52 814 623 bf 0 0.376744 0.737907 c 45 52 860 623 bf 0
 0.329651 0.709419 c 45 52 905 623 bf 0 0.27314 0.675233 c 46 52 950 623 bf 0 0.291977 0.686628 c 45 52 996 623 bf 0 0.348488 0.720814 c 45 52 1041 623 bf 0 0.376744 0.737907 c 46 52 1086 623 bf 0 0.310814 0.698023 c 45 52 1132 623 bf 0 0.527442
 0.82907 c 45 52 1177 623 bf 0 0.574535 0.857558 c 46 52 1222 623 bf 0 0.612209 0.880349 c 45 52 1268 623 bf 0 0.310814 0.698023 c 45 52 1313 623 bf 0 0.27314 0.675233 c 46 52 1358 623 bf 0 0.169535 0.612558 c 45 52 1404 623 bf 0 0.0753488 0.555581 c
 45 52 1449 623 bf 0 0.113023 0.578372 c 46 52 1494 623 bf 45 52 1540 623 bf 0 0.150698 0.601163 c 45 52 1585 623 bf 0 0.216628 0.641047 c 46 52 1630 623 bf 0 0.197791 0.629651 c 45 52 1676 623 bf 0 0.094186 0.566977 c 45 52 1721 623 bf 0 0.0753488
 0.555581 c 46 52 1766 623 bf 0 0.13186 0.589767 c 45 52 361 675 bf 0 0.47093 0.794884 c 46 52 406 675 bf 0 0.725233 0.948721 c 45 52 452 675 bf 0.18913 0.851304 0.808696 c 45 52 497 675 bf 0.315217 0.878841 0.681159 c 46 52 542 675 bf 0 0.81 1 c 45
 52 588 675 bf 0.0252174 0.815507 0.974493 c 45 52 633 675 bf 0 0.687558 0.92593 c 46 52 678 675 bf 0 0.706395 0.937326 c 45 52 724 675 bf 0 0.433256 0.772093 c 45 52 769 675 bf 0 0.508605 0.817674 c 46 52 814 675 bf 0 0.310814 0.698023 c 45 52 860
 675 bf 0 0.169535 0.612558 c 45 52 905 675 bf 0 0.555698 0.846163 c 46 52 950 675 bf 0 0.310814 0.698023 c 45 52 996 675 bf 0 0.47093 0.794884 c 45 52 1041 675 bf 46 52 1086 675 bf 0 0.169535 0.612558 c 45 52 1132 675 bf 0 0.197791 0.629651 c 45 52
 1177 675 bf 0 0.527442 0.82907 c 46 52 1222 675 bf 0 0.254302 0.663837 c 45 52 1268 675 bf 0 0.13186 0.589767 c 45 52 1313 675 bf 0 0.254302 0.663837 c 46 52 1358 675 bf 0 0.169535 0.612558 c 45 52 1404 675 bf 45 52 1449 675 bf 46 52 1494 675 bf 45
 52 1540 675 bf 0 0.0376744 0.532791 c 45 52 1585 675 bf 0 0.0188372 0.521395 c 46 52 1630 675 bf 0 0.113023 0.578372 c 45 52 1676 675 bf 45 52 1721 675 bf 46 52 1766 675 bf 0 0.0188372 0.521395 c 45 52 1857 675 bf 0 0.235465 0.652442 c 45 52 361 727
 bf 0 0.508605 0.817674 c 46 52 406 727 bf 0.18913 0.851304 0.808696 c 45 52 452 727 bf 0.0756522 0.826522 0.923478 c 45 52 497 727 bf 0.126087 0.837536 0.872464 c 46 52 542 727 bf 0 0.668721 0.914535 c 45 52 588 727 bf 0 0.81 1 c 45 52 633 727 bf 0
 0.706395 0.937326 c 46 52 678 727 bf 0 0.555698 0.846163 c 45 52 724 727 bf 0 0.329651 0.709419 c 45 52 769 727 bf 0 0.169535 0.612558 c 46 52 814 727 bf 0 0.254302 0.663837 c 45 52 860 727 bf 0 0.216628 0.641047 c 45 52 905 727 bf 0 0.169535
 0.612558 c 46 52 950 727 bf 0 0.27314 0.675233 c 45 52 996 727 bf 0 0.235465 0.652442 c 45 52 1041 727 bf 0 0.527442 0.82907 c 46 52 1086 727 bf 0 0.169535 0.612558 c 45 52 1132 727 bf 0 0.13186 0.589767 c 45 52 1177 727 bf 0 0.291977 0.686628 c 46
 52 1222 727 bf 0 0.094186 0.566977 c 45 52 1268 727 bf 0 0.291977 0.686628 c 45 52 1313 727 bf 0 0.169535 0.612558 c 46 52 1358 727 bf 0 0.113023 0.578372 c 45 52 1404 727 bf 0 0.235465 0.652442 c 45 52 1449 727 bf 0 0.113023 0.578372 c 46 52 1494
 727 bf 45 52 1540 727 bf 0 0.0376744 0.532791 c 45 52 1585 727 bf 0 0.094186 0.566977 c 46 52 1630 727 bf 0 0.0565116 0.544186 c 45 52 1676 727 bf 0 0.329651 0.709419 c 45 52 1721 727 bf 0 0.0188372 0.521395 c 46 52 1766 727 bf 45 52 1812 727 bf 45
 52 361 779 bf 0 0.376744 0.737907 c 46 52 406 779 bf 0 0.791163 0.988605 c 45 52 452 779 bf 0.239565 0.862319 0.757681 c 45 52 497 779 bf 0.0756522 0.826522 0.923478 c 46 52 542 779 bf 0 0.791163 0.988605 c 45 52 588 779 bf 0 0.631047 0.891744 c 45
 52 633 779 bf 0 0.668721 0.914535 c 46 52 678 779 bf 0 0.395581 0.749302 c 45 52 724 779 bf 0 0.329651 0.709419 c 45 52 769 779 bf 0 0.47093 0.794884 c 46 52 814 779 bf 0 0.329651 0.709419 c 45 52 860 779 bf 0 0.197791 0.629651 c 45 52 905 779 bf 0
 0.235465 0.652442 c 46 52 950 779 bf 0 0.169535 0.612558 c 45 52 996 779 bf 0 0.254302 0.663837 c 45 52 1041 779 bf 0 0.0565116 0.544186 c 46 52 1086 779 bf 0 0.310814 0.698023 c 45 52 1132 779 bf 0 0.197791 0.629651 c 45 52 1177 779 bf 0 0.169535
 0.612558 c 46 52 1222 779 bf 0 0.395581 0.749302 c 45 52 1268 779 bf 0 0.27314 0.675233 c 45 52 1313 779 bf 0 0.197791 0.629651 c 46 52 1358 779 bf 0 0.13186 0.589767 c 45 52 1404 779 bf 0 0.235465 0.652442 c 45 52 1449 779 bf 0 0.27314 0.675233 c
 46 52 1494 779 bf 0 0.13186 0.589767 c 45 52 1540 779 bf 0 0.0753488 0.555581 c 45 52 1585 779 bf 0 0.0376744 0.532791 c 46 52 1630 779 bf 0 0.169535 0.612558 c 45 52 1676 779 bf 0 0.13186 0.589767 c 45 52 1721 779 bf 0 0.0376744 0.532791 c 45 52
 1812 779 bf 45 52 1857 779 bf 0 0.0565116 0.544186 c 45 51 361 831 bf 0 0.668721 0.914535 c 46 51 406 831 bf 0 0.47093 0.794884 c 45 51 452 831 bf 0 0.753488 0.965814 c 45 51 497 831 bf 0.18913 0.851304 0.808696 c 46 51 542 831 bf 0.315217 0.878841
 0.681159 c 45 51 588 831 bf 0 0.725233 0.948721 c 45 51 633 831 bf 0 0.310814 0.698023 c 46 51 678 831 bf 0 0.216628 0.641047 c 45 51 724 831 bf 0 0.150698 0.601163 c 45 51 769 831 bf 0 0.310814 0.698023 c 46 51 814 831 bf 0 0.169535 0.612558 c 45
 51 860 831 bf 0 0.150698 0.601163 c 45 51 905 831 bf 0 0.0565116 0.544186 c 46 51 950 831 bf 0 0.197791 0.629651 c 45 51 996 831 bf 0 0.329651 0.709419 c 45 51 1041 831 bf 0 0.197791 0.629651 c 46 51 1086 831 bf 0 0.216628 0.641047 c 45 51 1132 831
 bf 0 0.555698 0.846163 c 45 51 1177 831 bf 0 0.235465 0.652442 c 46 51 1222 831 bf 0 0.216628 0.641047 c 45 51 1268 831 bf 0 0.235465 0.652442 c 45 51 1313 831 bf 0 0.113023 0.578372 c 46 51 1358 831 bf 0 0.094186 0.566977 c 45 51 1404 831 bf 0
 0.113023 0.578372 c 45 51 1449 831 bf 0 0.216628 0.641047 c 46 51 1494 831 bf 0 0.150698 0.601163 c 45 51 1540 831 bf 0 0.0565116 0.544186 c 45 51 1585 831 bf 0 0.235465 0.652442 c 46 51 1630 831 bf 0 0.0565116 0.544186 c 45 51 1676 831 bf 0
 0.150698 0.601163 c 45 51 1721 831 bf 0 0.113023 0.578372 c 46 51 1766 831 bf 0 0.0188372 0.521395 c 45 51 1812 831 bf 0 0.668721 0.914535 c 45 52 361 882 bf 0.214348 0.856812 0.783188 c 46 52 406 882 bf 0.529565 0.925652 0.464348 c 45 52 452 882 bf
 0.29 0.873333 0.706667 c 45 52 497 882 bf 0.18913 0.851304 0.808696 c 46 52 542 882 bf 0 0.81 1 c 45 52 588 882 bf 0.0252174 0.815507 0.974493 c 45 52 633 882 bf 0 0.706395 0.937326 c 46 52 678 882 bf 0 0.433256 0.772093 c 45 52 724 882 bf 0
 0.649884 0.90314 c 45 52 769 882 bf 0 0.508605 0.817674 c 46 52 814 882 bf 0 0.254302 0.663837 c 45 52 860 882 bf 0 0.216628 0.641047 c 45 52 905 882 bf 0 0.197791 0.629651 c 46 52 950 882 bf 0 0.414419 0.760698 c 45 52 996 882 bf 0 0.310814
 0.698023 c 45 52 1041 882 bf 0 0.216628 0.641047 c 46 52 1086 882 bf 0 0.310814 0.698023 c 45 52 1132 882 bf 0 0.376744 0.737907 c 45 52 1177 882 bf 0 0.13186 0.589767 c 46 52 1222 882 bf 0 0.329651 0.709419 c 45 52 1268 882 bf 0 0.254302 0.663837 c
 45 52 1313 882 bf 0 0.47093 0.794884 c 46 52 1358 882 bf 0 0.348488 0.720814 c 45 52 1404 882 bf 0 0.254302 0.663837 c 45 52 1449 882 bf 0 0.310814 0.698023 c 46 52 1494 882 bf 0 0.27314 0.675233 c 45 52 1540 882 bf 0 0.169535 0.612558 c 45 52 1585
 882 bf 0 0.197791 0.629651 c 46 52 1630 882 bf 0 0.13186 0.589767 c 45 52 1676 882 bf 0 0.0565116 0.544186 c 45 52 1721 882 bf 0 0.13186 0.589767 c 46 52 1766 882 bf 0 0.0376744 0.532791 c 45 52 1812 882 bf 0.58 0.936667 0.413333 c 45 52 361 934 bf
 0.796829 0.117073 0 c 46 52 406 934 bf 0.918475 0.701695 0.0752542 c 45 52 452 934 bf 0.881017 0.932203 0.109831 c 45 52 497 934 bf 0.239565 0.862319 0.757681 c 46 52 542 934 bf 0.163913 0.845797 0.834203 c 45 52 588 934 bf 0 0.791163 0.988605 c 45
 52 633 934 bf 0 0.376744 0.737907 c 46 52 678 934 bf 0 0.329651 0.709419 c 45 52 724 934 bf 0 0.593372 0.868953 c 45 52 769 934 bf 0 0.376744 0.737907 c 46 52 814 934 bf 0 0.254302 0.663837 c 45 52 860 934 bf 0 0.235465 0.652442 c 45 52 905 934 bf 0
 0.376744 0.737907 c 46 52 950 934 bf 0 0.291977 0.686628 c 45 52 996 934 bf 0 0.27314 0.675233 c 45 52 1041 934 bf 0 0.197791 0.629651 c 46 52 1086 934 bf 0 0.433256 0.772093 c 45 52 1132 934 bf 0 0.254302 0.663837 c 45 52 1177 934 bf 0 0.348488
 0.720814 c 46 52 1222 934 bf 0 0.310814 0.698023 c 45 52 1268 934 bf 0 0.216628 0.641047 c 45 52 1313 934 bf 0 0.169535 0.612558 c 46 52 1358 934 bf 0 0.13186 0.589767 c 45 52 1404 934 bf 45 52 1449 934 bf 0 0.197791 0.629651 c 46 52 1494 934 bf 0
 0.489767 0.806279 c 45 52 1540 934 bf 0 0.254302 0.663837 c 45 52 1585 934 bf 0 0.0565116 0.544186 c 46 52 1630 934 bf 0 0.094186 0.566977 c 45 52 1676 934 bf 0 0.150698 0.601163 c 45 52 1721 934 bf 0 0.0188372 0.521395 c 46 52 1766 934 bf 0
 0.0376744 0.532791 c 45 52 1812 934 bf 0.214348 0.856812 0.783188 c 45 52 361 986 bf 0.87 1 0.12 c 46 52 406 986 bf 0.819565 0.988985 0.171014 c 45 52 452 986 bf 0.0252174 0.815507 0.974493 c 45 52 497 986 bf 0.881017 0.932203 0.109831 c 46 52 542
 986 bf 0.453913 0.90913 0.54087 c 45 52 588 986 bf 0.554783 0.931159 0.438841 c 45 52 633 986 bf 0 0.791163 0.988605 c 46 52 678 986 bf 0 0.527442 0.82907 c 45 52 724 986 bf 0 0.47093 0.794884 c 45 52 769 986 bf 0 0.649884 0.90314 c 46 52 814 986 bf
 0 0.433256 0.772093 c 45 52 860 986 bf 0 0.310814 0.698023 c 45 52 905 986 bf 0 0.414419 0.760698 c 46 52 950 986 bf 45 52 996 986 bf 0 0.593372 0.868953 c 45 52 1041 986 bf 0 0.27314 0.675233 c 46 52 1086 986 bf 0 0.47093 0.794884 c 45 52 1132 986
 bf 0 0.291977 0.686628 c 45 52 1177 986 bf 0 0.113023 0.578372 c 46 52 1222 986 bf 0 0.27314 0.675233 c 45 52 1268 986 bf 0 0.113023 0.578372 c 45 52 1313 986 bf 0 0.216628 0.641047 c 46 52 1358 986 bf 0 0.329651 0.709419 c 45 52 1404 986 bf 0
 0.508605 0.817674 c 45 52 1449 986 bf 0 0.395581 0.749302 c 46 52 1494 986 bf 45 52 1540 986 bf 0 0.348488 0.720814 c 45 52 1585 986 bf 0 0.329651 0.709419 c 46 52 1630 986 bf 0 0.113023 0.578372 c 45 52 1676 986 bf 0 0.150698 0.601163 c 45 52 1721
 986 bf 0 0.113023 0.578372 c 46 52 1766 986 bf 0 0.094186 0.566977 c 45 52 1812 986 bf 0 0.0753488 0.555581 c 45 52 361 1038 bf 0.820732 0.126829 0 c 46 52 406 1038 bf 0.819565 0.988985 0.171014 c 45 52 452 1038 bf 0.239565 0.862319 0.757681 c 45 52
 497 1038 bf 0.911864 0.742373 0.0813559 c 46 52 542 1038 bf 0.340435 0.884348 0.655652 c 45 52 588 1038 bf 0 0.753488 0.965814 c 45 52 633 1038 bf 0 0.433256 0.772093 c 46 52 678 1038 bf 0 0.395581 0.749302 c 45 52 724 1038 bf 0 0.753488 0.965814 c
 45 52 769 1038 bf 0 0.414419 0.760698 c 46 52 814 1038 bf 0 0.27314 0.675233 c 45 52 860 1038 bf 45 52 905 1038 bf 0 0.348488 0.720814 c 46 52 950 1038 bf 0 0.310814 0.698023 c 45 52 996 1038 bf 0 0.508605 0.817674 c 45 52 1041 1038 bf 0 0.254302
 0.663837 c 46 52 1086 1038 bf 0 0.0753488 0.555581 c 45 52 1132 1038 bf 0 0.235465 0.652442 c 45 52 1177 1038 bf 0 0.150698 0.601163 c 46 52 1222 1038 bf 0 0.254302 0.663837 c 45 52 1268 1038 bf 0 0.094186 0.566977 c 45 52 1313 1038 bf 0 0.0753488
 0.555581 c 46 52 1358 1038 bf 0 0.216628 0.641047 c 45 52 1404 1038 bf 0 0.169535 0.612558 c 45 52 1449 1038 bf 0 0.310814 0.698023 c 46 52 1494 1038 bf 0 0.376744 0.737907 c 45 52 1540 1038 bf 0 0.113023 0.578372 c 45 52 1585 1038 bf 0 0.197791
 0.629651 c 46 52 1630 1038 bf 0 0.113023 0.578372 c 45 52 1676 1038 bf 0 0.0188372 0.521395 c 46 52 1766 1038 bf 0 0.668721 0.914535 c 45 51 361 1090 bf 0.743913 0.972464 0.247536 c 46 51 406 1090 bf 0.87661 0.959322 0.113898 c 45 51 452 1090 bf
 0.931695 0.620339 0.0630508 c 45 51 497 1090 bf 0.504348 0.920145 0.489855 c 46 51 542 1090 bf 0.214348 0.856812 0.783188 c 45 51 588 1090 bf 0.0756522 0.826522 0.923478 c 45 51 633 1090 bf 0 0.574535 0.857558 c 46 51 678 1090 bf 0.0756522 0.826522
 0.923478 c 45 51 724 1090 bf 0 0.395581 0.749302 c 45 51 769 1090 bf 0 0.489767 0.806279 c 46 51 814 1090 bf 0 0.433256 0.772093 c 45 51 860 1090 bf 0 0.27314 0.675233 c 45 51 905 1090 bf 0 0.414419 0.760698 c 46 51 950 1090 bf 0 0.254302 0.663837 c
 45 51 996 1090 bf 0 0.508605 0.817674 c 45 51 1041 1090 bf 0 0.150698 0.601163 c 46 51 1086 1090 bf 0 0.113023 0.578372 c 45 51 1132 1090 bf 0 0.197791 0.629651 c 45 51 1177 1090 bf 0 0.0753488 0.555581 c 46 51 1222 1090 bf 0 0.113023 0.578372 c 45
 51 1268 1090 bf 0 0.13186 0.589767 c 45 51 1313 1090 bf 0 0.113023 0.578372 c 46 51 1358 1090 bf 0 0.254302 0.663837 c 45 51 1404 1090 bf 45 51 1449 1090 bf 0 0.197791 0.629651 c 46 51 1494 1090 bf 0 0.235465 0.652442 c 45 51 1540 1090 bf 0 0.376744
 0.737907 c 45 51 1585 1090 bf 0 0.235465 0.652442 c 46 51 1630 1090 bf 0 0.291977 0.686628 c 45 51 1676 1090 bf 0 0.0376744 0.532791 c 45 51 1721 1090 bf 0 0.13186 0.589767 c 46 51 1766 1090 bf 0 0.555698 0.846163 c 45 52 361 1141 bf 0.504348
 0.920145 0.489855 c 46 52 406 1141 bf 0.889831 0.877966 0.101695 c 45 52 452 1141 bf 0.737073 0.0926829 0 c 45 52 497 1141 bf 0.936102 0.59322 0.0589831 c 46 52 542 1141 bf 0.214348 0.856812 0.783188 c 45 52 588 1141 bf 45 52 633 1141 bf 0.239565
 0.862319 0.757681 c 46 52 678 1141 bf 0 0.753488 0.965814 c 45 52 724 1141 bf 0 0.81 1 c 45 52 769 1141 bf 46 52 814 1141 bf 0 0.47093 0.794884 c 45 52 860 1141 bf 0 0.489767 0.806279 c 45 52 905 1141 bf 0 0.574535 0.857558 c 46 52 950 1141 bf 0
 0.310814 0.698023 c 45 52 996 1141 bf 45 52 1041 1141 bf 0 0.197791 0.629651 c 46 52 1086 1141 bf 0 0.489767 0.806279 c 45 52 1132 1141 bf 0 0.433256 0.772093 c 45 52 1177 1141 bf 0 0.169535 0.612558 c 46 52 1222 1141 bf 0 0.27314 0.675233 c 45 52
 1268 1141 bf 0 0.216628 0.641047 c 45 52 1313 1141 bf 0 0.094186 0.566977 c 46 52 1358 1141 bf 0 0.291977 0.686628 c 45 52 1404 1141 bf 0 0.395581 0.749302 c 45 52 1449 1141 bf 0 0.414419 0.760698 c 46 52 1494 1141 bf 0 0.291977 0.686628 c 45 52
 1540 1141 bf 0 0.376744 0.737907 c 45 52 1585 1141 bf 0 0.329651 0.709419 c 46 52 1630 1141 bf 0 0.113023 0.578372 c 45 52 1676 1141 bf 0 0.254302 0.663837 c 45 52 1721 1141 bf 0 0.0188372 0.521395 c 46 52 1766 1141 bf 0 0.593372 0.868953 c 45 52
 361 1193 bf 0 0.668721 0.914535 c 46 52 406 1193 bf 0.10087 0.832029 0.897971 c 45 52 452 1193 bf 45 52 497 1193 bf 0 0.706395 0.937326 c 46 52 542 1193 bf 0 0.395581 0.749302 c 45 52 588 1193 bf 0.0252174 0.815507 0.974493 c 45 52 633 1193 bf 0
 0.706395 0.937326 c 46 52 678 1193 bf 0 0.395581 0.749302 c 45 52 724 1193 bf 0 0.555698 0.846163 c 45 52 769 1193 bf 0 0.414419 0.760698 c 46 52 814 1193 bf 0 0.395581 0.749302 c 45 52 860 1193 bf 0 0.216628 0.641047 c 45 52 905 1193 bf 0 0.310814
 0.698023 c 46 52 950 1193 bf 0 0.329651 0.709419 c 45 52 996 1193 bf 0 0.291977 0.686628 c 45 52 1041 1193 bf 0 0.216628 0.641047 c 46 52 1086 1193 bf 0 0.254302 0.663837 c 45 52 1132 1193 bf 0 0.150698 0.601163 c 45 52 1177 1193 bf 0 0.197791
 0.629651 c 46 52 1222 1193 bf 0 0.150698 0.601163 c 45 52 1268 1193 bf 0 0.235465 0.652442 c 45 52 1313 1193 bf 0 0.13186 0.589767 c 46 52 1358 1193 bf 0 0.0565116 0.544186 c 45 52 1404 1193 bf 0 0.197791 0.629651 c 45 52 1449 1193 bf 0 0.216628
 0.641047 c 46 52 1494 1193 bf 0 0.489767 0.806279 c 45 52 1540 1193 bf 0 0.13186 0.589767 c 45 52 1585 1193 bf 0 0.169535 0.612558 c 46 52 1630 1193 bf 0 0.348488 0.720814 c 45 52 1676 1193 bf 0 0.113023 0.578372 c 45 52 1721 1193 bf 46 52 1766 1193
 bf 0 0.0753488 0.555581 c 45 52 1812 1193 bf 0 0.0188372 0.521395 c 45 52 1857 1193 bf 0.668261 0.955942 0.324058 c 45 52 361 1245 bf 0 0.668721 0.914535 c 46 52 406 1245 bf 0.163913 0.845797 0.834203 c 45 52 452 1245 bf 0 0.612209 0.880349 c 45 52
 497 1245 bf 0 0.395581 0.749302 c 46 52 542 1245 bf 0 0.791163 0.988605 c 45 52 588 1245 bf 0 0.649884 0.90314 c 45 52 633 1245 bf 0.29 0.873333 0.706667 c 46 52 678 1245 bf 0 0.649884 0.90314 c 45 52 724 1245 bf 0 0.47093 0.794884 c 45 52 769 1245
 bf 0 0.395581 0.749302 c 46 52 814 1245 bf 0 0.235465 0.652442 c 45 52 860 1245 bf 45 52 905 1245 bf 0 0.329651 0.709419 c 46 52 950 1245 bf 0 0.452093 0.783488 c 45 52 996 1245 bf 0 0.414419 0.760698 c 45 52 1041 1245 bf 0 0.150698 0.601163 c 46 52
 1086 1245 bf 0 0.452093 0.783488 c 45 52 1132 1245 bf 0 0.113023 0.578372 c 45 52 1177 1245 bf 0 0.235465 0.652442 c 46 52 1222 1245 bf 45 52 1268 1245 bf 0 0.254302 0.663837 c 45 52 1313 1245 bf 0 0.13186 0.589767 c 46 52 1358 1245 bf 0 0.489767
 0.806279 c 45 52 1404 1245 bf 0 0.348488 0.720814 c 45 52 1449 1245 bf 0 0.254302 0.663837 c 46 52 1494 1245 bf 0 0.376744 0.737907 c 45 52 1540 1245 bf 0 0.216628 0.641047 c 45 52 1585 1245 bf 0 0.150698 0.601163 c 46 52 1630 1245 bf 45 52 1676
 1245 bf 0 0.348488 0.720814 c 45 52 1721 1245 bf 0 0.216628 0.641047 c 46 52 1766 1245 bf 0 0.0188372 0.521395 c 45 52 1812 1245 bf 45 52 1857 1245 bf 0.29 0.873333 0.706667 c 45 52 361 1297 bf 0.521951 0.00487805 0 c 46 52 406 1297 bf 0.428696
 0.903623 0.566377 c 45 52 452 1297 bf 0.844783 0.994493 0.145507 c 45 52 497 1297 bf 0.264783 0.867826 0.732174 c 46 52 542 1297 bf 0.0252174 0.815507 0.974493 c 45 52 588 1297 bf 0 0.668721 0.914535 c 45 52 633 1297 bf 0.18913 0.851304 0.808696 c
 46 52 678 1297 bf 0.0252174 0.815507 0.974493 c 45 52 724 1297 bf 0 0.593372 0.868953 c 45 52 769 1297 bf 0 0.414419 0.760698 c 46 52 814 1297 bf 0 0.555698 0.846163 c 45 52 860 1297 bf 0 0.310814 0.698023 c 45 52 905 1297 bf 0 0.631047 0.891744 c
 46 52 950 1297 bf 0 0.414419 0.760698 c 45 52 996 1297 bf 0 0.47093 0.794884 c 45 52 1041 1297 bf 0 0.235465 0.652442 c 46 52 1086 1297 bf 0 0.395581 0.749302 c 45 52 1132 1297 bf 0 0.216628 0.641047 c 45 52 1177 1297 bf 0 0.310814 0.698023 c 46 52
 1222 1297 bf 0 0.169535 0.612558 c 45 52 1268 1297 bf 0 0.150698 0.601163 c 45 52 1313 1297 bf 0 0.0565116 0.544186 c 46 52 1358 1297 bf 0 0.094186 0.566977 c 45 52 1404 1297 bf 0 0.329651 0.709419 c 45 52 1449 1297 bf 0 0.348488 0.720814 c 46 52
 1494 1297 bf 0 0.13186 0.589767 c 45 52 1540 1297 bf 0 0.235465 0.652442 c 45 52 1585 1297 bf 0 0.197791 0.629651 c 46 52 1630 1297 bf 0 0.0188372 0.521395 c 45 52 1676 1297 bf 0 0.113023 0.578372 c 45 52 1721 1297 bf 0 0.216628 0.641047 c 46 52
 1766 1297 bf 0 0.0753488 0.555581 c 45 52 1812 1297 bf 0 0.791163 0.988605 c 45 51 361 1349 bf 0.820732 0.126829 0 c 46 51 406 1349 bf 0.960339 0.444068 0.0366102 c 45 51 452 1349 bf 0.964746 0.416949 0.0325424 c 45 51 497 1349 bf 0.936102 0.59322
 0.0589831 c 46 51 542 1349 bf 0.949322 0.511864 0.0467797 c 45 51 588 1349 bf 0.881017 0.932203 0.109831 c 45 51 633 1349 bf 0.940508 0.566102 0.0549153 c 46 51 678 1349 bf 0.605217 0.942174 0.387826 c 45 51 724 1349 bf 0.911864 0.742373 0.0813559 c
 45 51 769 1349 bf 0.163913 0.845797 0.834203 c 46 51 814 1349 bf 0 0.706395 0.937326 c 45 51 860 1349 bf 0 0.725233 0.948721 c 45 51 905 1349 bf 46 51 950 1349 bf 0.0252174 0.815507 0.974493 c 45 51 996 1349 bf 0 0.527442 0.82907 c 45 51 1041 1349
 bf 0 0.508605 0.817674 c 46 51 1086 1349 bf 0 0.612209 0.880349 c 45 51 1132 1349 bf 0 0.593372 0.868953 c 45 51 1177 1349 bf 0 0.706395 0.937326 c 46 51 1222 1349 bf 0 0.235465 0.652442 c 45 51 1268 1349 bf 0 0.150698 0.601163 c 45 51 1313 1349 bf
 0 0.254302 0.663837 c 46 51 1358 1349 bf 0 0.235465 0.652442 c 45 51 1404 1349 bf 0 0.13186 0.589767 c 45 51 1449 1349 bf 0 0.235465 0.652442 c 46 51 1494 1349 bf 0 0.395581 0.749302 c 45 51 1540 1349 bf 0 0.291977 0.686628 c 45 51 1585 1349 bf 0
 0.310814 0.698023 c 46 51 1630 1349 bf 0 0.235465 0.652442 c 45 51 1676 1349 bf 0 0.113023 0.578372 c 45 51 1721 1349 bf 0 0.13186 0.589767 c 46 51 1766 1349 bf 45 51 1812 1349 bf 0 0.0376744 0.532791 c 45 52 361 1400 bf 0.365652 0.889855 0.630145 c
 46 52 406 1400 bf 0.453913 0.90913 0.54087 c 45 52 452 1400 bf 0.214348 0.856812 0.783188 c 45 52 497 1400 bf 0.163913 0.845797 0.834203 c 46 52 542 1400 bf 0 0.772326 0.977209 c 45 52 588 1400 bf 0 0.706395 0.937326 c 45 52 633 1400 bf 0 0.612209
 0.880349 c 46 52 678 1400 bf 0 0.631047 0.891744 c 45 52 724 1400 bf 0 0.508605 0.817674 c 45 52 769 1400 bf 0 0.631047 0.891744 c 46 52 814 1400 bf 0 0.433256 0.772093 c 45 52 860 1400 bf 0 0.27314 0.675233 c 45 52 905 1400 bf 0 0.113023 0.578372 c
 46 52 950 1400 bf 0 0.414419 0.760698 c 45 52 996 1400 bf 0 0.291977 0.686628 c 45 52 1041 1400 bf 0 0.113023 0.578372 c 46 52 1086 1400 bf 0 0.0753488 0.555581 c 45 52 1132 1400 bf 0 0.310814 0.698023 c 45 52 1177 1400 bf 0 0.0565116 0.544186 c 46
 52 1222 1400 bf 0 0.113023 0.578372 c 45 52 1268 1400 bf 0 0.0565116 0.544186 c 45 52 1313 1400 bf 46 52 1358 1400 bf 0 0.113023 0.578372 c 45 52 1404 1400 bf 0 0.150698 0.601163 c 45 52 1449 1400 bf 0 0.169535 0.612558 c 46 52 1494 1400 bf 0
 0.310814 0.698023 c 45 52 1540 1400 bf 0 0.27314 0.675233 c 45 52 1585 1400 bf 0 0.291977 0.686628 c 46 52 1630 1400 bf 0 0.310814 0.698023 c 45 52 1676 1400 bf 0 0.433256 0.772093 c 45 52 1721 1400 bf 0 0.169535 0.612558 c 46 52 1766 1400 bf 0
 0.0753488 0.555581 c 45 52 1812 1400 bf 0 0.0565116 0.544186 c 45 52 1857 1400 bf 0 0.0376744 0.532791 c 45 52 361 1452 bf 0 0.668721 0.914535 c 46 52 406 1452 bf 0.47913 0.914638 0.515362 c 45 52 452 1452 bf 0.605217 0.942174 0.387826 c 45 52 497
 1452 bf 0 0.593372 0.868953 c 46 52 542 1452 bf 0 0.555698 0.846163 c 45 52 588 1452 bf 0.315217 0.878841 0.681159 c 45 52 633 1452 bf 0 0.574535 0.857558 c 46 52 678 1452 bf 0 0.668721 0.914535 c 45 52 724 1452 bf 0 0.433256 0.772093 c 45 52 769
 1452 bf 0 0.376744 0.737907 c 46 52 814 1452 bf 0 0.254302 0.663837 c 45 52 860 1452 bf 0 0.376744 0.737907 c 45 52 905 1452 bf 0 0.329651 0.709419 c 46 52 950 1452 bf 0 0.376744 0.737907 c 45 52 996 1452 bf 0 0.329651 0.709419 c 45 52 1041 1452 bf
 0 0.235465 0.652442 c 46 52 1086 1452 bf 0 0.0565116 0.544186 c 45 52 1132 1452 bf 0 0.169535 0.612558 c 45 52 1177 1452 bf 0 0.13186 0.589767 c 46 52 1222 1452 bf 0 0.169535 0.612558 c 45 52 1268 1452 bf 0 0.150698 0.601163 c 45 52 1313 1452 bf 46
 52 1358 1452 bf 0 0.13186 0.589767 c 45 52 1404 1452 bf 0 0.197791 0.629651 c 45 52 1449 1452 bf 0 0.489767 0.806279 c 46 52 1494 1452 bf 0 0.13186 0.589767 c 45 52 1540 1452 bf 0 0.197791 0.629651 c 45 52 1585 1452 bf 0 0.216628 0.641047 c 46 52
 1630 1452 bf 0 0.169535 0.612558 c 45 52 1676 1452 bf 0 0.0188372 0.521395 c 45 52 1721 1452 bf 0 0.254302 0.663837 c 46 52 1766 1452 bf 0 0.13186 0.589767 c 45 52 1812 1452 bf 0 0.094186 0.566977 c 45 52 1857 1452 bf 45 52 361 1504 bf 0 0.574535
 0.857558 c 46 52 406 1504 bf 0 0.81 1 c 45 52 452 1504 bf 0 0.772326 0.977209 c 45 52 497 1504 bf 0 0.687558 0.92593 c 46 52 542 1504 bf 0 0.706395 0.937326 c 45 52 588 1504 bf 0 0.668721 0.914535 c 45 52 633 1504 bf 0 0.348488 0.720814 c 46 52 678
 1504 bf 0 0.508605 0.817674 c 45 52 724 1504 bf 0 0.376744 0.737907 c 45 52 769 1504 bf 0 0.452093 0.783488 c 46 52 814 1504 bf 0 0.329651 0.709419 c 45 52 860 1504 bf 0 0.27314 0.675233 c 45 52 905 1504 bf 0 0.254302 0.663837 c 46 52 950 1504 bf 0
 0.376744 0.737907 c 45 52 996 1504 bf 0 0.291977 0.686628 c 45 52 1041 1504 bf 0 0.150698 0.601163 c 46 52 1086 1504 bf 0 0.13186 0.589767 c 45 52 1132 1504 bf 0 0.0753488 0.555581 c 45 52 1177 1504 bf 0 0.094186 0.566977 c 46 52 1222 1504 bf 0
 0.0565116 0.544186 c 45 52 1268 1504 bf 0 0.0376744 0.532791 c 45 52 1313 1504 bf 0 0.169535 0.612558 c 46 52 1358 1504 bf 0 0.13186 0.589767 c 45 52 1404 1504 bf 45 52 1449 1504 bf 0 0.169535 0.612558 c 46 52 1494 1504 bf 0 0.197791 0.629651 c 45
 52 1540 1504 bf 0 0.094186 0.566977 c 45 52 1585 1504 bf 46 52 1630 1504 bf 0 0.13186 0.589767 c 45 52 1676 1504 bf 0 0.235465 0.652442 c 45 52 1721 1504 bf 0 0.094186 0.566977 c 46 52 1766 1504 bf 0 0.0376744 0.532791 c 45 52 1812 1504 bf 0 0.13186
 0.589767 c 45 52 1857 1504 bf 0 0.0565116 0.544186 c 45 51 361 1556 bf 0.264783 0.867826 0.732174 c 46 51 406 1556 bf 0.630435 0.947681 0.362319 c 45 51 452 1556 bf 0.239565 0.862319 0.757681 c 45 51 497 1556 bf 0 0.414419 0.760698 c 46 51 542 1556
 bf 0 0.791163 0.988605 c 45 51 588 1556 bf 0 0.81 1 c 45 51 633 1556 bf 0 0.772326 0.977209 c 46 51 678 1556 bf 0 0.414419 0.760698 c 45 51 724 1556 bf 0 0.47093 0.794884 c 45 51 769 1556 bf 0 0.452093 0.783488 c 46 51 814 1556 bf 0 0.310814
 0.698023 c 45 51 860 1556 bf 0 0.348488 0.720814 c 45 51 905 1556 bf 0 0.254302 0.663837 c 46 51 950 1556 bf 0 0.329651 0.709419 c 45 51 996 1556 bf 0 0.235465 0.652442 c 45 51 1041 1556 bf 0 0.291977 0.686628 c 46 51 1086 1556 bf 0 0.433256
 0.772093 c 45 51 1132 1556 bf 0 0.235465 0.652442 c 45 51 1177 1556 bf 0 0.150698 0.601163 c 46 51 1222 1556 bf 0 0.197791 0.629651 c 45 51 1268 1556 bf 0 0.094186 0.566977 c 45 51 1313 1556 bf 0 0.27314 0.675233 c 46 51 1358 1556 bf 0 0.216628
 0.641047 c 45 51 1404 1556 bf 0 0.150698 0.601163 c 45 51 1449 1556 bf 0 0.254302 0.663837 c 46 51 1494 1556 bf 0 0.113023 0.578372 c 45 51 1540 1556 bf 0 0.0753488 0.555581 c 45 51 1585 1556 bf 0 0.291977 0.686628 c 46 51 1630 1556 bf 0 0.216628
 0.641047 c 45 51 1676 1556 bf 0 0.094186 0.566977 c 45 51 1721 1556 bf 0 0.169535 0.612558 c 46 51 1766 1556 bf 0 0.216628 0.641047 c 45 51 1812 1556 bf 0.0504348 0.821014 0.948986 c 46 52 406 1607 bf 0.693478 0.961449 0.298551 c 45 52 452 1607 bf
 0.10087 0.832029 0.897971 c 45 52 497 1607 bf 0 0.631047 0.891744 c 46 52 542 1607 bf 0.126087 0.837536 0.872464 c 45 52 588 1607 bf 0 0.668721 0.914535 c 45 52 633 1607 bf 0 0.291977 0.686628 c 46 52 678 1607 bf 0 0.433256 0.772093 c 45 52 724 1607
 bf 0 0.414419 0.760698 c 45 52 769 1607 bf 0 0.348488 0.720814 c 46 52 814 1607 bf 0 0.414419 0.760698 c 45 52 860 1607 bf 0 0.197791 0.629651 c 45 52 905 1607 bf 0 0.13186 0.589767 c 46 52 950 1607 bf 0 0.150698 0.601163 c 45 52 996 1607 bf 0
 0.329651 0.709419 c 45 52 1041 1607 bf 0 0.235465 0.652442 c 46 52 1086 1607 bf 0 0.13186 0.589767 c 45 52 1132 1607 bf 0 0.216628 0.641047 c 45 52 1177 1607 bf 46 52 1222 1607 bf 0 0.113023 0.578372 c 45 52 1268 1607 bf 0 0.150698 0.601163 c 45 52
 1313 1607 bf 46 52 1358 1607 bf 0 0.197791 0.629651 c 45 52 1404 1607 bf 0 0.235465 0.652442 c 45 52 1449 1607 bf 0 0.094186 0.566977 c 46 52 1494 1607 bf 0 0.13186 0.589767 c 45 52 1540 1607 bf 0 0.150698 0.601163 c 45 52 1585 1607 bf 0 0.376744
 0.737907 c 46 52 1630 1607 bf 0 0.150698 0.601163 c 45 52 1676 1607 bf 0 0.13186 0.589767 c 45 52 1721 1607 bf 0 0.235465 0.652442 c 46 52 1766 1607 bf 0 0.094186 0.566977 c 45 52 1812 1607 bf 0 0.0188372 0.521395 c 45 52 1857 1607 bf 0.0252174
 0.815507 0.974493 c 46 52 406 1659 bf 0.87661 0.959322 0.113898 c 45 52 452 1659 bf 0.504348 0.920145 0.489855 c 45 52 497 1659 bf 0.0504348 0.821014 0.948986 c 46 52 542 1659 bf 0 0.508605 0.817674 c 45 52 588 1659 bf 0 0.47093 0.794884 c 45 52 633
 1659 bf 0 0.508605 0.817674 c 46 52 678 1659 bf 0 0.706395 0.937326 c 45 52 724 1659 bf 0 0.47093 0.794884 c 45 52 769 1659 bf 0 0.433256 0.772093 c 46 52 814 1659 bf 0 0.27314 0.675233 c 45 52 860 1659 bf 0 0.291977 0.686628 c 45 52 905 1659 bf 0
 0.27314 0.675233 c 46 52 950 1659 bf 0 0.216628 0.641047 c 45 52 996 1659 bf 0 0.150698 0.601163 c 45 52 1041 1659 bf 0 0.329651 0.709419 c 46 52 1086 1659 bf 0 0.27314 0.675233 c 45 52 1132 1659 bf 0 0.254302 0.663837 c 45 52 1177 1659 bf 0
 0.216628 0.641047 c 46 52 1222 1659 bf 0 0.254302 0.663837 c 45 52 1268 1659 bf 0 0.216628 0.641047 c 45 52 1313 1659 bf 0 0.197791 0.629651 c 46 52 1358 1659 bf 0 0.169535 0.612558 c 45 52 1404 1659 bf 0 0.094186 0.566977 c 45 52 1449 1659 bf 0
 0.0753488 0.555581 c 46 52 1494 1659 bf 0 0.197791 0.629651 c 45 52 1540 1659 bf 0 0.113023 0.578372 c 45 52 1585 1659 bf 0 0.094186 0.566977 c 46 52 1630 1659 bf 45 52 1676 1659 bf 0 0.555698 0.846163 c 45 52 1721 1659 bf 0 0.433256 0.772093 c 46
 52 1766 1659 bf 0 0.376744 0.737907 c 45 52 1812 1659 bf 0 0.254302 0.663837 c 45 52 1857 1659 bf 0 0.0565116 0.544186 c 45 52 361 1711 bf 0 0.376744 0.737907 c 46 52 406 1711 bf 0 0.81 1 c 45 52 452 1711 bf 0 0.687558 0.92593 c 45 52 497 1711 bf 0
 0.452093 0.783488 c 46 52 542 1711 bf 0 0.47093 0.794884 c 45 52 588 1711 bf 0 0.508605 0.817674 c 45 52 633 1711 bf 46 52 678 1711 bf 45 52 724 1711 bf 0 0.348488 0.720814 c 45 52 769 1711 bf 0 0.27314 0.675233 c 46 52 814 1711 bf 45 52 860 1711 bf
 0 0.310814 0.698023 c 45 52 905 1711 bf 0 0.235465 0.652442 c 46 52 950 1711 bf 0 0.169535 0.612558 c 45 52 996 1711 bf 0 0.348488 0.720814 c 45 52 1041 1711 bf 0 0.113023 0.578372 c 46 52 1086 1711 bf 0 0.169535 0.612558 c 45 52 1132 1711 bf 0
 0.216628 0.641047 c 45 52 1177 1711 bf 46 52 1222 1711 bf 0 0.169535 0.612558 c 45 52 1268 1711 bf 0 0.235465 0.652442 c 45 52 1313 1711 bf 0 0.13186 0.589767 c 46 52 1358 1711 bf 0 0.0565116 0.544186 c 45 52 1404 1711 bf 45 52 1449 1711 bf 46 52
 1494 1711 bf 0 0.094186 0.566977 c 45 52 1540 1711 bf 0 0.13186 0.589767 c 45 52 1585 1711 bf 0 0.169535 0.612558 c 46 52 1630 1711 bf 0 0.150698 0.601163 c 45 52 1676 1711 bf 0 0.094186 0.566977 c 45 52 1721 1711 bf 46 52 1766 1711 bf 0 0.150698
 0.601163 c 45 52 1812 1711 bf 0 0.169535 0.612558 c 45 52 1857 1711 bf 0.0756522 0.826522 0.923478 c 46 52 406 1763 bf 0.214348 0.856812 0.783188 c 45 52 452 1763 bf 0.47913 0.914638 0.515362 c 45 52 497 1763 bf 0.126087 0.837536 0.872464 c 46 52
 542 1763 bf 0 0.527442 0.82907 c 45 52 588 1763 bf 0 0.414419 0.760698 c 45 52 633 1763 bf 0 0.791163 0.988605 c 46 52 678 1763 bf 0 0.329651 0.709419 c 45 52 724 1763 bf 0 0.489767 0.806279 c 45 52 769 1763 bf 0 0.414419 0.760698 c 46 52 814 1763
 bf 0 0.235465 0.652442 c 45 52 860 1763 bf 45 52 905 1763 bf 0 0.291977 0.686628 c 46 52 950 1763 bf 45 52 996 1763 bf 45 52 1041 1763 bf 0 0.197791 0.629651 c 46 52 1086 1763 bf 0 0.13186 0.589767 c 45 52 1132 1763 bf 0 0.27314 0.675233 c 45 52
 1177 1763 bf 0 0.235465 0.652442 c 46 52 1222 1763 bf 0 0.113023 0.578372 c 45 52 1268 1763 bf 0 0.27314 0.675233 c 45 52 1313 1763 bf 0 0.348488 0.720814 c 46 52 1358 1763 bf 0 0.150698 0.601163 c 45 52 1404 1763 bf 0 0.254302 0.663837 c 45 52 1449
 1763 bf 0 0.150698 0.601163 c 46 52 1494 1763 bf 45 52 1540 1763 bf 0 0.0565116 0.544186 c 45 52 1585 1763 bf 0 0.216628 0.641047 c 46 52 1630 1763 bf 0 0.0565116 0.544186 c 45 52 1676 1763 bf 0 0.094186 0.566977 c 45 52 1721 1763 bf 0 0.150698
 0.601163 c 46 52 1766 1763 bf 0 0.094186 0.566977 c 45 52 1812 1763 bf 45 51 361 1815 bf 0 0.791163 0.988605 c 46 51 406 1815 bf 0 0.668721 0.914535 c 45 51 452 1815 bf 0.365652 0.889855 0.630145 c 45 51 497 1815 bf 0 0.81 1 c 46 51 542 1815 bf 0
 0.593372 0.868953 c 45 51 588 1815 bf 0 0.527442 0.82907 c 45 51 633 1815 bf 0.10087 0.832029 0.897971 c 46 51 678 1815 bf 0 0.593372 0.868953 c 45 51 724 1815 bf 0 0.395581 0.749302 c 45 51 769 1815 bf 0 0.47093 0.794884 c 46 51 814 1815 bf 0
 0.254302 0.663837 c 45 51 860 1815 bf 0 0.197791 0.629651 c 45 51 905 1815 bf 0 0.310814 0.698023 c 46 51 950 1815 bf 0 0.47093 0.794884 c 45 51 996 1815 bf 0 0.395581 0.749302 c 45 51 1041 1815 bf 0 0.310814 0.698023 c 46 51 1086 1815 bf 0 0.13186
 0.589767 c 45 51 1132 1815 bf 0 0.235465 0.652442 c 45 51 1177 1815 bf 0 0.150698 0.601163 c 46 51 1222 1815 bf 0 0.216628 0.641047 c 45 51 1268 1815 bf 0 0.169535 0.612558 c 45 51 1313 1815 bf 0 0.197791 0.629651 c 46 51 1358 1815 bf 0 0.216628
 0.641047 c 45 51 1404 1815 bf 45 51 1449 1815 bf 0 0.395581 0.749302 c 46 51 1494 1815 bf 0 0.329651 0.709419 c 45 51 1540 1815 bf 0 0.169535 0.612558 c 45 51 1585 1815 bf 0 0.13186 0.589767 c 46 51 1630 1815 bf 0 0.094186 0.566977 c 45 51 1676 1815
 bf 0 0.0376744 0.532791 c 45 51 1721 1815 bf 0 0.150698 0.601163 c 46 51 1766 1815 bf 0 0.0376744 0.532791 c 45 51 1812 1815 bf 0 0.0565116 0.544186 c 45 52 361 1866 bf 0.889831 0.877966 0.101695 c 46 52 406 1866 bf 0.504348 0.920145 0.489855 c 45
 52 452 1866 bf 0.58 0.936667 0.413333 c 45 52 497 1866 bf 0.365652 0.889855 0.630145 c 46 52 542 1866 bf 0 0.725233 0.948721 c 45 52 588 1866 bf 0 0.706395 0.937326 c 45 52 633 1866 bf 0.163913 0.845797 0.834203 c 46 52 678 1866 bf 0 0.414419
 0.760698 c 45 52 724 1866 bf 0 0.452093 0.783488 c 45 52 769 1866 bf 0 0.291977 0.686628 c 46 52 814 1866 bf 0 0.593372 0.868953 c 45 52 860 1866 bf 0 0.489767 0.806279 c 45 52 905 1866 bf 0 0.329651 0.709419 c 46 52 950 1866 bf 0 0.414419 0.760698
 c 45 52 996 1866 bf 0 0.593372 0.868953 c 45 52 1041 1866 bf 0 0.254302 0.663837 c 46 52 1086 1866 bf 0 0.489767 0.806279 c 45 52 1132 1866 bf 0 0.169535 0.612558 c 45 52 1177 1866 bf 0 0.13186 0.589767 c 46 52 1222 1866 bf 0 0.216628 0.641047 c 45
 52 1268 1866 bf 0 0.094186 0.566977 c 45 52 1313 1866 bf 0 0.13186 0.589767 c 46 52 1358 1866 bf 0 0.235465 0.652442 c 45 52 1404 1866 bf 0 0.348488 0.720814 c 45 52 1449 1866 bf 0 0.216628 0.641047 c 46 52 1494 1866 bf 0 0.27314 0.675233 c 45 52
 1540 1866 bf 0 0.216628 0.641047 c 45 52 1585 1866 bf 0 0.169535 0.612558 c 46 52 1630 1866 bf 0 0.0376744 0.532791 c 45 52 1676 1866 bf 0 0.0565116 0.544186 c 45 52 1721 1866 bf 0 0.094186 0.566977 c 46 52 1766 1866 bf 0 0.0376744 0.532791 c 45 52
 1812 1866 bf 0 0.0565116 0.544186 c 45 52 361 1918 bf 0.982373 0.308475 0.0162712 c 46 52 406 1918 bf 0.98678 0.281356 0.0122034 c 45 52 452 1918 bf 0.881017 0.932203 0.109831 c 45 52 497 1918 bf 0.29 0.873333 0.706667 c 46 52 542 1918 bf 0.47913
 0.914638 0.515362 c 45 52 588 1918 bf 0.214348 0.856812 0.783188 c 45 52 633 1918 bf 0.163913 0.845797 0.834203 c 46 52 678 1918 bf 0 0.527442 0.82907 c 45 52 724 1918 bf 0 0.452093 0.783488 c 45 52 769 1918 bf 0 0.725233 0.948721 c 46 52 814 1918
 bf 0 0.433256 0.772093 c 45 52 860 1918 bf 0 0.527442 0.82907 c 45 52 905 1918 bf 0 0.687558 0.92593 c 46 52 950 1918 bf 0 0.395581 0.749302 c 45 52 996 1918 bf 0 0.254302 0.663837 c 45 52 1041 1918 bf 0 0.291977 0.686628 c 46 52 1086 1918 bf 0
 0.254302 0.663837 c 45 52 1132 1918 bf 0 0.113023 0.578372 c 45 52 1177 1918 bf 0 0.216628 0.641047 c 46 52 1222 1918 bf 0 0.348488 0.720814 c 45 52 1268 1918 bf 0 0.169535 0.612558 c 45 52 1313 1918 bf 46 52 1358 1918 bf 0 0.197791 0.629651 c 45 52
 1404 1918 bf 0 0.27314 0.675233 c 45 52 1449 1918 bf 0 0.47093 0.794884 c 46 52 1494 1918 bf 0 0.150698 0.601163 c 45 52 1540 1918 bf 0 0.113023 0.578372 c 45 52 1585 1918 bf 0 0.094186 0.566977 c 46 52 1630 1918 bf 0 0.0753488 0.555581 c 45 52 1676
 1918 bf 0 0.169535 0.612558 c 45 52 1721 1918 bf 0 0.0376744 0.532791 c 46 52 1766 1918 bf 0 0.0188372 0.521395 c 45 52 1812 1918 bf 0 0.094186 0.566977 c 45 52 361 1970 bf 0.964146 0.185366 0 c 46 52 406 1970 bf 0.977966 0.335593 0.020339 c 45 52
 452 1970 bf 0.163913 0.845797 0.834203 c 45 52 497 1970 bf 0.898644 0.823729 0.0935593 c 46 52 542 1970 bf 0.907458 0.769492 0.0854237 c 45 52 588 1970 bf 0.911864 0.742373 0.0813559 c 45 52 633 1970 bf 0.126087 0.837536 0.872464 c 46 52 678 1970 bf
 0 0.489767 0.806279 c 45 52 724 1970 bf 0 0.574535 0.857558 c 45 52 769 1970 bf 0 0.47093 0.794884 c 46 52 814 1970 bf 0 0.527442 0.82907 c 45 52 860 1970 bf 0 0.47093 0.794884 c 45 52 905 1970 bf 0 0.291977 0.686628 c 46 52 950 1970 bf 0 0.197791
 0.629651 c 45 52 996 1970 bf 0 0.348488 0.720814 c 45 52 1041 1970 bf 0 0.310814 0.698023 c 46 52 1086 1970 bf 0 0.291977 0.686628 c 45 52 1132 1970 bf 0 0.235465 0.652442 c 45 52 1177 1970 bf 0 0.197791 0.629651 c 46 52 1222 1970 bf 0 0.0753488
 0.555581 c 45 52 1268 1970 bf 0 0.254302 0.663837 c 45 52 1313 1970 bf 0 0.197791 0.629651 c 46 52 1358 1970 bf 45 52 1404 1970 bf 0 0.310814 0.698023 c 45 52 1449 1970 bf 0 0.0565116 0.544186 c 46 52 1494 1970 bf 0 0.0753488 0.555581 c 45 52 1540
 1970 bf 0 0.113023 0.578372 c 45 52 1585 1970 bf 0 0.0188372 0.521395 c 46 52 1630 1970 bf 45 52 1676 1970 bf 0 0.0753488 0.555581 c 45 52 1721 1970 bf 0 0.094186 0.566977 c 46 52 1766 1970 bf 45 52 1812 1970 bf 0 0.0188372 0.521395 c 45 52 1857
 1970 bf 0 0.489767 0.806279 c 45 52 361 2022 bf 0.844783 0.994493 0.145507 c 46 52 406 2022 bf 0.76913 0.977971 0.222029 c 45 52 452 2022 bf 0.949322 0.511864 0.0467797 c 45 52 497 2022 bf 0.881017 0.932203 0.109831 c 46 52 542 2022 bf 0.668261
 0.955942 0.324058 c 45 52 588 2022 bf 0 0.81 1 c 45 52 633 2022 bf 0.10087 0.832029 0.897971 c 46 52 678 2022 bf 0.0756522 0.826522 0.923478 c 45 52 724 2022 bf 0 0.668721 0.914535 c 45 52 769 2022 bf 0 0.433256 0.772093 c 46 52 814 2022 bf 0
 0.753488 0.965814 c 45 52 860 2022 bf 0 0.452093 0.783488 c 45 52 905 2022 bf 0 0.489767 0.806279 c 46 52 950 2022 bf 0 0.433256 0.772093 c 45 52 996 2022 bf 0 0.414419 0.760698 c 45 52 1041 2022 bf 0 0.310814 0.698023 c 46 52 1086 2022 bf 0
 0.527442 0.82907 c 45 52 1132 2022 bf 0 0.13186 0.589767 c 45 52 1177 2022 bf 0 0.150698 0.601163 c 46 52 1222 2022 bf 0 0.13186 0.589767 c 45 52 1268 2022 bf 0 0.150698 0.601163 c 45 52 1313 2022 bf 0 0.094186 0.566977 c 46 52 1358 2022 bf 0
 0.13186 0.589767 c 45 52 1404 2022 bf 0 0.197791 0.629651 c 45 52 1449 2022 bf 0 0.113023 0.578372 c 46 52 1494 2022 bf 45 52 1540 2022 bf 45 52 1585 2022 bf 0 0.0753488 0.555581 c 46 52 1630 2022 bf 0 0.0565116 0.544186 c 45 52 1676 2022 bf 0
 0.0753488 0.555581 c 45 52 1721 2022 bf 0 0.291977 0.686628 c 46 52 1766 2022 bf 0 0.113023 0.578372 c 45 52 1812 2022 bf 0 0.0376744 0.532791 c 45 52 1857 2022 bf 0 0.593372 0.868953 c 45 51 361 2074 bf 0.885424 0.905085 0.105763 c 46 51 406 2074
 bf 0.960339 0.444068 0.0366102 c 45 51 452 2074 bf 0.772927 0.107317 0 c 45 51 497 2074 bf 0.743913 0.972464 0.247536 c 46 51 542 2074 bf 0 0.348488 0.720814 c 45 51 588 2074 bf 0 0.631047 0.891744 c 45 51 633 2074 bf 0 0.555698 0.846163 c 46 51 678
 2074 bf 0 0.772326 0.977209 c 45 51 724 2074 bf 0.163913 0.845797 0.834203 c 45 51 769 2074 bf 0 0.725233 0.948721 c 46 51 814 2074 bf 0 0.612209 0.880349 c 45 51 860 2074 bf 0 0.47093 0.794884 c 45 51 905 2074 bf 0 0.27314 0.675233 c 46 51 950 2074
 bf 0 0.508605 0.817674 c 45 51 996 2074 bf 0 0.216628 0.641047 c 45 51 1041 2074 bf 0 0.668721 0.914535 c 46 51 1086 2074 bf 0 0.310814 0.698023 c 45 51 1132 2074 bf 0 0.27314 0.675233 c 45 51 1177 2074 bf 0 0.348488 0.720814 c 46 51 1222 2074 bf 0
 0.254302 0.663837 c 45 51 1268 2074 bf 0 0.310814 0.698023 c 45 51 1313 2074 bf 0 0.235465 0.652442 c 46 51 1358 2074 bf 0 0.169535 0.612558 c 45 51 1404 2074 bf 0 0.197791 0.629651 c 45 51 1449 2074 bf 0 0.150698 0.601163 c 46 51 1494 2074 bf 0
 0.0565116 0.544186 c 45 51 1540 2074 bf 0 0.0376744 0.532791 c 45 51 1585 2074 bf 0 0.0565116 0.544186 c 46 51 1630 2074 bf 0 0.113023 0.578372 c 45 51 1676 2074 bf 0 0.0565116 0.544186 c 45 51 1721 2074 bf 0 0.216628 0.641047 c 46 51 1766 2074 bf 0
 0.094186 0.566977 c 45 51 1812 2074 bf 0 0.150698 0.601163 c 45 52 361 2125 bf 0.911864 0.742373 0.0813559 c 46 52 406 2125 bf 0.892439 0.156098 0 c 45 52 452 2125 bf 0.796829 0.117073 0 c 45 52 497 2125 bf 0 0.612209 0.880349 c 46 52 542 2125 bf 0
 0.574535 0.857558 c 45 52 588 2125 bf 0 0.687558 0.92593 c 45 52 633 2125 bf 0 0.631047 0.891744 c 46 52 678 2125 bf 0 0.649884 0.90314 c 45 52 724 2125 bf 0 0.508605 0.817674 c 45 52 769 2125 bf 0 0.555698 0.846163 c 46 52 814 2125 bf 0 0.631047
 0.891744 c 45 52 860 2125 bf 0 0.593372 0.868953 c 45 52 905 2125 bf 0 0.753488 0.965814 c 46 52 950 2125 bf 0 0.376744 0.737907 c 45 52 996 2125 bf 0 0.47093 0.794884 c 45 52 1041 2125 bf 0 0.150698 0.601163 c 46 52 1086 2125 bf 0.18913 0.851304
 0.808696 c 45 52 1132 2125 bf 0 0.574535 0.857558 c 45 52 1177 2125 bf 0 0.376744 0.737907 c 46 52 1222 2125 bf 0 0.197791 0.629651 c 45 52 1268 2125 bf 45 52 1313 2125 bf 0 0.706395 0.937326 c 46 52 1358 2125 bf 0 0.348488 0.720814 c 45 52 1404
 2125 bf 0 0.0565116 0.544186 c 45 52 1449 2125 bf 0 0.094186 0.566977 c 46 52 1494 2125 bf 0 0.0565116 0.544186 c 45 52 1540 2125 bf 0 0.0376744 0.532791 c 45 52 1585 2125 bf 0 0.0565116 0.544186 c 46 52 1630 2125 bf 0 0.197791 0.629651 c 45 52 1676
 2125 bf 0 0.291977 0.686628 c 45 52 1721 2125 bf 0 0.0565116 0.544186 c 46 52 1766 2125 bf 45 52 1812 2125 bf 0 0.0188372 0.521395 c 45 52 1857 2125 bf 45 52 361 2177 bf 0 0.113023 0.578372 c 46 52 406 2177 bf 0 0.235465 0.652442 c 45 52 452 2177 bf
 0 0.414419 0.760698 c 45 52 497 2177 bf 0 0.376744 0.737907 c 46 52 542 2177 bf 0 0.310814 0.698023 c 45 52 588 2177 bf 0 0.0753488 0.555581 c 45 52 633 2177 bf 0 0.13186 0.589767 c 46 52 678 2177 bf 0 0.27314 0.675233 c 45 52 724 2177 bf 0
 0.0753488 0.555581 c 45 52 769 2177 bf 0 0.094186 0.566977 c 46 52 814 2177 bf 0 0.197791 0.629651 c 45 52 860 2177 bf 0 0.169535 0.612558 c 45 52 905 2177 bf 0 0.47093 0.794884 c 46 52 950 2177 bf 0 0.27314 0.675233 c 45 52 996 2177 bf 0 0.254302
 0.663837 c 45 52 1041 2177 bf 0 0.329651 0.709419 c 46 52 1086 2177 bf 0.918475 0.701695 0.0752542 c 45 52 1132 2177 bf 0 0.329651 0.709419 c 45 52 1177 2177 bf 0.940244 0.17561 0 c 46 52 1222 2177 bf 45 52 1268 2177 bf 0 0.0753488 0.555581 c 45 52
 1313 2177 bf 0 0.169535 0.612558 c 46 52 1358 2177 bf 0 0.0188372 0.521395 c 45 52 1404 2177 bf 0 0.47093 0.794884 c 46 52 1494 2177 bf 0 0.0188372 0.521395 c 45 52 1540 2177 bf 0 0.113023 0.578372 c 46 52 1630 2177 bf 0 0.169535 0.612558 c 45 52
 1676 2177 bf 0.214348 0.856812 0.783188 c 45 52 1721 2177 bf 0 0.150698 0.601163 c 46 52 1766 2177 bf 0 0.0188372 0.521395 c 45 52 1812 2177 bf 0 0.0565116 0.544186 c 45 52 1857 2177 bf 1 1 1 c black 3 lw 225 261 m 1813 X s
 gsave  2268 2585 0 0 C 857.562 44.6875 t 0 r /Helvetica findfont 105.872 sf 0 0 m (bigcalClusters.fXMoment) show NC gr  355 302 m -41 Y s 419 282 m -21 Y s 484 282 m -21 Y s 549 282 m -21 Y s 614 302 m -41 Y s 678 282 m -21 Y s 743 282 m -21 Y s 808
 282 m -21 Y s 873 302 m -41 Y s 937 282 m -21 Y s 1002 282 m -21 Y s 1067 282 m -21 Y s 1132 302 m -41 Y s 1196 282 m -21 Y s 1261 282 m -21 Y s 1326 282 m -21 Y s 1391 302 m -41 Y s 1456 282 m -21 Y s 1520 282 m -21 Y s 1585 282 m -21 Y s 1650 302
 m -41 Y s 1715 282 m -21 Y s 1779 282 m -21 Y s 1844 282 m -21 Y s 1909 302 m -41 Y s 355 302 m -41 Y s 290 282 m -21 Y s 225 282 m -21 Y s 1909 302 m -41 Y s 1974 282 m -21 Y s
 gsave  2268 2585 0 0 C 283.75 130.062 t 0 r /Helvetica findfont 95.6266 sf 0 0 m (\25560) show NC gr 
 gsave  2268 2585 0 0 C 543.312 130.062 t 0 r /Helvetica findfont 95.6266 sf 0 0 m (\25540) show NC gr 
 gsave  2268 2585 0 0 C 802.875 130.062 t 0 r /Helvetica findfont 95.6266 sf 0 0 m (\25520) show NC gr 
 gsave  2268 2585 0 0 C 1103.38 130.062 t 0 r /Helvetica findfont 95.6266 sf 0 0 m (0) show NC gr 
 gsave  2268 2585 0 0 C 1339 130.062 t 0 r /Helvetica findfont 95.6266 sf 0 0 m (20) show NC gr 
 gsave  2268 2585 0 0 C 1598.56 130.062 t 0 r /Helvetica findfont 95.6266 sf 0 0 m (40) show NC gr 
 gsave  2268 2585 0 0 C 1854.75 130.062 t 0 r /Helvetica findfont 95.6266 sf 0 0 m (60) show NC gr  225 2333 m 1813 X s 355 2291 m 42 Y s 419 2312 m 21 Y s 484 2312 m 21 Y s 549 2312 m 21 Y s 614 2291 m 42 Y s 678 2312 m 21 Y s 743 2312 m 21 Y s 808
 2312 m 21 Y s 873 2291 m 42 Y s 937 2312 m 21 Y s 1002 2312 m 21 Y s 1067 2312 m 21 Y s 1132 2291 m 42 Y s 1196 2312 m 21 Y s 1261 2312 m 21 Y s 1326 2312 m 21 Y s 1391 2291 m 42 Y s 1456 2312 m 21 Y s 1520 2312 m 21 Y s 1585 2312 m 21 Y s 1650 2291
 m 42 Y s 1715 2312 m 21 Y s 1779 2312 m 21 Y s 1844 2312 m 21 Y s 1909 2291 m 42 Y s 355 2291 m 42 Y s 290 2312 m 21 Y s 225 2312 m 21 Y s 1909 2291 m 42 Y s 1974 2312 m 21 Y s 225 261 m 2072 Y s
 gsave  2268 2585 0 0 C 89.125 1154.62 t 90 r /Helvetica findfont 105.872 sf 0 0 m (bigcalClusters.fYMoment) show NC gr  261 434 m -36 X s 243 520 m -18 X s 243 606 m -18 X s 243 693 m -18 X s 243 779 m -18 X s 261 865 m -36 X s 243 951 m -18 X s 243
 1038 m -18 X s 243 1124 m -18 X s 243 1210 m -18 X s 261 1297 m -36 X s 243 1383 m -18 X s 243 1469 m -18 X s 243 1556 m -18 X s 243 1642 m -18 X s 261 1728 m -36 X s 243 1815 m -18 X s 243 1901 m -18 X s 243 1987 m -18 X s 243 2074 m -18 X s 261
 2160 m -36 X s 261 434 m -36 X s 243 347 m -18 X s 243 261 m -18 X s 261 2160 m -36 X s 243 2246 m -18 X s
 gsave  2268 2585 0 0 C 0.3125 396.5 t 0 r /Helvetica findfont 95.6266 sf 0 0 m (\255100) show NC gr 
 gsave  2268 2585 0 0 C 51.5625 830.188 t 0 r /Helvetica findfont 95.6266 sf 0 0 m (\25550) show NC gr 
 gsave  2268 2585 0 0 C 136.938 1260.44 t 0 r /Helvetica findfont 95.6266 sf 0 0 m (0) show NC gr 
 gsave  2268 2585 0 0 C 85.6875 1694.19 t 0 r /Helvetica findfont 95.6266 sf 0 0 m (50) show NC gr 
 gsave  2268 2585 0 0 C 31.0625 2124.5 t 0 r /Helvetica findfont 95.6266 sf 0 0 m (100) show NC gr  2038 261 m 2072 Y s 2002 434 m 36 X s 2020 520 m 18 X s 2020 606 m 18 X s 2020 693 m 18 X s 2020 779 m 18 X s 2002 865 m 36 X s 2020 951 m 18 X s 2020
 1038 m 18 X s 2020 1124 m 18 X s 2020 1210 m 18 X s 2002 1297 m 36 X s 2020 1383 m 18 X s 2020 1469 m 18 X s 2020 1556 m 18 X s 2020 1642 m 18 X s 2002 1728 m 36 X s 2020 1815 m 18 X s 2020 1901 m 18 X s 2020 1987 m 18 X s 2020 2074 m 18 X s 2002
 2160 m 36 X s 2002 434 m 36 X s 2020 347 m 18 X s 2020 261 m 18 X s 2002 2160 m 36 X s 2020 2246 m 18 X s 0 0 0.51 c 102 8 2050 261 bf 0 0.0094186 0.515698 c 102 8 2050 269 bf 0 0.0188372 0.521395 c 102 8 2050 277 bf 0 0.0282558 0.527093 c 102 8
 2050 285 bf 0 0.0376744 0.532791 c 102 9 2050 293 bf 0 0.047093 0.538488 c 102 8 2050 302 bf 0 0.0565116 0.544186 c 102 8 2050 310 bf 0 0.0659302 0.549884 c 102 8 2050 318 bf 0 0.0753488 0.555581 c 102 8 2050 326 bf 0 0.0847674 0.561279 c 102 8 2050
 334 bf 0 0.094186 0.566977 c 102 8 2050 342 bf 0 0.103605 0.572674 c 102 8 2050 350 bf 0 0.113023 0.578372 c 102 9 2050 358 bf 0 0.122442 0.58407 c 102 8 2050 367 bf 0 0.13186 0.589767 c 102 8 2050 375 bf 0 0.141279 0.595465 c 102 8 2050 383 bf 0
 0.150698 0.601163 c 102 8 2050 391 bf 0 0.160116 0.60686 c 102 8 2050 399 bf 0 0.169535 0.612558 c 102 8 2050 407 bf 0 0.178953 0.618256 c 102 8 2050 415 bf 0 0.188372 0.623953 c 102 9 2050 423 bf 0 0.197791 0.629651 c 102 8 2050 432 bf 0 0.207209
 0.635349 c 102 8 2050 440 bf 0 0.216628 0.641047 c 102 8 2050 448 bf 0 0.226047 0.646744 c 102 8 2050 456 bf 0 0.235465 0.652442 c 102 8 2050 464 bf 0 0.244884 0.65814 c 102 8 2050 472 bf 0 0.254302 0.663837 c 102 8 2050 480 bf 0 0.263721 0.669535 c
 102 9 2050 488 bf 0 0.27314 0.675233 c 102 8 2050 497 bf 0 0.282558 0.68093 c 102 8 2050 505 bf 0 0.291977 0.686628 c 102 8 2050 513 bf 0 0.301395 0.692326 c 102 8 2050 521 bf 0 0.310814 0.698023 c 102 8 2050 529 bf 0 0.320233 0.703721 c 102 8 2050
 537 bf 0 0.329651 0.709419 c 102 8 2050 545 bf 0 0.33907 0.715116 c 102 9 2050 553 bf 0 0.348488 0.720814 c 102 8 2050 562 bf 0 0.357907 0.726512 c 102 8 2050 570 bf 0 0.367326 0.732209 c 102 8 2050 578 bf 0 0.376744 0.737907 c 102 8 2050 586 bf 0
 0.386163 0.743605 c 102 8 2050 594 bf 0 0.395581 0.749302 c 102 8 2050 602 bf 0 0.405 0.755 c 102 8 2050 610 bf 0 0.414419 0.760698 c 102 9 2050 618 bf 0 0.423837 0.766395 c 102 8 2050 627 bf 0 0.433256 0.772093 c 102 8 2050 635 bf 0 0.442674
 0.777791 c 102 8 2050 643 bf 0 0.452093 0.783488 c 102 8 2050 651 bf 0 0.461512 0.789186 c 102 8 2050 659 bf 0 0.47093 0.794884 c 102 8 2050 667 bf 0 0.480349 0.800581 c 102 8 2050 675 bf 0 0.489767 0.806279 c 102 9 2050 683 bf 0 0.499186 0.811977 c
 102 8 2050 692 bf 0 0.508605 0.817674 c 102 8 2050 700 bf 0 0.518023 0.823372 c 102 8 2050 708 bf 0 0.527442 0.82907 c 102 8 2050 716 bf 0 0.53686 0.834767 c 102 8 2050 724 bf 0 0.546279 0.840465 c 102 8 2050 732 bf 0 0.555698 0.846163 c 102 8 2050
 740 bf 0 0.565116 0.85186 c 102 9 2050 748 bf 0 0.574535 0.857558 c 102 8 2050 757 bf 0 0.583953 0.863256 c 102 8 2050 765 bf 0 0.593372 0.868953 c 102 8 2050 773 bf 0 0.602791 0.874651 c 102 8 2050 781 bf 0 0.612209 0.880349 c 102 8 2050 789 bf 0
 0.621628 0.886047 c 102 8 2050 797 bf 0 0.631047 0.891744 c 102 8 2050 805 bf 0 0.640465 0.897442 c 102 9 2050 813 bf 0 0.649884 0.90314 c 102 8 2050 822 bf 0 0.659302 0.908837 c 102 8 2050 830 bf 0 0.668721 0.914535 c 102 8 2050 838 bf 0 0.67814
 0.920233 c 102 8 2050 846 bf 0 0.687558 0.92593 c 102 8 2050 854 bf 0 0.696977 0.931628 c 102 8 2050 862 bf 0 0.706395 0.937326 c 102 8 2050 870 bf 0 0.715814 0.943023 c 102 9 2050 878 bf 0 0.725233 0.948721 c 102 8 2050 887 bf 0 0.734651 0.954419 c
 102 8 2050 895 bf 0 0.74407 0.960116 c 102 8 2050 903 bf 0 0.753488 0.965814 c 102 8 2050 911 bf 0 0.762907 0.971512 c 102 8 2050 919 bf 0 0.772326 0.977209 c 102 8 2050 927 bf 0 0.781744 0.982907 c 102 8 2050 935 bf 0 0.791163 0.988605 c 102 8 2050
 943 bf 0 0.800581 0.994302 c 102 9 2050 951 bf 0 0.81 1 c 102 8 2050 960 bf 0.0126087 0.812754 0.987246 c 102 8 2050 968 bf 0.0252174 0.815507 0.974493 c 102 8 2050 976 bf 0.0378261 0.818261 0.961739 c 102 8 2050 984 bf 0.0504348 0.821014 0.948986 c
 102 8 2050 992 bf 0.0630435 0.823768 0.936232 c 102 8 2050 1000 bf 0.0756522 0.826522 0.923478 c 102 8 2050 1008 bf 0.0882609 0.829275 0.910725 c 102 9 2050 1016 bf 0.10087 0.832029 0.897971 c 102 8 2050 1025 bf 0.113478 0.834783 0.885217 c 102 8
 2050 1033 bf 0.126087 0.837536 0.872464 c 102 8 2050 1041 bf 0.138696 0.84029 0.85971 c 102 8 2050 1049 bf 0.151304 0.843044 0.846957 c 102 8 2050 1057 bf 0.163913 0.845797 0.834203 c 102 8 2050 1065 bf 0.176522 0.848551 0.821449 c 102 8 2050 1073
 bf 0.18913 0.851304 0.808696 c 102 9 2050 1081 bf 0.201739 0.854058 0.795942 c 102 8 2050 1090 bf 0.214348 0.856812 0.783188 c 102 8 2050 1098 bf 0.226957 0.859565 0.770435 c 102 8 2050 1106 bf 0.239565 0.862319 0.757681 c 102 8 2050 1114 bf
 0.252174 0.865072 0.744928 c 102 8 2050 1122 bf 0.264783 0.867826 0.732174 c 102 8 2050 1130 bf 0.277391 0.87058 0.71942 c 102 8 2050 1138 bf 0.29 0.873333 0.706667 c 102 9 2050 1146 bf 0.302609 0.876087 0.693913 c 102 8 2050 1155 bf 0.315217
 0.878841 0.681159 c 102 8 2050 1163 bf 0.327826 0.881594 0.668406 c 102 8 2050 1171 bf 0.340435 0.884348 0.655652 c 102 8 2050 1179 bf 0.353043 0.887101 0.642899 c 102 8 2050 1187 bf 0.365652 0.889855 0.630145 c 102 8 2050 1195 bf 0.378261 0.892609
 0.617391 c 102 8 2050 1203 bf 0.39087 0.895362 0.604638 c 102 9 2050 1211 bf 0.403478 0.898116 0.591884 c 102 8 2050 1220 bf 0.416087 0.90087 0.57913 c 102 8 2050 1228 bf 0.428696 0.903623 0.566377 c 102 8 2050 1236 bf 0.441304 0.906377 0.553623 c
 102 8 2050 1244 bf 0.453913 0.90913 0.54087 c 102 8 2050 1252 bf 0.466522 0.911884 0.528116 c 102 8 2050 1260 bf 0.47913 0.914638 0.515362 c 102 8 2050 1268 bf 0.491739 0.917391 0.502609 c 102 9 2050 1276 bf 0.504348 0.920145 0.489855 c 102 8 2050
 1285 bf 0.516957 0.922899 0.477101 c 102 8 2050 1293 bf 0.529565 0.925652 0.464348 c 102 8 2050 1301 bf 0.542174 0.928406 0.451594 c 102 8 2050 1309 bf 0.554783 0.931159 0.438841 c 102 8 2050 1317 bf 0.567391 0.933913 0.426087 c 102 8 2050 1325 bf
 0.58 0.936667 0.413333 c 102 8 2050 1333 bf 0.592609 0.93942 0.40058 c 102 9 2050 1341 bf 0.605217 0.942174 0.387826 c 102 8 2050 1350 bf 0.617826 0.944928 0.375072 c 102 8 2050 1358 bf 0.630435 0.947681 0.362319 c 102 8 2050 1366 bf 0.643043
 0.950435 0.349565 c 102 8 2050 1374 bf 0.655652 0.953188 0.336812 c 102 8 2050 1382 bf 0.668261 0.955942 0.324058 c 102 8 2050 1390 bf 0.68087 0.958696 0.311304 c 102 8 2050 1398 bf 0.693478 0.961449 0.298551 c 102 9 2050 1406 bf 0.706087 0.964203
 0.285797 c 102 8 2050 1415 bf 0.718696 0.966956 0.273043 c 102 8 2050 1423 bf 0.731304 0.96971 0.26029 c 102 8 2050 1431 bf 0.743913 0.972464 0.247536 c 102 8 2050 1439 bf 0.756522 0.975217 0.234783 c 102 8 2050 1447 bf 0.76913 0.977971 0.222029 c
 102 8 2050 1455 bf 0.781739 0.980725 0.209275 c 102 8 2050 1463 bf 0.794348 0.983478 0.196522 c 102 9 2050 1471 bf 0.806957 0.986232 0.183768 c 102 8 2050 1480 bf 0.819565 0.988985 0.171014 c 102 8 2050 1488 bf 0.832174 0.991739 0.158261 c 102 8
 2050 1496 bf 0.844783 0.994493 0.145507 c 102 8 2050 1504 bf 0.857391 0.997246 0.132754 c 102 8 2050 1512 bf 0.87 1 0.12 c 102 8 2050 1520 bf 0.872203 0.986441 0.117966 c 102 8 2050 1528 bf 0.874407 0.972881 0.115932 c 102 9 2050 1536 bf 0.87661
 0.959322 0.113898 c 102 8 2050 1545 bf 0.878814 0.945763 0.111864 c 102 8 2050 1553 bf 0.881017 0.932203 0.109831 c 102 8 2050 1561 bf 0.88322 0.918644 0.107797 c 102 8 2050 1569 bf 0.885424 0.905085 0.105763 c 102 8 2050 1577 bf 0.887627 0.891525
 0.103729 c 102 8 2050 1585 bf 0.889831 0.877966 0.101695 c 102 8 2050 1593 bf 0.892034 0.864407 0.099661 c 102 9 2050 1601 bf 0.894237 0.850847 0.0976271 c 102 8 2050 1610 bf 0.896441 0.837288 0.0955932 c 102 8 2050 1618 bf 0.898644 0.823729
 0.0935593 c 102 8 2050 1626 bf 0.900847 0.81017 0.0915254 c 102 8 2050 1634 bf 0.903051 0.79661 0.0894915 c 102 8 2050 1642 bf 0.905254 0.783051 0.0874576 c 102 8 2050 1650 bf 0.907458 0.769492 0.0854237 c 102 8 2050 1658 bf 0.909661 0.755932
 0.0833898 c 102 8 2050 1666 bf 0.911864 0.742373 0.0813559 c 102 9 2050 1674 bf 0.914068 0.728814 0.079322 c 102 8 2050 1683 bf 0.916271 0.715254 0.0772881 c 102 8 2050 1691 bf 0.918475 0.701695 0.0752542 c 102 8 2050 1699 bf 0.920678 0.688136
 0.0732203 c 102 8 2050 1707 bf 0.922881 0.674576 0.0711864 c 102 8 2050 1715 bf 0.925085 0.661017 0.0691525 c 102 8 2050 1723 bf 0.927288 0.647458 0.0671186 c 102 8 2050 1731 bf 0.929492 0.633898 0.0650847 c 102 9 2050 1739 bf 0.931695 0.620339
 0.0630508 c 102 8 2050 1748 bf 0.933898 0.60678 0.061017 c 102 8 2050 1756 bf 0.936102 0.59322 0.0589831 c 102 8 2050 1764 bf 0.938305 0.579661 0.0569492 c 102 8 2050 1772 bf 0.940508 0.566102 0.0549153 c 102 8 2050 1780 bf 0.942712 0.552542
 0.0528814 c 102 8 2050 1788 bf 0.944915 0.538983 0.0508475 c 102 8 2050 1796 bf 0.947119 0.525424 0.0488136 c 102 9 2050 1804 bf 0.949322 0.511864 0.0467797 c 102 8 2050 1813 bf 0.951525 0.498305 0.0447458 c 102 8 2050 1821 bf 0.953729 0.484746
 0.0427119 c 102 8 2050 1829 bf 0.955932 0.471186 0.040678 c 102 8 2050 1837 bf 0.958136 0.457627 0.0386441 c 102 8 2050 1845 bf 0.960339 0.444068 0.0366102 c 102 8 2050 1853 bf 0.962542 0.430508 0.0345763 c 102 8 2050 1861 bf 0.964746 0.416949
 0.0325424 c 102 9 2050 1869 bf 0.966949 0.40339 0.0305085 c 102 8 2050 1878 bf 0.969153 0.38983 0.0284746 c 102 8 2050 1886 bf 0.971356 0.376271 0.0264407 c 102 8 2050 1894 bf 0.973559 0.362712 0.0244068 c 102 8 2050 1902 bf 0.975763 0.349153
 0.0223729 c 102 8 2050 1910 bf 0.977966 0.335593 0.020339 c 102 8 2050 1918 bf 0.980169 0.322034 0.0183051 c 102 8 2050 1926 bf 0.982373 0.308475 0.0162712 c 102 9 2050 1934 bf 0.984576 0.294915 0.0142373 c 102 8 2050 1943 bf 0.98678 0.281356
 0.0122034 c 102 8 2050 1951 bf 0.988983 0.267797 0.0101695 c 102 8 2050 1959 bf 0.991186 0.254237 0.00813559 c 102 8 2050 1967 bf 0.99339 0.240678 0.00610169 c 102 8 2050 1975 bf 0.995593 0.227119 0.0040678 c 102 8 2050 1983 bf 0.997797 0.213559
 0.0020339 c 102 8 2050 1991 bf 1 0.2 0 c 102 9 2050 1999 bf 0.988049 0.195122 0 c 102 8 2050 2008 bf 0.976098 0.190244 0 c 102 8 2050 2016 bf 0.964146 0.185366 0 c 102 8 2050 2024 bf 0.952195 0.180488 0 c 102 8 2050 2032 bf 0.940244 0.17561 0 c 102
 8 2050 2040 bf 0.928293 0.170732 0 c 102 8 2050 2048 bf 0.916341 0.165854 0 c 102 8 2050 2056 bf 0.90439 0.160976 0 c 102 9 2050 2064 bf 0.892439 0.156098 0 c 102 8 2050 2073 bf 0.880488 0.15122 0 c 102 8 2050 2081 bf 0.868537 0.146341 0 c 102 8
 2050 2089 bf 0.856585 0.141463 0 c 102 8 2050 2097 bf 0.844634 0.136585 0 c 102 8 2050 2105 bf 0.832683 0.131707 0 c 102 8 2050 2113 bf 0.820732 0.126829 0 c 102 8 2050 2121 bf 0.80878 0.121951 0 c 102 9 2050 2129 bf 0.796829 0.117073 0 c 102 8 2050
 2138 bf 0.784878 0.112195 0 c 102 8 2050 2146 bf 0.772927 0.107317 0 c 102 8 2050 2154 bf 0.760976 0.102439 0 c 102 8 2050 2162 bf 0.749024 0.097561 0 c 102 8 2050 2170 bf 0.737073 0.0926829 0 c 102 8 2050 2178 bf 0.725122 0.0878049 0 c 102 8 2050
 2186 bf 0.713171 0.0829268 0 c 102 9 2050 2194 bf 0.701219 0.0780488 0 c 102 8 2050 2203 bf 0.689268 0.0731707 0 c 102 8 2050 2211 bf 0.677317 0.0682927 0 c 102 8 2050 2219 bf 0.665366 0.0634146 0 c 102 8 2050 2227 bf 0.653415 0.0585366 0 c 102 8
 2050 2235 bf 0.641463 0.0536585 0 c 102 8 2050 2243 bf 0.629512 0.0487805 0 c 102 8 2050 2251 bf 0.617561 0.0439024 0 c 102 9 2050 2259 bf 0.60561 0.0390244 0 c 102 8 2050 2268 bf 0.593659 0.0341463 0 c 102 8 2050 2276 bf 0.581707 0.0292683 0 c 102
 8 2050 2284 bf 0.569756 0.0243902 0 c 102 8 2050 2292 bf 0.557805 0.0195122 0 c 102 8 2050 2300 bf 0.545854 0.0146341 0 c 102 8 2050 2308 bf 0.533902 0.0097561 0 c 102 8 2050 2316 bf 0.521951 0.00487805 0 c 102 9 2050 2324 bf black 2152 261 m 2072 Y
 s 2115 261 m 37 X s 2115 603 m 37 X s 2115 946 m 37 X s 2115 1288 m 37 X s 2115 1631 m 37 X s 2115 1973 m 37 X s 2115 2315 m 37 X s 2115 2315 m 37 X s
 gsave  2268 2585 0 0 C 2186 225.688 t 0 r /Helvetica findfont 95.6266 sf 0 0 m (0) show NC gr 
 gsave  2268 2585 0 0 C 2186 567.25 t 0 r /Helvetica findfont 95.6266 sf 0 0 m (20) show NC gr 
 gsave  2268 2585 0 0 C 2186 908.75 t 0 r /Helvetica findfont 95.6266 sf 0 0 m (40) show NC gr 
 gsave  2268 2585 0 0 C 2186 1253.62 t 0 r /Helvetica findfont 95.6266 sf 0 0 m (60) show NC gr 
 gsave  2268 2585 0 0 C 2186 1595.12 t 0 r /Helvetica findfont 95.6266 sf 0 0 m (80) show NC gr 
 gsave  2268 2585 0 0 C 2186 1936.69 t 0 r /Helvetica findfont 95.6266 sf 0 0 m (100) show NC gr 
 gsave  2268 2585 0 0 C 2186 2278.19 t 0 r /Helvetica findfont 95.6266 sf 0 0 m (120) show NC gr  1 1 1 c black
 gsave  2268 2585 0 0 C 369.188 2493.38 t 0 r /Helvetica findfont 27.3219 sf 0 0 m (bigcalClusters.fYMoment:bigcalClusters.fXMoment {bigcalClusters.fGoodLuciteTDCHit&&bigcalClusters.fGoodCherenkovTDCHit}) show NC gr  gr showpage
 gr 
%%Trailer
%%Pages:  1
 gr  gr  gr 
%%EOF
