%!PS-Adobe-2.0
%%Title: /home/whit/sane08/InSANE/main/detectors/luc_BarVsx_wLuc.ps: Canvas 1_n5
%%Creator: ROOT Version 5.27/06a
%%CreationDate: Mon Sep 26 16:10:22 2011
%%Orientation: Portrait
%%EndComments
%%BeginProlog
/s {stroke} def /l {lineto} def /m {moveto} def /t {translate} def
/r {rotate} def /rl {roll}  def /R {repeat} def
/d {rlineto} def /rm {rmoveto} def /gr {grestore} def /f {eofill} def
/c {setrgbcolor} def /black {0 setgray} def /sd {setdash} def
/cl {closepath} def /sf {scalefont setfont} def /lw {setlinewidth} def
/box {m dup 0 exch d exch 0 d 0 exch neg d cl} def
/NC{systemdict begin initclip end}def/C{NC box clip newpath}def
/bl {box s} def /bf {box f} def /Y { 0 exch d} def /X { 0 d} def 
/K {{pop pop 0 moveto} exch kshow} bind def
/ita {/ang 15 def gsave [1 0 ang dup sin exch cos div 1 0 0] concat} def 
/mp {newpath /y exch def /x exch def} def
/side {[w .77 mul w .23 mul] .385 w mul sd w 0 l currentpoint t -144 r} def
/mr {mp x y w2 0 360 arc} def /m24 {mr s} def /m20 {mr f} def
/mb {mp x y w2 add m w2 neg 0 d 0 w neg d w 0 d 0 w d cl} def
/mt {mp x y w2 add m w2 neg w neg d w 0 d cl} def
/m21 {mb f} def /m25 {mb s} def /m22 {mt f} def /m26{mt s} def
/m23 {mp x y w2 sub m w2 w d w neg 0 d cl f} def
/m27 {mp x y w2 add m w3 neg w2 neg d w3 w2 neg d w3 w2 d cl s} def
/m28 {mp x w2 sub y w2 sub w3 add m w3 0 d  0 w3 neg d w3 0 d 0 w3 d w3 0 d  0 w3 d w3 neg 0 d 0 w3 d w3 neg 0 d 0 w3 neg d w3 neg 0 d cl s } def
/m29 {mp gsave x w2 sub y w2 add w3 sub m currentpoint t 4 {side} repeat cl fill gr} def
/m30 {mp gsave x w2 sub y w2 add w3 sub m currentpoint t 4 {side} repeat cl s gr} def
/m31 {mp x y w2 sub m 0 w d x w2 sub y m w 0 d x w2 sub y w2 add m w w neg d x w2 sub y w2 sub m w w d s} def
/m32 {mp x y w2 sub m w2 w d w neg 0 d cl s} def
/m33 {mp x y w2 add m w3 neg w2 neg d w3 w2 neg d w3 w2 d cl f} def
/m34 {mp x w2 sub y w2 sub w3 add m w3 0 d  0 w3 neg d w3 0 d 0 w3 d w3 0 d  0 w3 d w3 neg 0 d 0 w3 d w3 neg 0 d 0 w3 neg d w3 neg 0 d cl f } def
/m2 {mp x y w2 sub m 0 w d x w2 sub y m w 0 d s} def
/m5 {mp x w2 sub y w2 sub m w w d x w2 sub y w2 add m w w neg d s} def
/reEncode {exch findfont dup length dict begin {1 index /FID eq  {pop pop} {def} ifelse } forall /Encoding exch def currentdict end dup /FontName get exch definefont pop } def [/Times-Bold /Times-Italic /Times-BoldItalic /Helvetica /Helvetica-Oblique
 /Helvetica-Bold /Helvetica-BoldOblique /Courier /Courier-Oblique /Courier-Bold /Courier-BoldOblique /Times-Roman /AvantGarde-Book /AvantGarde-BookOblique /AvantGarde-Demi /AvantGarde-DemiOblique /Bookman-Demi /Bookman-DemiItalic /Bookman-Light
 /Bookman-LightItalic /Helvetica-Narrow /Helvetica-Narrow-Bold /Helvetica-Narrow-BoldOblique /Helvetica-Narrow-Oblique /NewCenturySchlbk-Roman /NewCenturySchlbk-Bold /NewCenturySchlbk-BoldItalic /NewCenturySchlbk-Italic /Palatino-Bold
 /Palatino-BoldItalic /Palatino-Italic /Palatino-Roman ] {ISOLatin1Encoding reEncode } forall/Zone {/iy exch def /ix exch def  ix 1 sub  2224 mul  1 iy sub  3144 mul t} def
%%EndProlog
%%BeginSetup
%%EndSetup
newpath  gsave  20 28 t .25 .25 scale  gsave 
%%Page: 1 1
 gsave  gsave 
 1 1 Zone
 gsave  0 0 t black[  ] 0 sd 3 lw 1 1 1 c 2268 2585 0 0 bf black 6 lw 1 1 1 c black 1814 2068 227 259 bl 1814 2068 227 259 bl 1 1 1 c black 1814 2068 227 259 bl 1814 2068 227 259 bl 1 1 1 c 0 0.047093 0.538488 c 46 65 317 323 bf 0 0.583953 0.863256 c
 45 65 363 323 bf 0 0.405 0.755 c 46 65 408 323 bf 0 0.329651 0.709419 c 45 65 454 323 bf 0 0.376744 0.737907 c 45 65 499 323 bf 0 0.301395 0.692326 c 46 65 544 323 bf 0 0.433256 0.772093 c 45 65 590 323 bf 45 65 635 323 bf 0 0.348488 0.720814 c 46
 65 680 323 bf 0 0.197791 0.629651 c 45 65 726 323 bf 0 0.301395 0.692326 c 45 65 771 323 bf 0 0.254302 0.663837 c 46 65 816 323 bf 0 0.329651 0.709419 c 45 65 862 323 bf 0 0.226047 0.646744 c 45 65 907 323 bf 0 0.376744 0.737907 c 46 65 952 323 bf 0
 0.254302 0.663837 c 45 65 998 323 bf 0 0.329651 0.709419 c 46 65 1043 323 bf 0 0.405 0.755 c 45 65 1089 323 bf 0 0.094186 0.566977 c 45 65 1134 323 bf 0 0.27314 0.675233 c 46 65 1179 323 bf 45 65 1225 323 bf 0 0.122442 0.58407 c 45 65 1270 323 bf 0
 0.197791 0.629651 c 46 65 1315 323 bf 0 0.254302 0.663837 c 45 65 1361 323 bf 0 0.150698 0.601163 c 45 65 1406 323 bf 0 0.094186 0.566977 c 46 65 1451 323 bf 0 0.27314 0.675233 c 45 65 1497 323 bf 0 0.150698 0.601163 c 45 65 1542 323 bf 0 0.122442
 0.58407 c 46 65 1587 323 bf 45 65 1633 323 bf 0 0.197791 0.629651 c 45 65 1678 323 bf 0 0.150698 0.601163 c 46 65 1723 323 bf 0 0.0188372 0.521395 c 45 65 1769 323 bf 0 0.0753488 0.555581 c 46 65 1814 323 bf 45 65 1860 323 bf 0 0.0188372 0.521395 c
 46 64 317 388 bf 0 0.612209 0.880349 c 45 64 363 388 bf 0 0.687558 0.92593 c 46 64 408 388 bf 0 0.706395 0.937326 c 45 64 454 388 bf 0 0.631047 0.891744 c 45 64 499 388 bf 0.214348 0.856812 0.783188 c 46 64 544 388 bf 0.951525 0.498305 0.0447458 c
 45 64 590 388 bf 0.881017 0.932203 0.109831 c 45 64 635 388 bf 0.874407 0.972881 0.115932 c 46 64 680 388 bf 0.655652 0.953188 0.336812 c 45 64 726 388 bf 0.903051 0.79661 0.0894915 c 45 64 771 388 bf 0.881017 0.932203 0.109831 c 46 64 816 388 bf
 0.340435 0.884348 0.655652 c 45 64 862 388 bf 0.277391 0.87058 0.71942 c 45 64 907 388 bf 0 0.81 1 c 46 64 952 388 bf 0 0.631047 0.891744 c 45 64 998 388 bf 0 0.452093 0.783488 c 46 64 1043 388 bf 0 0.612209 0.880349 c 45 64 1089 388 bf 0 0.81 1 c
 45 64 1134 388 bf 0 0.612209 0.880349 c 46 64 1179 388 bf 0 0.762907 0.971512 c 45 64 1225 388 bf 0 0.631047 0.891744 c 45 64 1270 388 bf 0 0.527442 0.82907 c 46 64 1315 388 bf 0 0.583953 0.863256 c 45 64 1361 388 bf 45 64 1406 388 bf 0 0.734651
 0.954419 c 46 64 1451 388 bf 0 0.508605 0.817674 c 45 64 1497 388 bf 0 0.452093 0.783488 c 45 64 1542 388 bf 0 0.376744 0.737907 c 46 64 1587 388 bf 0 0.433256 0.772093 c 45 64 1633 388 bf 0 0.27314 0.675233 c 45 64 1678 388 bf 46 64 1723 388 bf 0
 0.169535 0.612558 c 45 64 1769 388 bf 0 0.226047 0.646744 c 46 64 1814 388 bf 0 0.197791 0.629651 c 45 64 1860 388 bf 0 0.301395 0.692326 c 45 65 363 452 bf 0 0.348488 0.720814 c 46 65 408 452 bf 0 0.508605 0.817674 c 45 65 454 452 bf 0 0.81 1 c 45
 65 499 452 bf 0.47913 0.914638 0.515362 c 46 65 544 452 bf 0.933898 0.60678 0.061017 c 45 65 590 452 bf 0.718696 0.966956 0.273043 c 45 65 635 452 bf 0.927288 0.647458 0.0671186 c 46 65 680 452 bf 0.453913 0.90913 0.54087 c 45 65 726 452 bf 0.516957
 0.922899 0.477101 c 45 65 771 452 bf 0.277391 0.87058 0.71942 c 46 65 816 452 bf 0.176522 0.848551 0.821449 c 45 65 862 452 bf 0 0.631047 0.891744 c 45 65 907 452 bf 0.176522 0.848551 0.821449 c 46 65 952 452 bf 0 0.508605 0.817674 c 45 65 998 452
 bf 0.0378261 0.818261 0.961739 c 46 65 1043 452 bf 0 0.791163 0.988605 c 45 65 1089 452 bf 0 0.706395 0.937326 c 45 65 1134 452 bf 0.214348 0.856812 0.783188 c 46 65 1179 452 bf 0 0.555698 0.846163 c 45 65 1225 452 bf 0.239565 0.862319 0.757681 c 45
 65 1270 452 bf 0 0.659302 0.908837 c 46 65 1315 452 bf 0 0.706395 0.937326 c 45 65 1361 452 bf 0 0.81 1 c 45 65 1406 452 bf 0 0.612209 0.880349 c 46 65 1451 452 bf 0 0.583953 0.863256 c 45 65 1497 452 bf 0 0.348488 0.720814 c 45 65 1542 452 bf 0
 0.405 0.755 c 46 65 1587 452 bf 0 0.348488 0.720814 c 45 65 1633 452 bf 45 65 1678 452 bf 0 0.376744 0.737907 c 46 65 1723 452 bf 0 0.329651 0.709419 c 45 65 1769 452 bf 0 0.405 0.755 c 46 65 1814 452 bf 0 0.150698 0.601163 c 45 65 1860 452 bf 0
 0.0753488 0.555581 c 45 65 1905 452 bf 0 0.094186 0.566977 c 46 65 317 517 bf 0 0.81 1 c 45 65 363 517 bf 0.47913 0.914638 0.515362 c 46 65 408 517 bf 0.176522 0.848551 0.821449 c 45 65 454 517 bf 0.857391 0.997246 0.132754 c 45 65 499 517 bf
 0.693478 0.961449 0.298551 c 46 65 544 517 bf 0.874407 0.972881 0.115932 c 45 65 590 517 bf 0.47913 0.914638 0.515362 c 45 65 635 517 bf 0.58 0.936667 0.413333 c 46 65 680 517 bf 0.214348 0.856812 0.783188 c 45 65 726 517 bf 0.58 0.936667 0.413333 c
 45 65 771 517 bf 0.214348 0.856812 0.783188 c 46 65 816 517 bf 0.315217 0.878841 0.681159 c 45 65 862 517 bf 0.138696 0.84029 0.85971 c 45 65 907 517 bf 0.655652 0.953188 0.336812 c 46 65 952 517 bf 0.47913 0.914638 0.515362 c 45 65 998 517 bf
 0.315217 0.878841 0.681159 c 46 65 1043 517 bf 0.138696 0.84029 0.85971 c 45 65 1089 517 bf 0.176522 0.848551 0.821449 c 45 65 1134 517 bf 0.794348 0.983478 0.196522 c 46 65 1179 517 bf 0.214348 0.856812 0.783188 c 45 65 1225 517 bf 0.554783
 0.931159 0.438841 c 45 65 1270 517 bf 0.239565 0.862319 0.757681 c 46 65 1315 517 bf 0 0.583953 0.863256 c 45 65 1361 517 bf 0 0.405 0.755 c 45 65 1406 517 bf 0 0.433256 0.772093 c 46 65 1451 517 bf 0 0.612209 0.880349 c 45 65 1497 517 bf 0 0.583953
 0.863256 c 45 65 1542 517 bf 0 0.376744 0.737907 c 46 65 1587 517 bf 0 0.405 0.755 c 45 65 1633 517 bf 0 0.226047 0.646744 c 45 65 1678 517 bf 0 0.254302 0.663837 c 46 65 1723 517 bf 0 0.27314 0.675233 c 45 65 1769 517 bf 0 0.254302 0.663837 c 46 65
 1814 517 bf 0 0.150698 0.601163 c 45 65 1860 517 bf 0 0.0188372 0.521395 c 45 65 1905 517 bf 0 0.047093 0.538488 c 46 64 317 582 bf 0 0.27314 0.675233 c 45 64 363 582 bf 46 64 408 582 bf 0 0.376744 0.737907 c 45 64 454 582 bf 0 0.631047 0.891744 c
 45 64 499 582 bf 0 0.791163 0.988605 c 46 64 544 582 bf 0.10087 0.832029 0.897971 c 45 64 590 582 bf 0.857391 0.997246 0.132754 c 45 64 635 582 bf 0.655652 0.953188 0.336812 c 46 64 680 582 bf 0.718696 0.966956 0.273043 c 45 64 726 582 bf 45 64 771
 582 bf 46 64 816 582 bf 0.516957 0.922899 0.477101 c 45 64 862 582 bf 0.892034 0.864407 0.099661 c 45 64 907 582 bf 0.969153 0.38983 0.0284746 c 46 64 952 582 bf 0.898644 0.823729 0.0935593 c 45 64 998 582 bf 0.874407 0.972881 0.115932 c 46 64 1043
 582 bf 0.277391 0.87058 0.71942 c 45 64 1089 582 bf 0.453913 0.90913 0.54087 c 45 64 1134 582 bf 0.0756522 0.826522 0.923478 c 46 64 1179 582 bf 0 0.762907 0.971512 c 45 64 1225 582 bf 0.239565 0.862319 0.757681 c 45 64 1270 582 bf 0.277391 0.87058
 0.71942 c 46 64 1315 582 bf 0.138696 0.84029 0.85971 c 45 64 1361 582 bf 0.214348 0.856812 0.783188 c 45 64 1406 582 bf 0.138696 0.84029 0.85971 c 46 64 1451 582 bf 0.655652 0.953188 0.336812 c 45 64 1497 582 bf 0 0.791163 0.988605 c 45 64 1542 582
 bf 0 0.527442 0.82907 c 46 64 1587 582 bf 0 0.452093 0.783488 c 45 64 1633 582 bf 0 0.631047 0.891744 c 45 64 1678 582 bf 0 0.480349 0.800581 c 46 64 1723 582 bf 0 0.301395 0.692326 c 45 64 1769 582 bf 0 0.659302 0.908837 c 46 64 1814 582 bf 0
 0.301395 0.692326 c 45 64 1860 582 bf 0 0.047093 0.538488 c 45 64 1905 582 bf 0 0.094186 0.566977 c 46 65 317 646 bf 0 0.583953 0.863256 c 45 65 363 646 bf 0.277391 0.87058 0.71942 c 46 65 408 646 bf 0.718696 0.966956 0.273043 c 45 65 454 646 bf
 0.617826 0.944928 0.375072 c 45 65 499 646 bf 1 0.2 0 c 46 65 544 646 bf 0.982373 0.308475 0.0162712 c 45 65 590 646 bf 0.969153 0.38983 0.0284746 c 45 65 635 646 bf 0.975763 0.349153 0.0223729 c 46 65 680 646 bf 0.892034 0.864407 0.099661 c 45 65
 726 646 bf 0.718696 0.966956 0.273043 c 45 65 771 646 bf 0.58 0.936667 0.413333 c 46 65 816 646 bf 0 0.706395 0.937326 c 45 65 862 646 bf 0.10087 0.832029 0.897971 c 45 65 907 646 bf 0.214348 0.856812 0.783188 c 46 65 952 646 bf 0 0.706395 0.937326
 c 45 65 998 646 bf 0 0.508605 0.817674 c 46 65 1043 646 bf 0 0.762907 0.971512 c 45 65 1089 646 bf 0.138696 0.84029 0.85971 c 45 65 1134 646 bf 0 0.508605 0.817674 c 46 65 1179 646 bf 0 0.631047 0.891744 c 45 65 1225 646 bf 0 0.612209 0.880349 c 45
 65 1270 646 bf 0 0.706395 0.937326 c 46 65 1315 646 bf 0 0.508605 0.817674 c 45 65 1361 646 bf 0 0.706395 0.937326 c 45 65 1406 646 bf 0.214348 0.856812 0.783188 c 46 65 1451 646 bf 0 0.527442 0.82907 c 45 65 1497 646 bf 0 0.329651 0.709419 c 45 65
 1542 646 bf 0 0.433256 0.772093 c 46 65 1587 646 bf 0 0.27314 0.675233 c 45 65 1633 646 bf 45 65 1678 646 bf 0 0.329651 0.709419 c 46 65 1723 646 bf 0 0.348488 0.720814 c 45 65 1769 646 bf 0 0.226047 0.646744 c 46 65 1814 646 bf 0 0.122442 0.58407 c
 45 65 1860 646 bf 0 0.047093 0.538488 c 45 65 1905 646 bf 0 0.094186 0.566977 c 46 65 317 711 bf 0.10087 0.832029 0.897971 c 45 65 363 711 bf 0.693478 0.961449 0.298551 c 46 65 408 711 bf 0.819565 0.988985 0.171014 c 45 65 454 711 bf 0.857391
 0.997246 0.132754 c 45 65 499 711 bf 0.874407 0.972881 0.115932 c 46 65 544 711 bf 0.819565 0.988985 0.171014 c 45 65 590 711 bf 0.874407 0.972881 0.115932 c 45 65 635 711 bf 0.554783 0.931159 0.438841 c 46 65 680 711 bf 0.176522 0.848551 0.821449 c
 45 65 726 711 bf 0.554783 0.931159 0.438841 c 45 65 771 711 bf 0 0.791163 0.988605 c 46 65 816 711 bf 0 0.81 1 c 45 65 862 711 bf 0.176522 0.848551 0.821449 c 45 65 907 711 bf 0 0.791163 0.988605 c 46 65 952 711 bf 0 0.687558 0.92593 c 45 65 998 711
 bf 0.0756522 0.826522 0.923478 c 46 65 1043 711 bf 0 0.583953 0.863256 c 45 65 1089 711 bf 0 0.734651 0.954419 c 45 65 1134 711 bf 0 0.508605 0.817674 c 46 65 1179 711 bf 0 0.583953 0.863256 c 45 65 1225 711 bf 0 0.508605 0.817674 c 45 65 1270 711
 bf 0 0.452093 0.783488 c 46 65 1315 711 bf 0 0.508605 0.817674 c 45 65 1361 711 bf 45 65 1406 711 bf 0 0.527442 0.82907 c 46 65 1451 711 bf 45 65 1497 711 bf 0 0.329651 0.709419 c 45 65 1542 711 bf 0 0.405 0.755 c 46 65 1587 711 bf 0 0.376744
 0.737907 c 45 65 1633 711 bf 0 0.226047 0.646744 c 45 65 1678 711 bf 0 0.329651 0.709419 c 46 65 1723 711 bf 0 0.197791 0.629651 c 45 65 1769 711 bf 46 65 1814 711 bf 0 0.27314 0.675233 c 45 65 1860 711 bf 0 0.0188372 0.521395 c 45 65 1905 711 bf 0
 0.047093 0.538488 c 46 64 317 776 bf 0 0.329651 0.709419 c 45 64 363 776 bf 0 0.583953 0.863256 c 46 64 408 776 bf 0 0.687558 0.92593 c 45 64 454 776 bf 0.10087 0.832029 0.897971 c 45 64 499 776 bf 0.0378261 0.818261 0.961739 c 46 64 544 776 bf
 0.617826 0.944928 0.375072 c 45 64 590 776 bf 0.794348 0.983478 0.196522 c 45 64 635 776 bf 0.819565 0.988985 0.171014 c 46 64 680 776 bf 0.10087 0.832029 0.897971 c 45 64 726 776 bf 0.916271 0.715254 0.0772881 c 45 64 771 776 bf 0.138696 0.84029
 0.85971 c 46 64 816 776 bf 0.277391 0.87058 0.71942 c 45 64 862 776 bf 0 0.659302 0.908837 c 45 64 907 776 bf 0 0.81 1 c 46 64 952 776 bf 0 0.631047 0.891744 c 45 64 998 776 bf 0 0.659302 0.908837 c 46 64 1043 776 bf 45 64 1089 776 bf 0 0.480349
 0.800581 c 45 64 1134 776 bf 0 0.631047 0.891744 c 46 64 1179 776 bf 0 0.452093 0.783488 c 45 64 1225 776 bf 0 0.612209 0.880349 c 45 64 1270 776 bf 0 0.527442 0.82907 c 46 64 1315 776 bf 0 0.433256 0.772093 c 45 64 1361 776 bf 0 0.376744 0.737907 c
 45 64 1406 776 bf 0 0.405 0.755 c 46 64 1451 776 bf 0 0.433256 0.772093 c 45 64 1497 776 bf 0 0.405 0.755 c 45 64 1542 776 bf 0 0.376744 0.737907 c 46 64 1587 776 bf 45 64 1633 776 bf 0 0.508605 0.817674 c 45 64 1678 776 bf 0 0.150698 0.601163 c 46
 64 1723 776 bf 0 0.27314 0.675233 c 45 64 1769 776 bf 46 64 1814 776 bf 0 0.376744 0.737907 c 45 64 1860 776 bf 0 0.122442 0.58407 c 46 65 317 840 bf 0 0.376744 0.737907 c 45 65 363 840 bf 0.214348 0.856812 0.783188 c 46 65 408 840 bf 0.176522
 0.848551 0.821449 c 45 65 454 840 bf 0.378261 0.892609 0.617391 c 45 65 499 840 bf 0.416087 0.90087 0.57913 c 46 65 544 840 bf 0.916271 0.715254 0.0772881 c 45 65 590 840 bf 0.819565 0.988985 0.171014 c 45 65 635 840 bf 0.916271 0.715254 0.0772881 c
 46 65 680 840 bf 0.655652 0.953188 0.336812 c 45 65 726 840 bf 0.857391 0.997246 0.132754 c 45 65 771 840 bf 0.277391 0.87058 0.71942 c 46 65 816 840 bf 0 0.791163 0.988605 c 45 65 862 840 bf 0.277391 0.87058 0.71942 c 45 65 907 840 bf 0 0.452093
 0.783488 c 46 65 952 840 bf 0 0.348488 0.720814 c 45 65 998 840 bf 0 0.791163 0.988605 c 46 65 1043 840 bf 0 0.631047 0.891744 c 45 65 1089 840 bf 0 0.706395 0.937326 c 45 65 1134 840 bf 0 0.405 0.755 c 46 65 1179 840 bf 0 0.555698 0.846163 c 45 65
 1225 840 bf 0 0.480349 0.800581 c 45 65 1270 840 bf 0 0.583953 0.863256 c 46 65 1315 840 bf 0 0.480349 0.800581 c 45 65 1361 840 bf 0 0.508605 0.817674 c 45 65 1406 840 bf 0 0.527442 0.82907 c 46 65 1451 840 bf 0 0.687558 0.92593 c 45 65 1497 840 bf
 0 0.329651 0.709419 c 45 65 1542 840 bf 0 0.376744 0.737907 c 46 65 1587 840 bf 0 0.226047 0.646744 c 45 65 1633 840 bf 0 0.27314 0.675233 c 45 65 1678 840 bf 0 0.150698 0.601163 c 46 65 1723 840 bf 0 0.27314 0.675233 c 45 65 1769 840 bf 0 0.197791
 0.629651 c 46 65 1814 840 bf 0 0.226047 0.646744 c 45 65 1860 840 bf 0 0.047093 0.538488 c 45 65 1905 840 bf 0 0.0188372 0.521395 c 46 65 317 905 bf 0 0.433256 0.772093 c 45 65 363 905 bf 0 0.762907 0.971512 c 46 65 408 905 bf 0 0.687558 0.92593 c
 45 65 454 905 bf 0.315217 0.878841 0.681159 c 45 65 499 905 bf 0.922881 0.674576 0.0711864 c 46 65 544 905 bf 0.521951 0.00487805 0 c 45 65 590 905 bf 0.951525 0.498305 0.0447458 c 45 65 635 905 bf 0.975763 0.349153 0.0223729 c 46 65 680 905 bf
 0.951525 0.498305 0.0447458 c 45 65 726 905 bf 0.916271 0.715254 0.0772881 c 45 65 771 905 bf 0.819565 0.988985 0.171014 c 46 65 816 905 bf 0.554783 0.931159 0.438841 c 45 65 862 905 bf 0.617826 0.944928 0.375072 c 45 65 907 905 bf 0.554783 0.931159
 0.438841 c 46 65 952 905 bf 0.516957 0.922899 0.477101 c 45 65 998 905 bf 0.214348 0.856812 0.783188 c 46 65 1043 905 bf 0.0756522 0.826522 0.923478 c 45 65 1089 905 bf 0.138696 0.84029 0.85971 c 45 65 1134 905 bf 0 0.480349 0.800581 c 46 65 1179
 905 bf 0 0.762907 0.971512 c 45 65 1225 905 bf 0.10087 0.832029 0.897971 c 45 65 1270 905 bf 0 0.659302 0.908837 c 46 65 1315 905 bf 0 0.508605 0.817674 c 45 65 1361 905 bf 0 0.583953 0.863256 c 45 65 1406 905 bf 0 0.612209 0.880349 c 46 65 1451 905
 bf 0 0.762907 0.971512 c 45 65 1497 905 bf 0 0.734651 0.954419 c 45 65 1542 905 bf 0 0.452093 0.783488 c 46 65 1587 905 bf 0 0.555698 0.846163 c 45 65 1633 905 bf 0 0.583953 0.863256 c 45 65 1678 905 bf 0 0.527442 0.82907 c 46 65 1723 905 bf 0
 0.433256 0.772093 c 45 65 1769 905 bf 0 0.527442 0.82907 c 46 65 1814 905 bf 0 0.197791 0.629651 c 45 65 1860 905 bf 0 0.0753488 0.555581 c 45 65 1905 905 bf 46 64 317 970 bf 0.10087 0.832029 0.897971 c 45 64 363 970 bf 0.378261 0.892609 0.617391 c
 46 64 408 970 bf 0.655652 0.953188 0.336812 c 45 64 454 970 bf 0.933898 0.60678 0.061017 c 45 64 499 970 bf 0.693478 0.961449 0.298551 c 46 64 544 970 bf 0.90439 0.160976 0 c 45 64 590 970 bf 0.964746 0.416949 0.0325424 c 45 64 635 970 bf 0.99339
 0.240678 0.00610169 c 46 64 680 970 bf 0.794348 0.983478 0.196522 c 45 64 726 970 bf 0.857391 0.997246 0.132754 c 45 64 771 970 bf 0.47913 0.914638 0.515362 c 46 64 816 970 bf 0.214348 0.856812 0.783188 c 45 64 862 970 bf 0.378261 0.892609 0.617391
 c 45 64 907 970 bf 0.340435 0.884348 0.655652 c 46 64 952 970 bf 0.0378261 0.818261 0.961739 c 45 64 998 970 bf 0 0.555698 0.846163 c 46 64 1043 970 bf 0 0.81 1 c 45 64 1089 970 bf 0.10087 0.832029 0.897971 c 45 64 1134 970 bf 0 0.480349 0.800581 c
 46 64 1179 970 bf 0 0.762907 0.971512 c 45 64 1225 970 bf 0 0.508605 0.817674 c 45 64 1270 970 bf 0 0.527442 0.82907 c 46 64 1315 970 bf 0 0.301395 0.692326 c 45 64 1361 970 bf 0 0.555698 0.846163 c 45 64 1406 970 bf 0 0.433256 0.772093 c 46 64 1451
 970 bf 0 0.612209 0.880349 c 45 64 1497 970 bf 0 0.348488 0.720814 c 45 64 1542 970 bf 0 0.329651 0.709419 c 46 64 1587 970 bf 0 0.433256 0.772093 c 45 64 1633 970 bf 0 0.508605 0.817674 c 45 64 1678 970 bf 0 0.27314 0.675233 c 46 64 1723 970 bf 0
 0.329651 0.709419 c 45 64 1769 970 bf 0 0.169535 0.612558 c 46 64 1814 970 bf 0 0.226047 0.646744 c 45 64 1860 970 bf 0 0.0188372 0.521395 c 45 64 1905 970 bf 0 0.0753488 0.555581 c 46 65 317 1034 bf 0.138696 0.84029 0.85971 c 45 65 363 1034 bf
 0.416087 0.90087 0.57913 c 46 65 408 1034 bf 0.874407 0.972881 0.115932 c 45 65 454 1034 bf 0.819565 0.988985 0.171014 c 45 65 499 1034 bf 0.916271 0.715254 0.0772881 c 46 65 544 1034 bf 0.944915 0.538983 0.0508475 c 45 65 590 1034 bf 0.927288
 0.647458 0.0671186 c 45 65 635 1034 bf 0.892034 0.864407 0.099661 c 46 65 680 1034 bf 0.881017 0.932203 0.109831 c 45 65 726 1034 bf 0.416087 0.90087 0.57913 c 45 65 771 1034 bf 0.277391 0.87058 0.71942 c 46 65 816 1034 bf 0.138696 0.84029 0.85971 c
 45 65 862 1034 bf 0 0.706395 0.937326 c 45 65 907 1034 bf 0.340435 0.884348 0.655652 c 46 65 952 1034 bf 0 0.81 1 c 45 65 998 1034 bf 0 0.791163 0.988605 c 46 65 1043 1034 bf 0 0.659302 0.908837 c 45 65 1089 1034 bf 45 65 1134 1034 bf 0 0.433256
 0.772093 c 46 65 1179 1034 bf 0 0.527442 0.82907 c 45 65 1225 1034 bf 0 0.376744 0.737907 c 45 65 1270 1034 bf 0 0.348488 0.720814 c 46 65 1315 1034 bf 0 0.301395 0.692326 c 45 65 1361 1034 bf 0 0.348488 0.720814 c 45 65 1406 1034 bf 0 0.452093
 0.783488 c 46 65 1451 1034 bf 0 0.480349 0.800581 c 45 65 1497 1034 bf 0 0.376744 0.737907 c 45 65 1542 1034 bf 0 0.452093 0.783488 c 46 65 1587 1034 bf 0 0.433256 0.772093 c 45 65 1633 1034 bf 0 0.348488 0.720814 c 45 65 1678 1034 bf 46 65 1723
 1034 bf 0 0.197791 0.629651 c 45 65 1769 1034 bf 46 65 1814 1034 bf 0 0.301395 0.692326 c 45 65 1860 1034 bf 0 0.094186 0.566977 c 46 64 317 1099 bf 0 0.329651 0.709419 c 45 64 363 1099 bf 0 0.508605 0.817674 c 46 64 408 1099 bf 0 0.433256 0.772093
 c 45 64 454 1099 bf 0.176522 0.848551 0.821449 c 45 64 499 1099 bf 0.516957 0.922899 0.477101 c 46 64 544 1099 bf 0.892034 0.864407 0.099661 c 45 64 590 1099 bf 0.964146 0.185366 0 c 45 64 635 1099 bf 0.892034 0.864407 0.099661 c 46 64 680 1099 bf
 45 64 726 1099 bf 0.58 0.936667 0.413333 c 45 64 771 1099 bf 1 0.2 0 c 46 64 816 1099 bf 0.453913 0.90913 0.54087 c 45 64 862 1099 bf 0.617826 0.944928 0.375072 c 45 64 907 1099 bf 0.378261 0.892609 0.617391 c 46 64 952 1099 bf 45 64 998 1099 bf
 0.0378261 0.818261 0.961739 c 46 64 1043 1099 bf 0 0.612209 0.880349 c 45 64 1089 1099 bf 0.138696 0.84029 0.85971 c 45 64 1134 1099 bf 0 0.734651 0.954419 c 46 64 1179 1099 bf 0 0.480349 0.800581 c 45 64 1225 1099 bf 0 0.631047 0.891744 c 45 64
 1270 1099 bf 0 0.612209 0.880349 c 46 64 1315 1099 bf 0 0.480349 0.800581 c 45 64 1361 1099 bf 0 0.433256 0.772093 c 45 64 1406 1099 bf 0 0.348488 0.720814 c 46 64 1451 1099 bf 0 0.527442 0.82907 c 45 64 1497 1099 bf 0 0.376744 0.737907 c 45 64 1542
 1099 bf 0 0.583953 0.863256 c 46 64 1587 1099 bf 0 0.480349 0.800581 c 45 64 1633 1099 bf 0 0.527442 0.82907 c 45 64 1678 1099 bf 0 0.329651 0.709419 c 46 64 1723 1099 bf 0 0.555698 0.846163 c 45 64 1769 1099 bf 0 0.197791 0.629651 c 46 64 1814 1099
 bf 0 0.254302 0.663837 c 45 64 1860 1099 bf 0 0.150698 0.601163 c 46 65 317 1163 bf 0 0.508605 0.817674 c 45 65 363 1163 bf 0 0.583953 0.863256 c 46 65 408 1163 bf 0.10087 0.832029 0.897971 c 45 65 454 1163 bf 0 0.81 1 c 45 65 499 1163 bf 0.516957
 0.922899 0.477101 c 46 65 544 1163 bf 0 0.706395 0.937326 c 45 65 590 1163 bf 0.378261 0.892609 0.617391 c 45 65 635 1163 bf 0.554783 0.931159 0.438841 c 46 65 680 1163 bf 0.340435 0.884348 0.655652 c 45 65 726 1163 bf 45 65 771 1163 bf 0 0.612209
 0.880349 c 46 65 816 1163 bf 0 0.706395 0.937326 c 45 65 862 1163 bf 0 0.583953 0.863256 c 45 65 907 1163 bf 0 0.480349 0.800581 c 46 65 952 1163 bf 0 0.527442 0.82907 c 45 65 998 1163 bf 0 0.508605 0.817674 c 46 65 1043 1163 bf 0 0.376744 0.737907
 c 45 65 1089 1163 bf 0 0.706395 0.937326 c 45 65 1134 1163 bf 0 0.329651 0.709419 c 46 65 1179 1163 bf 0 0.197791 0.629651 c 45 65 1225 1163 bf 0 0.405 0.755 c 45 65 1270 1163 bf 0 0.706395 0.937326 c 46 65 1315 1163 bf 0 0.254302 0.663837 c 45 65
 1361 1163 bf 0 0.433256 0.772093 c 45 65 1406 1163 bf 0 0.405 0.755 c 46 65 1451 1163 bf 0 0.631047 0.891744 c 45 65 1497 1163 bf 0 0.555698 0.846163 c 45 65 1542 1163 bf 0 0.301395 0.692326 c 46 65 1587 1163 bf 0 0.452093 0.783488 c 45 65 1633 1163
 bf 0 0.433256 0.772093 c 45 65 1678 1163 bf 0 0.27314 0.675233 c 46 65 1723 1163 bf 0 0.122442 0.58407 c 45 65 1769 1163 bf 0 0.169535 0.612558 c 46 65 1814 1163 bf 0 0.150698 0.601163 c 45 65 1860 1163 bf 0 0.0188372 0.521395 c 45 65 1905 1163 bf
 46 65 317 1228 bf 0 0.405 0.755 c 45 65 363 1228 bf 0 0.612209 0.880349 c 46 65 408 1228 bf 45 65 454 1228 bf 0 0.734651 0.954419 c 45 65 499 1228 bf 0.239565 0.862319 0.757681 c 46 65 544 1228 bf 0.944915 0.538983 0.0508475 c 45 65 590 1228 bf
 0.964146 0.185366 0 c 45 65 635 1228 bf 0.922881 0.674576 0.0711864 c 46 65 680 1228 bf 0.819565 0.988985 0.171014 c 45 65 726 1228 bf 0.958136 0.457627 0.0386441 c 45 65 771 1228 bf 0.378261 0.892609 0.617391 c 46 65 816 1228 bf 0.554783 0.931159
 0.438841 c 45 65 862 1228 bf 0.516957 0.922899 0.477101 c 45 65 907 1228 bf 46 65 952 1228 bf 0.47913 0.914638 0.515362 c 45 65 998 1228 bf 0.10087 0.832029 0.897971 c 46 65 1043 1228 bf 0 0.791163 0.988605 c 45 65 1089 1228 bf 0 0.706395 0.937326 c
 45 65 1134 1228 bf 0 0.612209 0.880349 c 46 65 1179 1228 bf 0 0.508605 0.817674 c 45 65 1225 1228 bf 45 65 1270 1228 bf 46 65 1315 1228 bf 0 0.706395 0.937326 c 45 65 1361 1228 bf 0 0.452093 0.783488 c 45 65 1406 1228 bf 0 0.405 0.755 c 46 65 1451
 1228 bf 0 0.527442 0.82907 c 45 65 1497 1228 bf 0 0.376744 0.737907 c 45 65 1542 1228 bf 0 0.27314 0.675233 c 46 65 1587 1228 bf 0 0.433256 0.772093 c 45 65 1633 1228 bf 0 0.508605 0.817674 c 45 65 1678 1228 bf 0 0.433256 0.772093 c 46 65 1723 1228
 bf 0 0.254302 0.663837 c 45 65 1769 1228 bf 0 0.329651 0.709419 c 46 65 1814 1228 bf 0 0.197791 0.629651 c 45 65 1860 1228 bf 0 0.0753488 0.555581 c 46 64 317 1293 bf 0 0.508605 0.817674 c 45 64 363 1293 bf 0.416087 0.90087 0.57913 c 46 64 408 1293
 bf 0.138696 0.84029 0.85971 c 45 64 454 1293 bf 0.874407 0.972881 0.115932 c 45 64 499 1293 bf 0.315217 0.878841 0.681159 c 46 64 544 1293 bf 0.916271 0.715254 0.0772881 c 45 64 590 1293 bf 0.940508 0.566102 0.0549153 c 45 64 635 1293 bf 0.903051
 0.79661 0.0894915 c 46 64 680 1293 bf 0.693478 0.961449 0.298551 c 45 64 726 1293 bf 0.892034 0.864407 0.099661 c 45 64 771 1293 bf 0.857391 0.997246 0.132754 c 46 64 816 1293 bf 0.214348 0.856812 0.783188 c 45 64 862 1293 bf 0.58 0.936667 0.413333
 c 45 64 907 1293 bf 0.138696 0.84029 0.85971 c 46 64 952 1293 bf 0 0.706395 0.937326 c 45 64 998 1293 bf 0 0.555698 0.846163 c 46 64 1043 1293 bf 0 0.583953 0.863256 c 45 64 1089 1293 bf 0 0.687558 0.92593 c 45 64 1134 1293 bf 0 0.452093 0.783488 c
 46 64 1179 1293 bf 45 64 1225 1293 bf 0 0.348488 0.720814 c 45 64 1270 1293 bf 0 0.527442 0.82907 c 46 64 1315 1293 bf 0 0.329651 0.709419 c 45 64 1361 1293 bf 0 0.254302 0.663837 c 45 64 1406 1293 bf 0 0.301395 0.692326 c 46 64 1451 1293 bf 0
 0.480349 0.800581 c 45 64 1497 1293 bf 0 0.348488 0.720814 c 45 64 1542 1293 bf 46 64 1587 1293 bf 0 0.433256 0.772093 c 45 64 1633 1293 bf 0 0.301395 0.692326 c 45 64 1678 1293 bf 0 0.452093 0.783488 c 46 64 1723 1293 bf 0 0.122442 0.58407 c 45 64
 1769 1293 bf 0 0.254302 0.663837 c 46 64 1814 1293 bf 0 0.122442 0.58407 c 45 64 1860 1293 bf 0 0.0188372 0.521395 c 45 64 1905 1293 bf 0 0.122442 0.58407 c 45 65 363 1357 bf 0 0.226047 0.646744 c 46 65 408 1357 bf 0 0.348488 0.720814 c 45 65 454
 1357 bf 0 0.376744 0.737907 c 45 65 499 1357 bf 0 0.762907 0.971512 c 46 65 544 1357 bf 0.239565 0.862319 0.757681 c 45 65 590 1357 bf 0.277391 0.87058 0.71942 c 45 65 635 1357 bf 0.10087 0.832029 0.897971 c 46 65 680 1357 bf 0 0.81 1 c 45 65 726
 1357 bf 0.0756522 0.826522 0.923478 c 45 65 771 1357 bf 0 0.612209 0.880349 c 46 65 816 1357 bf 0 0.734651 0.954419 c 45 65 862 1357 bf 0 0.301395 0.692326 c 45 65 907 1357 bf 0 0.480349 0.800581 c 46 65 952 1357 bf 0 0.508605 0.817674 c 45 65 998
 1357 bf 0 0.329651 0.709419 c 46 65 1043 1357 bf 0 0.226047 0.646744 c 45 65 1089 1357 bf 0 0.329651 0.709419 c 45 65 1134 1357 bf 0 0.405 0.755 c 46 65 1179 1357 bf 0 0.301395 0.692326 c 45 65 1225 1357 bf 0 0.122442 0.58407 c 45 65 1270 1357 bf 46
 65 1315 1357 bf 0 0.226047 0.646744 c 45 65 1361 1357 bf 0 0.197791 0.629651 c 45 65 1406 1357 bf 0 0.254302 0.663837 c 46 65 1451 1357 bf 45 65 1497 1357 bf 0 0.169535 0.612558 c 45 65 1542 1357 bf 0 0.27314 0.675233 c 46 65 1587 1357 bf 0 0.150698
 0.601163 c 45 65 1633 1357 bf 0 0.226047 0.646744 c 45 65 1678 1357 bf 0 0.329651 0.709419 c 46 65 1723 1357 bf 0 0.301395 0.692326 c 45 65 1769 1357 bf 0 0.27314 0.675233 c 46 65 1814 1357 bf 0 0.254302 0.663837 c 45 65 1860 1357 bf 0 0.047093
 0.538488 c 45 65 1905 1357 bf 0 0.0188372 0.521395 c 46 65 317 1422 bf 0 0.0753488 0.555581 c 45 65 363 1422 bf 0 0.150698 0.601163 c 46 65 408 1422 bf 0 0.197791 0.629651 c 45 65 454 1422 bf 0 0.329651 0.709419 c 45 65 499 1422 bf 0 0.27314
 0.675233 c 46 65 544 1422 bf 0 0.631047 0.891744 c 45 65 590 1422 bf 0.10087 0.832029 0.897971 c 45 65 635 1422 bf 0 0.527442 0.82907 c 46 65 680 1422 bf 0 0.762907 0.971512 c 45 65 726 1422 bf 0.315217 0.878841 0.681159 c 45 65 771 1422 bf 0.214348
 0.856812 0.783188 c 46 65 816 1422 bf 0 0.687558 0.92593 c 45 65 862 1422 bf 0 0.405 0.755 c 45 65 907 1422 bf 0 0.612209 0.880349 c 46 65 952 1422 bf 0 0.583953 0.863256 c 45 65 998 1422 bf 0 0.612209 0.880349 c 46 65 1043 1422 bf 0 0.583953
 0.863256 c 45 65 1089 1422 bf 0 0.555698 0.846163 c 45 65 1134 1422 bf 0 0.122442 0.58407 c 46 65 1179 1422 bf 0 0.583953 0.863256 c 45 65 1225 1422 bf 0 0.433256 0.772093 c 45 65 1270 1422 bf 0 0.301395 0.692326 c 46 65 1315 1422 bf 0 0.150698
 0.601163 c 45 65 1361 1422 bf 45 65 1406 1422 bf 0 0.197791 0.629651 c 46 65 1451 1422 bf 0 0.452093 0.783488 c 45 65 1497 1422 bf 0 0.169535 0.612558 c 45 65 1542 1422 bf 0 0.329651 0.709419 c 46 65 1587 1422 bf 0 0.226047 0.646744 c 45 65 1633
 1422 bf 0 0.301395 0.692326 c 45 65 1678 1422 bf 0 0.150698 0.601163 c 46 65 1723 1422 bf 0 0.122442 0.58407 c 45 65 1769 1422 bf 0 0.226047 0.646744 c 46 65 1814 1422 bf 0 0.094186 0.566977 c 45 65 1860 1422 bf 0 0.047093 0.538488 c 45 65 1905 1422
 bf 0 0.0188372 0.521395 c 46 64 317 1487 bf 0 0.150698 0.601163 c 46 64 408 1487 bf 0 0.27314 0.675233 c 45 64 454 1487 bf 0 0.254302 0.663837 c 45 64 499 1487 bf 0 0.508605 0.817674 c 46 64 544 1487 bf 0 0.612209 0.880349 c 45 64 590 1487 bf 0
 0.762907 0.971512 c 45 64 635 1487 bf 0 0.81 1 c 46 64 680 1487 bf 45 64 726 1487 bf 0.10087 0.832029 0.897971 c 45 64 771 1487 bf 0.0756522 0.826522 0.923478 c 46 64 816 1487 bf 0 0.706395 0.937326 c 45 64 862 1487 bf 0 0.612209 0.880349 c 45 64
 907 1487 bf 0 0.734651 0.954419 c 46 64 952 1487 bf 0 0.631047 0.891744 c 45 64 998 1487 bf 0 0.405 0.755 c 46 64 1043 1487 bf 0 0.329651 0.709419 c 45 64 1089 1487 bf 0 0.480349 0.800581 c 45 64 1134 1487 bf 0 0.329651 0.709419 c 46 64 1179 1487 bf
 0 0.433256 0.772093 c 45 64 1225 1487 bf 0 0.527442 0.82907 c 45 64 1270 1487 bf 0 0.433256 0.772093 c 46 64 1315 1487 bf 0 0.27314 0.675233 c 45 64 1361 1487 bf 0 0.348488 0.720814 c 45 64 1406 1487 bf 0 0.169535 0.612558 c 46 64 1451 1487 bf 0
 0.301395 0.692326 c 45 64 1497 1487 bf 0 0.094186 0.566977 c 45 64 1542 1487 bf 0 0.301395 0.692326 c 46 64 1587 1487 bf 45 64 1633 1487 bf 0 0.226047 0.646744 c 45 64 1678 1487 bf 46 64 1723 1487 bf 0 0.169535 0.612558 c 45 64 1769 1487 bf 46 64
 1814 1487 bf 0 0.226047 0.646744 c 45 64 1860 1487 bf 0 0.0188372 0.521395 c 45 64 1905 1487 bf 0 0.047093 0.538488 c 46 65 317 1551 bf 0 0.254302 0.663837 c 45 65 363 1551 bf 0 0.197791 0.629651 c 46 65 408 1551 bf 0 0.348488 0.720814 c 45 65 454
 1551 bf 0 0.734651 0.954419 c 45 65 499 1551 bf 0 0.583953 0.863256 c 46 65 544 1551 bf 0 0.612209 0.880349 c 45 65 590 1551 bf 0.10087 0.832029 0.897971 c 45 65 635 1551 bf 0 0.734651 0.954419 c 46 65 680 1551 bf 0.138696 0.84029 0.85971 c 45 65
 726 1551 bf 0 0.687558 0.92593 c 45 65 771 1551 bf 0 0.659302 0.908837 c 46 65 816 1551 bf 0 0.527442 0.82907 c 45 65 862 1551 bf 0 0.555698 0.846163 c 45 65 907 1551 bf 0 0.527442 0.82907 c 46 65 952 1551 bf 45 65 998 1551 bf 0 0.348488 0.720814 c
 46 65 1043 1551 bf 0 0.301395 0.692326 c 45 65 1089 1551 bf 0 0.508605 0.817674 c 45 65 1134 1551 bf 0 0.452093 0.783488 c 46 65 1179 1551 bf 0 0.254302 0.663837 c 45 65 1225 1551 bf 0 0.150698 0.601163 c 45 65 1270 1551 bf 0 0.301395 0.692326 c 46
 65 1315 1551 bf 45 65 1361 1551 bf 45 65 1406 1551 bf 0 0.226047 0.646744 c 46 65 1451 1551 bf 0 0.197791 0.629651 c 45 65 1497 1551 bf 0 0.27314 0.675233 c 45 65 1542 1551 bf 0 0.254302 0.663837 c 46 65 1587 1551 bf 0 0.169535 0.612558 c 45 65 1633
 1551 bf 0 0.226047 0.646744 c 45 65 1678 1551 bf 0 0.0188372 0.521395 c 46 65 1723 1551 bf 0 0.27314 0.675233 c 45 65 1769 1551 bf 0 0.0753488 0.555581 c 46 65 1814 1551 bf 0 0.301395 0.692326 c 45 65 1860 1551 bf 0 0.0188372 0.521395 c 45 65 1905
 1551 bf 0 0.0753488 0.555581 c 46 64 317 1616 bf 0 0.254302 0.663837 c 45 64 363 1616 bf 0 0.27314 0.675233 c 46 64 408 1616 bf 0 0.508605 0.817674 c 45 64 454 1616 bf 0 0.659302 0.908837 c 45 64 499 1616 bf 0 0.687558 0.92593 c 46 64 544 1616 bf 0
 0.583953 0.863256 c 45 64 590 1616 bf 0 0.706395 0.937326 c 45 64 635 1616 bf 0 0.734651 0.954419 c 46 64 680 1616 bf 0 0.508605 0.817674 c 45 64 726 1616 bf 0 0.791163 0.988605 c 45 64 771 1616 bf 0 0.527442 0.82907 c 46 64 816 1616 bf 0 0.480349
 0.800581 c 45 64 862 1616 bf 0 0.376744 0.737907 c 45 64 907 1616 bf 0 0.508605 0.817674 c 46 64 952 1616 bf 0 0.226047 0.646744 c 45 64 998 1616 bf 0 0.329651 0.709419 c 46 64 1043 1616 bf 0 0.27314 0.675233 c 45 64 1089 1616 bf 0 0.301395 0.692326
 c 45 64 1134 1616 bf 0 0.254302 0.663837 c 46 64 1179 1616 bf 0 0.150698 0.601163 c 45 64 1225 1616 bf 0 0.376744 0.737907 c 45 64 1270 1616 bf 46 64 1315 1616 bf 0 0.094186 0.566977 c 45 64 1361 1616 bf 0 0.405 0.755 c 45 64 1406 1616 bf 0 0.094186
 0.566977 c 46 64 1451 1616 bf 0 0.254302 0.663837 c 45 64 1497 1616 bf 0 0.150698 0.601163 c 45 64 1542 1616 bf 46 64 1587 1616 bf 0 0.122442 0.58407 c 45 64 1633 1616 bf 0 0.169535 0.612558 c 45 64 1678 1616 bf 46 64 1723 1616 bf 0 0.150698
 0.601163 c 45 64 1769 1616 bf 0 0.094186 0.566977 c 46 64 1814 1616 bf 0 0.169535 0.612558 c 45 64 1860 1616 bf 0 0.047093 0.538488 c 46 65 317 1680 bf 0 0.150698 0.601163 c 45 65 363 1680 bf 0 0.226047 0.646744 c 46 65 408 1680 bf 0 0.348488
 0.720814 c 45 65 454 1680 bf 0 0.329651 0.709419 c 45 65 499 1680 bf 0 0.376744 0.737907 c 46 65 544 1680 bf 0.0756522 0.826522 0.923478 c 45 65 590 1680 bf 0.10087 0.832029 0.897971 c 45 65 635 1680 bf 0.0378261 0.818261 0.961739 c 46 65 680 1680
 bf 0 0.762907 0.971512 c 45 65 726 1680 bf 0.138696 0.84029 0.85971 c 45 65 771 1680 bf 0 0.480349 0.800581 c 46 65 816 1680 bf 45 65 862 1680 bf 0 0.583953 0.863256 c 45 65 907 1680 bf 0 0.376744 0.737907 c 46 65 952 1680 bf 0 0.583953 0.863256 c
 45 65 998 1680 bf 0 0.329651 0.709419 c 46 65 1043 1680 bf 0 0.433256 0.772093 c 45 65 1089 1680 bf 0 0.452093 0.783488 c 45 65 1134 1680 bf 0 0.405 0.755 c 46 65 1179 1680 bf 0 0.376744 0.737907 c 45 65 1225 1680 bf 0 0.226047 0.646744 c 45 65 1270
 1680 bf 0 0.254302 0.663837 c 46 65 1315 1680 bf 0 0.150698 0.601163 c 45 65 1361 1680 bf 0 0.405 0.755 c 45 65 1406 1680 bf 0 0.254302 0.663837 c 46 65 1451 1680 bf 0 0.329651 0.709419 c 45 65 1497 1680 bf 0 0.226047 0.646744 c 45 65 1542 1680 bf 0
 0.329651 0.709419 c 46 65 1587 1680 bf 0 0.0753488 0.555581 c 45 65 1633 1680 bf 0 0.122442 0.58407 c 45 65 1678 1680 bf 0 0.094186 0.566977 c 46 65 1723 1680 bf 0 0.226047 0.646744 c 45 65 1769 1680 bf 0 0.047093 0.538488 c 46 65 1814 1680 bf 0
 0.0753488 0.555581 c 45 65 1860 1680 bf 0 0.047093 0.538488 c 46 65 317 1745 bf 0 0.169535 0.612558 c 45 65 363 1745 bf 0 0.122442 0.58407 c 46 65 408 1745 bf 0 0.329651 0.709419 c 45 65 454 1745 bf 0 0.687558 0.92593 c 45 65 499 1745 bf 0 0.583953
 0.863256 c 46 65 544 1745 bf 0 0.734651 0.954419 c 45 65 590 1745 bf 0.340435 0.884348 0.655652 c 45 65 635 1745 bf 0.315217 0.878841 0.681159 c 46 65 680 1745 bf 0 0.659302 0.908837 c 45 65 726 1745 bf 0.0756522 0.826522 0.923478 c 45 65 771 1745
 bf 0 0.687558 0.92593 c 46 65 816 1745 bf 0 0.480349 0.800581 c 45 65 862 1745 bf 0 0.508605 0.817674 c 45 65 907 1745 bf 0 0.452093 0.783488 c 46 65 952 1745 bf 45 65 998 1745 bf 0 0.376744 0.737907 c 46 65 1043 1745 bf 0 0.301395 0.692326 c 45 65
 1089 1745 bf 0 0.348488 0.720814 c 45 65 1134 1745 bf 46 65 1179 1745 bf 45 65 1225 1745 bf 0 0.27314 0.675233 c 45 65 1270 1745 bf 0 0.254302 0.663837 c 46 65 1315 1745 bf 0 0.197791 0.629651 c 45 65 1361 1745 bf 0 0.150698 0.601163 c 45 65 1406
 1745 bf 0 0.27314 0.675233 c 46 65 1451 1745 bf 0 0.301395 0.692326 c 45 65 1497 1745 bf 0 0.27314 0.675233 c 45 65 1542 1745 bf 0 0.226047 0.646744 c 46 65 1587 1745 bf 0 0.301395 0.692326 c 45 65 1633 1745 bf 0 0.27314 0.675233 c 45 65 1678 1745
 bf 0 0.169535 0.612558 c 46 65 1723 1745 bf 0 0.047093 0.538488 c 45 65 1769 1745 bf 0 0.0753488 0.555581 c 46 65 1814 1745 bf 0 0.150698 0.601163 c 45 65 1860 1745 bf 0 0.329651 0.709419 c 45 64 363 1810 bf 0 0.706395 0.937326 c 46 64 408 1810 bf 0
 0.791163 0.988605 c 45 64 454 1810 bf 0 0.81 1 c 45 64 499 1810 bf 0.0756522 0.826522 0.923478 c 46 64 544 1810 bf 0.718696 0.966956 0.273043 c 45 64 590 1810 bf 0.58 0.936667 0.413333 c 45 64 635 1810 bf 46 64 680 1810 bf 0.554783 0.931159 0.438841
 c 45 64 726 1810 bf 0.277391 0.87058 0.71942 c 45 64 771 1810 bf 0 0.405 0.755 c 46 64 816 1810 bf 0 0.612209 0.880349 c 45 64 862 1810 bf 0 0.405 0.755 c 45 64 907 1810 bf 0 0.583953 0.863256 c 46 64 952 1810 bf 0 0.555698 0.846163 c 45 64 998 1810
 bf 0 0.583953 0.863256 c 46 64 1043 1810 bf 0 0.508605 0.817674 c 45 64 1089 1810 bf 0 0.376744 0.737907 c 45 64 1134 1810 bf 0 0.226047 0.646744 c 46 64 1179 1810 bf 0 0.169535 0.612558 c 45 64 1225 1810 bf 0 0.329651 0.709419 c 45 64 1270 1810 bf
 0 0.226047 0.646744 c 46 64 1315 1810 bf 0 0.169535 0.612558 c 45 64 1361 1810 bf 0 0.226047 0.646744 c 45 64 1406 1810 bf 0 0.169535 0.612558 c 46 64 1451 1810 bf 0 0.254302 0.663837 c 45 64 1497 1810 bf 0 0.169535 0.612558 c 45 64 1542 1810 bf 0
 0.254302 0.663837 c 46 64 1587 1810 bf 0 0.27314 0.675233 c 45 64 1633 1810 bf 0 0.254302 0.663837 c 45 64 1678 1810 bf 0 0.169535 0.612558 c 46 64 1723 1810 bf 0 0.094186 0.566977 c 45 64 1769 1810 bf 46 64 1814 1810 bf 0 0.0753488 0.555581 c 45 64
 1860 1810 bf 0 0.047093 0.538488 c 46 65 317 1874 bf 0 0.150698 0.601163 c 45 65 363 1874 bf 0 0.197791 0.629651 c 46 65 408 1874 bf 0 0.27314 0.675233 c 45 65 454 1874 bf 0 0.687558 0.92593 c 45 65 499 1874 bf 0.176522 0.848551 0.821449 c 46 65 544
 1874 bf 0.554783 0.931159 0.438841 c 45 65 590 1874 bf 0.617826 0.944928 0.375072 c 45 65 635 1874 bf 0.416087 0.90087 0.57913 c 46 65 680 1874 bf 0.0378261 0.818261 0.961739 c 45 65 726 1874 bf 0.416087 0.90087 0.57913 c 45 65 771 1874 bf 0
 0.659302 0.908837 c 46 65 816 1874 bf 45 65 862 1874 bf 0 0.631047 0.891744 c 45 65 907 1874 bf 0 0.659302 0.908837 c 46 65 952 1874 bf 0 0.452093 0.783488 c 45 65 998 1874 bf 0 0.348488 0.720814 c 46 65 1043 1874 bf 0 0.376744 0.737907 c 45 65 1089
 1874 bf 0 0.480349 0.800581 c 45 65 1134 1874 bf 0 0.254302 0.663837 c 46 65 1179 1874 bf 0 0.197791 0.629651 c 45 65 1225 1874 bf 0 0.226047 0.646744 c 45 65 1270 1874 bf 0 0.254302 0.663837 c 46 65 1315 1874 bf 0 0.169535 0.612558 c 45 65 1361
 1874 bf 0 0.197791 0.629651 c 45 65 1406 1874 bf 46 65 1451 1874 bf 0 0.226047 0.646744 c 45 65 1497 1874 bf 0 0.169535 0.612558 c 45 65 1542 1874 bf 0 0.197791 0.629651 c 46 65 1587 1874 bf 0 0.150698 0.601163 c 45 65 1633 1874 bf 45 65 1678 1874
 bf 0 0.197791 0.629651 c 46 65 1723 1874 bf 0 0.0188372 0.521395 c 45 65 1769 1874 bf 0 0.150698 0.601163 c 46 65 1814 1874 bf 0 0.122442 0.58407 c 45 65 1860 1874 bf 0 0.0188372 0.521395 c 45 65 1905 1874 bf 46 65 317 1939 bf 0 0.169535 0.612558 c
 45 65 363 1939 bf 0 0.197791 0.629651 c 46 65 408 1939 bf 0 0.27314 0.675233 c 45 65 454 1939 bf 45 65 499 1939 bf 0 0.480349 0.800581 c 46 65 544 1939 bf 0 0.791163 0.988605 c 45 65 590 1939 bf 0 0.659302 0.908837 c 45 65 635 1939 bf 0.378261
 0.892609 0.617391 c 46 65 680 1939 bf 0 0.706395 0.937326 c 45 65 726 1939 bf 0.277391 0.87058 0.71942 c 45 65 771 1939 bf 0.0378261 0.818261 0.961739 c 46 65 816 1939 bf 0 0.734651 0.954419 c 45 65 862 1939 bf 0 0.762907 0.971512 c 45 65 907 1939
 bf 0 0.508605 0.817674 c 46 65 952 1939 bf 0 0.555698 0.846163 c 45 65 998 1939 bf 0 0.433256 0.772093 c 46 65 1043 1939 bf 0 0.612209 0.880349 c 45 65 1089 1939 bf 45 65 1134 1939 bf 0 0.27314 0.675233 c 46 65 1179 1939 bf 0 0.329651 0.709419 c 45
 65 1225 1939 bf 45 65 1270 1939 bf 0 0.27314 0.675233 c 46 65 1315 1939 bf 0 0.254302 0.663837 c 45 65 1361 1939 bf 0 0.226047 0.646744 c 45 65 1406 1939 bf 0 0.27314 0.675233 c 46 65 1451 1939 bf 0 0.122442 0.58407 c 45 65 1497 1939 bf 0 0.254302
 0.663837 c 45 65 1542 1939 bf 0 0.122442 0.58407 c 46 65 1587 1939 bf 0 0.254302 0.663837 c 45 65 1633 1939 bf 0 0.0188372 0.521395 c 45 65 1678 1939 bf 0 0.122442 0.58407 c 46 65 1723 1939 bf 45 65 1769 1939 bf 0 0.226047 0.646744 c 46 65 1814 1939
 bf 0 0.122442 0.58407 c 45 65 1860 1939 bf 0 0.047093 0.538488 c 45 65 1905 1939 bf 45 64 363 2004 bf 0 0.0188372 0.521395 c 46 64 408 2004 bf 0 0.094186 0.566977 c 45 64 454 2004 bf 0 0.150698 0.601163 c 45 64 499 2004 bf 0 0.169535 0.612558 c 46
 64 544 2004 bf 0 0.376744 0.737907 c 45 64 590 2004 bf 0 0.348488 0.720814 c 45 64 635 2004 bf 0 0.405 0.755 c 46 64 680 2004 bf 0 0.169535 0.612558 c 45 64 726 2004 bf 0 0.480349 0.800581 c 45 64 771 2004 bf 0 0.301395 0.692326 c 46 64 816 2004 bf
 0 0.329651 0.709419 c 45 64 862 2004 bf 45 64 907 2004 bf 0 0.376744 0.737907 c 46 64 952 2004 bf 0 0.348488 0.720814 c 45 64 998 2004 bf 0 0.527442 0.82907 c 46 64 1043 2004 bf 0 0.433256 0.772093 c 45 64 1089 2004 bf 0 0.329651 0.709419 c 45 64
 1134 2004 bf 0 0.433256 0.772093 c 46 64 1179 2004 bf 0 0.480349 0.800581 c 45 64 1225 2004 bf 0 0.329651 0.709419 c 45 64 1270 2004 bf 0 0.687558 0.92593 c 46 64 1315 2004 bf 0 0.405 0.755 c 45 64 1361 2004 bf 0 0.301395 0.692326 c 45 64 1406 2004
 bf 0 0.150698 0.601163 c 46 64 1451 2004 bf 0 0.197791 0.629651 c 45 64 1497 2004 bf 0 0.122442 0.58407 c 45 64 1542 2004 bf 0 0.197791 0.629651 c 46 64 1587 2004 bf 0 0.094186 0.566977 c 45 64 1633 2004 bf 0 0.0753488 0.555581 c 45 64 1678 2004 bf
 0 0.169535 0.612558 c 46 64 1723 2004 bf 0 0.122442 0.58407 c 45 64 1769 2004 bf 0 0.197791 0.629651 c 46 64 1814 2004 bf 0 0.122442 0.58407 c 45 64 1860 2004 bf 0 0.0188372 0.521395 c 45 64 1905 2004 bf 0 0.047093 0.538488 c 45 65 363 2068 bf 46 65
 408 2068 bf 0 0.094186 0.566977 c 45 65 454 2068 bf 0 0.047093 0.538488 c 45 65 499 2068 bf 0 0.150698 0.601163 c 46 65 544 2068 bf 0 0.27314 0.675233 c 45 65 590 2068 bf 0 0.480349 0.800581 c 45 65 635 2068 bf 0 0.433256 0.772093 c 46 65 680 2068
 bf 0 0.254302 0.663837 c 45 65 726 2068 bf 0 0.197791 0.629651 c 45 65 771 2068 bf 0 0.094186 0.566977 c 46 65 816 2068 bf 0 0.047093 0.538488 c 45 65 862 2068 bf 45 65 907 2068 bf 46 65 952 2068 bf 45 65 998 2068 bf 46 65 1043 2068 bf 0 0.0188372
 0.521395 c 45 65 1089 2068 bf 0 0.047093 0.538488 c 45 65 1134 2068 bf 46 65 1179 2068 bf 0 0.0188372 0.521395 c 45 65 1225 2068 bf 45 65 1270 2068 bf 46 65 1315 2068 bf 45 65 1497 2068 bf 46 65 1587 2068 bf 45 65 1633 2068 bf 1 1 1 c black 3 lw 227
 259 m 1814 X s
 gsave  2268 2585 0 0 C 591.188 34.625 t 0 r /Helvetica findfont 105.872 sf 0 0 m 
 1377 1348 1318 1289 1230 1201 1148 1089 1024 965 906 882 853 830 777 718 647 618 588 535 506 482 406 347 288 265 235 212 159 100 29
(fPositionHits.fPositionVector.fX) K NC gr  352 300 m -41 Y s 414 279 m -20 Y s 477 279 m -20 Y s 540 279 m -20 Y s 602 279 m -20 Y s 665 300 m -41 Y s 727 279 m -20 Y s 790 279 m -20 Y s 852 279 m -20 Y s 915 279 m -20 Y s 977 300 m -41 Y s 1040 279
 m -20 Y s 1103 279 m -20 Y s 1165 279 m -20 Y s 1228 279 m -20 Y s 1290 300 m -41 Y s 1353 279 m -20 Y s 1415 279 m -20 Y s 1478 279 m -20 Y s 1540 279 m -20 Y s 1603 300 m -41 Y s 1666 279 m -20 Y s 1728 279 m -20 Y s 1791 279 m -20 Y s 1853 279 m
 -20 Y s 1916 300 m -41 Y s 352 300 m -41 Y s 289 279 m -20 Y s 227 279 m -20 Y s 1916 300 m -41 Y s 1978 279 m -20 Y s
 gsave  2268 2585 0 0 C 283.812 130.25 t 0 r /Helvetica findfont 95.6266 sf 0 0 m (\25550) show NC gr 
 gsave  2268 2585 0 0 C 635.562 130.25 t 0 r /Helvetica findfont 95.6266 sf 0 0 m (0) show NC gr 
 gsave  2268 2585 0 0 C 925.812 130.25 t 0 r /Helvetica findfont 95.6266 sf 0 0 m (50) show NC gr 
 gsave  2268 2585 0 0 C 1209.31 130.25 t 0 r /Helvetica findfont 95.6266 sf 0 0 m (100) show NC gr 
 gsave  2268 2585 0 0 C 1523.5 130.25 t 0 r /Helvetica findfont 95.6266 sf 0 0 m (150) show NC gr 
 gsave  2268 2585 0 0 C 1834.31 130.25 t 0 r /Helvetica findfont 95.6266 sf 0 0 m (200) show NC gr  227 2327 m 1814 X s 352 2285 m 42 Y s 414 2306 m 21 Y s 477 2306 m 21 Y s 540 2306 m 21 Y s 602 2306 m 21 Y s 665 2285 m 42 Y s 727 2306 m 21 Y s 790
 2306 m 21 Y s 852 2306 m 21 Y s 915 2306 m 21 Y s 977 2285 m 42 Y s 1040 2306 m 21 Y s 1103 2306 m 21 Y s 1165 2306 m 21 Y s 1228 2306 m 21 Y s 1290 2285 m 42 Y s 1353 2306 m 21 Y s 1415 2306 m 21 Y s 1478 2306 m 21 Y s 1540 2306 m 21 Y s 1603 2285
 m 42 Y s 1666 2306 m 21 Y s 1728 2306 m 21 Y s 1791 2306 m 21 Y s 1853 2306 m 21 Y s 1916 2285 m 42 Y s 352 2285 m 42 Y s 289 2306 m 21 Y s 227 2306 m 21 Y s 1916 2285 m 42 Y s 1978 2306 m 21 Y s 227 259 m 2068 Y s
 gsave  2268 2585 0 0 C 99.4375 1137.69 t 90 r /Helvetica findfont 105.872 sf 0 0 m (fPositionHits.fBarNumber) show NC gr  263 259 m -36 X s 245 323 m -18 X s 245 388 m -18 X s 245 452 m -18 X s 245 517 m -18 X s 263 582 m -36 X s 245 646 m -18 X s
 245 711 m -18 X s 245 776 m -18 X s 245 840 m -18 X s 263 905 m -36 X s 245 970 m -18 X s 245 1034 m -18 X s 245 1099 m -18 X s 245 1163 m -18 X s 263 1228 m -36 X s 245 1293 m -18 X s 245 1357 m -18 X s 245 1422 m -18 X s 245 1487 m -18 X s 263
 1551 m -36 X s 245 1616 m -18 X s 245 1680 m -18 X s 245 1745 m -18 X s 245 1810 m -18 X s 263 1874 m -36 X s 245 1939 m -18 X s 245 2004 m -18 X s 245 2068 m -18 X s 245 2133 m -18 X s 263 2198 m -36 X s 263 2198 m -36 X s 245 2262 m -18 X s 245
 2327 m -18 X s
 gsave  2268 2585 0 0 C 140.375 222.5 t 0 r /Helvetica findfont 95.6266 sf 0 0 m (0) show NC gr 
 gsave  2268 2585 0 0 C 140.375 550.312 t 0 r /Helvetica findfont 95.6266 sf 0 0 m (5) show NC gr 
 gsave  2268 2585 0 0 C 89.1875 867.938 t 0 r /Helvetica findfont 95.6266 sf 0 0 m (10) show NC gr 
 gsave  2268 2585 0 0 C 85.75 1192.38 t 0 r /Helvetica findfont 95.6266 sf 0 0 m (15) show NC gr 
 gsave  2268 2585 0 0 C 89.1875 1516.81 t 0 r /Helvetica findfont 95.6266 sf 0 0 m (20) show NC gr 
 gsave  2268 2585 0 0 C 85.75 1837.81 t 0 r /Helvetica findfont 95.6266 sf 0 0 m (25) show NC gr 
 gsave  2268 2585 0 0 C 89.1875 2162.31 t 0 r /Helvetica findfont 95.6266 sf 0 0 m (30) show NC gr  2041 259 m 2068 Y s 2005 259 m 36 X s 2023 323 m 18 X s 2023 388 m 18 X s 2023 452 m 18 X s 2023 517 m 18 X s 2005 582 m 36 X s 2023 646 m 18 X s 2023
 711 m 18 X s 2023 776 m 18 X s 2023 840 m 18 X s 2005 905 m 36 X s 2023 970 m 18 X s 2023 1034 m 18 X s 2023 1099 m 18 X s 2023 1163 m 18 X s 2005 1228 m 36 X s 2023 1293 m 18 X s 2023 1357 m 18 X s 2023 1422 m 18 X s 2023 1487 m 18 X s 2005 1551 m
 36 X s 2023 1616 m 18 X s 2023 1680 m 18 X s 2023 1745 m 18 X s 2023 1810 m 18 X s 2005 1874 m 36 X s 2023 1939 m 18 X s 2023 2004 m 18 X s 2023 2068 m 18 X s 2023 2133 m 18 X s 2005 2198 m 36 X s 2005 2198 m 36 X s 2023 2262 m 18 X s 2023 2327 m 18
 X s 0 0 0.51 c 68 8 2049 260 bf 0 0.0094186 0.515698 c 68 8 2049 268 bf 0 0.0188372 0.521395 c 68 8 2049 276 bf 0 0.0282558 0.527093 c 68 8 2049 284 bf 0 0.0376744 0.532791 c 68 8 2049 292 bf 0 0.047093 0.538488 c 68 8 2049 300 bf 0 0.0565116
 0.544186 c 68 8 2049 308 bf 0 0.0659302 0.549884 c 68 8 2049 316 bf 0 0.0753488 0.555581 c 68 9 2049 324 bf 0 0.0847674 0.561279 c 68 8 2049 333 bf 0 0.094186 0.566977 c 68 8 2049 341 bf 0 0.103605 0.572674 c 68 8 2049 349 bf 0 0.113023 0.578372 c
 68 8 2049 357 bf 0 0.122442 0.58407 c 68 8 2049 365 bf 0 0.13186 0.589767 c 68 8 2049 373 bf 0 0.141279 0.595465 c 68 8 2049 381 bf 0 0.150698 0.601163 c 68 9 2049 389 bf 0 0.160116 0.60686 c 68 8 2049 398 bf 0 0.169535 0.612558 c 68 8 2049 406 bf 0
 0.178953 0.618256 c 68 8 2049 414 bf 0 0.188372 0.623953 c 68 8 2049 422 bf 0 0.197791 0.629651 c 68 8 2049 430 bf 0 0.207209 0.635349 c 68 8 2049 438 bf 0 0.216628 0.641047 c 68 8 2049 446 bf 0 0.226047 0.646744 c 68 8 2049 454 bf 0 0.235465
 0.652442 c 68 9 2049 462 bf 0 0.244884 0.65814 c 68 8 2049 471 bf 0 0.254302 0.663837 c 68 8 2049 479 bf 0 0.263721 0.669535 c 68 8 2049 487 bf 0 0.27314 0.675233 c 68 8 2049 495 bf 0 0.282558 0.68093 c 68 8 2049 503 bf 0 0.291977 0.686628 c 68 8
 2049 511 bf 0 0.301395 0.692326 c 68 8 2049 519 bf 0 0.310814 0.698023 c 68 9 2049 527 bf 0 0.320233 0.703721 c 68 8 2049 536 bf 0 0.329651 0.709419 c 68 8 2049 544 bf 0 0.33907 0.715116 c 68 8 2049 552 bf 0 0.348488 0.720814 c 68 8 2049 560 bf 0
 0.357907 0.726512 c 68 8 2049 568 bf 0 0.367326 0.732209 c 68 8 2049 576 bf 0 0.376744 0.737907 c 68 8 2049 584 bf 0 0.386163 0.743605 c 68 8 2049 592 bf 0 0.395581 0.749302 c 68 9 2049 600 bf 0 0.405 0.755 c 68 8 2049 609 bf 0 0.414419 0.760698 c
 68 8 2049 617 bf 0 0.423837 0.766395 c 68 8 2049 625 bf 0 0.433256 0.772093 c 68 8 2049 633 bf 0 0.442674 0.777791 c 68 8 2049 641 bf 0 0.452093 0.783488 c 68 8 2049 649 bf 0 0.461512 0.789186 c 68 8 2049 657 bf 0 0.47093 0.794884 c 68 8 2049 665 bf
 0 0.480349 0.800581 c 68 9 2049 673 bf 0 0.489767 0.806279 c 68 8 2049 682 bf 0 0.499186 0.811977 c 68 8 2049 690 bf 0 0.508605 0.817674 c 68 8 2049 698 bf 0 0.518023 0.823372 c 68 8 2049 706 bf 0 0.527442 0.82907 c 68 8 2049 714 bf 0 0.53686
 0.834767 c 68 8 2049 722 bf 0 0.546279 0.840465 c 68 8 2049 730 bf 0 0.555698 0.846163 c 68 9 2049 738 bf 0 0.565116 0.85186 c 68 8 2049 747 bf 0 0.574535 0.857558 c 68 8 2049 755 bf 0 0.583953 0.863256 c 68 8 2049 763 bf 0 0.593372 0.868953 c 68 8
 2049 771 bf 0 0.602791 0.874651 c 68 8 2049 779 bf 0 0.612209 0.880349 c 68 8 2049 787 bf 0 0.621628 0.886047 c 68 8 2049 795 bf 0 0.631047 0.891744 c 68 8 2049 803 bf 0 0.640465 0.897442 c 68 9 2049 811 bf 0 0.649884 0.90314 c 68 8 2049 820 bf 0
 0.659302 0.908837 c 68 8 2049 828 bf 0 0.668721 0.914535 c 68 8 2049 836 bf 0 0.67814 0.920233 c 68 8 2049 844 bf 0 0.687558 0.92593 c 68 8 2049 852 bf 0 0.696977 0.931628 c 68 8 2049 860 bf 0 0.706395 0.937326 c 68 8 2049 868 bf 0 0.715814 0.943023
 c 68 9 2049 876 bf 0 0.725233 0.948721 c 68 8 2049 885 bf 0 0.734651 0.954419 c 68 8 2049 893 bf 0 0.74407 0.960116 c 68 8 2049 901 bf 0 0.753488 0.965814 c 68 8 2049 909 bf 0 0.762907 0.971512 c 68 8 2049 917 bf 0 0.772326 0.977209 c 68 8 2049 925
 bf 0 0.781744 0.982907 c 68 8 2049 933 bf 0 0.791163 0.988605 c 68 8 2049 941 bf 0 0.800581 0.994302 c 68 9 2049 949 bf 0 0.81 1 c 68 8 2049 958 bf 0.0126087 0.812754 0.987246 c 68 8 2049 966 bf 0.0252174 0.815507 0.974493 c 68 8 2049 974 bf
 0.0378261 0.818261 0.961739 c 68 8 2049 982 bf 0.0504348 0.821014 0.948986 c 68 8 2049 990 bf 0.0630435 0.823768 0.936232 c 68 8 2049 998 bf 0.0756522 0.826522 0.923478 c 68 8 2049 1006 bf 0.0882609 0.829275 0.910725 c 68 8 2049 1014 bf 0.10087
 0.832029 0.897971 c 68 9 2049 1022 bf 0.113478 0.834783 0.885217 c 68 8 2049 1031 bf 0.126087 0.837536 0.872464 c 68 8 2049 1039 bf 0.138696 0.84029 0.85971 c 68 8 2049 1047 bf 0.151304 0.843044 0.846957 c 68 8 2049 1055 bf 0.163913 0.845797
 0.834203 c 68 8 2049 1063 bf 0.176522 0.848551 0.821449 c 68 8 2049 1071 bf 0.18913 0.851304 0.808696 c 68 8 2049 1079 bf 0.201739 0.854058 0.795942 c 68 9 2049 1087 bf 0.214348 0.856812 0.783188 c 68 8 2049 1096 bf 0.226957 0.859565 0.770435 c 68 8
 2049 1104 bf 0.239565 0.862319 0.757681 c 68 8 2049 1112 bf 0.252174 0.865072 0.744928 c 68 8 2049 1120 bf 0.264783 0.867826 0.732174 c 68 8 2049 1128 bf 0.277391 0.87058 0.71942 c 68 8 2049 1136 bf 0.29 0.873333 0.706667 c 68 8 2049 1144 bf
 0.302609 0.876087 0.693913 c 68 8 2049 1152 bf 0.315217 0.878841 0.681159 c 68 9 2049 1160 bf 0.327826 0.881594 0.668406 c 68 8 2049 1169 bf 0.340435 0.884348 0.655652 c 68 8 2049 1177 bf 0.353043 0.887101 0.642899 c 68 8 2049 1185 bf 0.365652
 0.889855 0.630145 c 68 8 2049 1193 bf 0.378261 0.892609 0.617391 c 68 8 2049 1201 bf 0.39087 0.895362 0.604638 c 68 8 2049 1209 bf 0.403478 0.898116 0.591884 c 68 8 2049 1217 bf 0.416087 0.90087 0.57913 c 68 9 2049 1225 bf 0.428696 0.903623 0.566377
 c 68 8 2049 1234 bf 0.441304 0.906377 0.553623 c 68 8 2049 1242 bf 0.453913 0.90913 0.54087 c 68 8 2049 1250 bf 0.466522 0.911884 0.528116 c 68 8 2049 1258 bf 0.47913 0.914638 0.515362 c 68 8 2049 1266 bf 0.491739 0.917391 0.502609 c 68 8 2049 1274
 bf 0.504348 0.920145 0.489855 c 68 8 2049 1282 bf 0.516957 0.922899 0.477101 c 68 8 2049 1290 bf 0.529565 0.925652 0.464348 c 68 9 2049 1298 bf 0.542174 0.928406 0.451594 c 68 8 2049 1307 bf 0.554783 0.931159 0.438841 c 68 8 2049 1315 bf 0.567391
 0.933913 0.426087 c 68 8 2049 1323 bf 0.58 0.936667 0.413333 c 68 8 2049 1331 bf 0.592609 0.93942 0.40058 c 68 8 2049 1339 bf 0.605217 0.942174 0.387826 c 68 8 2049 1347 bf 0.617826 0.944928 0.375072 c 68 8 2049 1355 bf 0.630435 0.947681 0.362319 c
 68 8 2049 1363 bf 0.643043 0.950435 0.349565 c 68 9 2049 1371 bf 0.655652 0.953188 0.336812 c 68 8 2049 1380 bf 0.668261 0.955942 0.324058 c 68 8 2049 1388 bf 0.68087 0.958696 0.311304 c 68 8 2049 1396 bf 0.693478 0.961449 0.298551 c 68 8 2049 1404
 bf 0.706087 0.964203 0.285797 c 68 8 2049 1412 bf 0.718696 0.966956 0.273043 c 68 8 2049 1420 bf 0.731304 0.96971 0.26029 c 68 8 2049 1428 bf 0.743913 0.972464 0.247536 c 68 9 2049 1436 bf 0.756522 0.975217 0.234783 c 68 8 2049 1445 bf 0.76913
 0.977971 0.222029 c 68 8 2049 1453 bf 0.781739 0.980725 0.209275 c 68 8 2049 1461 bf 0.794348 0.983478 0.196522 c 68 8 2049 1469 bf 0.806957 0.986232 0.183768 c 68 8 2049 1477 bf 0.819565 0.988985 0.171014 c 68 8 2049 1485 bf 0.832174 0.991739
 0.158261 c 68 8 2049 1493 bf 0.844783 0.994493 0.145507 c 68 8 2049 1501 bf 0.857391 0.997246 0.132754 c 68 9 2049 1509 bf 0.87 1 0.12 c 68 8 2049 1518 bf 0.872203 0.986441 0.117966 c 68 8 2049 1526 bf 0.874407 0.972881 0.115932 c 68 8 2049 1534 bf
 0.87661 0.959322 0.113898 c 68 8 2049 1542 bf 0.878814 0.945763 0.111864 c 68 8 2049 1550 bf 0.881017 0.932203 0.109831 c 68 8 2049 1558 bf 0.88322 0.918644 0.107797 c 68 8 2049 1566 bf 0.885424 0.905085 0.105763 c 68 8 2049 1574 bf 0.887627
 0.891525 0.103729 c 68 9 2049 1582 bf 0.889831 0.877966 0.101695 c 68 8 2049 1591 bf 0.892034 0.864407 0.099661 c 68 8 2049 1599 bf 0.894237 0.850847 0.0976271 c 68 8 2049 1607 bf 0.896441 0.837288 0.0955932 c 68 8 2049 1615 bf 0.898644 0.823729
 0.0935593 c 68 8 2049 1623 bf 0.900847 0.81017 0.0915254 c 68 8 2049 1631 bf 0.903051 0.79661 0.0894915 c 68 8 2049 1639 bf 0.905254 0.783051 0.0874576 c 68 9 2049 1647 bf 0.907458 0.769492 0.0854237 c 68 8 2049 1656 bf 0.909661 0.755932 0.0833898 c
 68 8 2049 1664 bf 0.911864 0.742373 0.0813559 c 68 8 2049 1672 bf 0.914068 0.728814 0.079322 c 68 8 2049 1680 bf 0.916271 0.715254 0.0772881 c 68 8 2049 1688 bf 0.918475 0.701695 0.0752542 c 68 8 2049 1696 bf 0.920678 0.688136 0.0732203 c 68 8 2049
 1704 bf 0.922881 0.674576 0.0711864 c 68 8 2049 1712 bf 0.925085 0.661017 0.0691525 c 68 9 2049 1720 bf 0.927288 0.647458 0.0671186 c 68 8 2049 1729 bf 0.929492 0.633898 0.0650847 c 68 8 2049 1737 bf 0.931695 0.620339 0.0630508 c 68 8 2049 1745 bf
 0.933898 0.60678 0.061017 c 68 8 2049 1753 bf 0.936102 0.59322 0.0589831 c 68 8 2049 1761 bf 0.938305 0.579661 0.0569492 c 68 8 2049 1769 bf 0.940508 0.566102 0.0549153 c 68 8 2049 1777 bf 0.942712 0.552542 0.0528814 c 68 9 2049 1785 bf 0.944915
 0.538983 0.0508475 c 68 8 2049 1794 bf 0.947119 0.525424 0.0488136 c 68 8 2049 1802 bf 0.949322 0.511864 0.0467797 c 68 8 2049 1810 bf 0.951525 0.498305 0.0447458 c 68 8 2049 1818 bf 0.953729 0.484746 0.0427119 c 68 8 2049 1826 bf 0.955932 0.471186
 0.040678 c 68 8 2049 1834 bf 0.958136 0.457627 0.0386441 c 68 8 2049 1842 bf 0.960339 0.444068 0.0366102 c 68 8 2049 1850 bf 0.962542 0.430508 0.0345763 c 68 9 2049 1858 bf 0.964746 0.416949 0.0325424 c 68 8 2049 1867 bf 0.966949 0.40339 0.0305085 c
 68 8 2049 1875 bf 0.969153 0.38983 0.0284746 c 68 8 2049 1883 bf 0.971356 0.376271 0.0264407 c 68 8 2049 1891 bf 0.973559 0.362712 0.0244068 c 68 8 2049 1899 bf 0.975763 0.349153 0.0223729 c 68 8 2049 1907 bf 0.977966 0.335593 0.020339 c 68 8 2049
 1915 bf 0.980169 0.322034 0.0183051 c 68 8 2049 1923 bf 0.982373 0.308475 0.0162712 c 68 9 2049 1931 bf 0.984576 0.294915 0.0142373 c 68 8 2049 1940 bf 0.98678 0.281356 0.0122034 c 68 8 2049 1948 bf 0.988983 0.267797 0.0101695 c 68 8 2049 1956 bf
 0.991186 0.254237 0.00813559 c 68 8 2049 1964 bf 0.99339 0.240678 0.00610169 c 68 8 2049 1972 bf 0.995593 0.227119 0.0040678 c 68 8 2049 1980 bf 0.997797 0.213559 0.0020339 c 68 8 2049 1988 bf 1 0.2 0 c 68 9 2049 1996 bf 0.988049 0.195122 0 c 68 8
 2049 2005 bf 0.976098 0.190244 0 c 68 8 2049 2013 bf 0.964146 0.185366 0 c 68 8 2049 2021 bf 0.952195 0.180488 0 c 68 8 2049 2029 bf 0.940244 0.17561 0 c 68 8 2049 2037 bf 0.928293 0.170732 0 c 68 8 2049 2045 bf 0.916341 0.165854 0 c 68 8 2049 2053
 bf 0.90439 0.160976 0 c 68 8 2049 2061 bf 0.892439 0.156098 0 c 68 9 2049 2069 bf 0.880488 0.15122 0 c 68 8 2049 2078 bf 0.868537 0.146341 0 c 68 8 2049 2086 bf 0.856585 0.141463 0 c 68 8 2049 2094 bf 0.844634 0.136585 0 c 68 8 2049 2102 bf 0.832683
 0.131707 0 c 68 8 2049 2110 bf 0.820732 0.126829 0 c 68 8 2049 2118 bf 0.80878 0.121951 0 c 68 8 2049 2126 bf 0.796829 0.117073 0 c 68 9 2049 2134 bf 0.784878 0.112195 0 c 68 8 2049 2143 bf 0.772927 0.107317 0 c 68 8 2049 2151 bf 0.760976 0.102439 0
 c 68 8 2049 2159 bf 0.749024 0.097561 0 c 68 8 2049 2167 bf 0.737073 0.0926829 0 c 68 8 2049 2175 bf 0.725122 0.0878049 0 c 68 8 2049 2183 bf 0.713171 0.0829268 0 c 68 8 2049 2191 bf 0.701219 0.0780488 0 c 68 8 2049 2199 bf 0.689268 0.0731707 0 c 68
 9 2049 2207 bf 0.677317 0.0682927 0 c 68 8 2049 2216 bf 0.665366 0.0634146 0 c 68 8 2049 2224 bf 0.653415 0.0585366 0 c 68 8 2049 2232 bf 0.641463 0.0536585 0 c 68 8 2049 2240 bf 0.629512 0.0487805 0 c 68 8 2049 2248 bf 0.617561 0.0439024 0 c 68 8
 2049 2256 bf 0.60561 0.0390244 0 c 68 8 2049 2264 bf 0.593659 0.0341463 0 c 68 8 2049 2272 bf 0.581707 0.0292683 0 c 68 9 2049 2280 bf 0.569756 0.0243902 0 c 68 8 2049 2289 bf 0.557805 0.0195122 0 c 68 8 2049 2297 bf 0.545854 0.0146341 0 c 68 8 2049
 2305 bf 0.533902 0.0097561 0 c 68 8 2049 2313 bf 0.521951 0.00487805 0 c 68 8 2049 2321 bf black 2117 260 m 2069 Y s 2081 260 m 36 X s 2081 480 m 36 X s 2081 700 m 36 X s 2081 920 m 36 X s 2081 1140 m 36 X s 2081 1360 m 36 X s 2081 1581 m 36 X s
 2081 1801 m 36 X s 2081 2021 m 36 X s 2081 2241 m 36 X s 2081 2241 m 36 X s
 gsave  2268 2585 0 0 C 2148.5 222.5 t 0 r /Helvetica findfont 95.6266 sf 0 0 m (0) show NC gr 
 gsave  2268 2585 0 0 C 2148.5 444.438 t 0 r /Helvetica findfont 95.6266 sf 0 0 m (10) show NC gr 
 gsave  2268 2585 0 0 C 2148.5 663 t 0 r /Helvetica findfont 95.6266 sf 0 0 m (20) show NC gr 
 gsave  2268 2585 0 0 C 2148.5 885 t 0 r /Helvetica findfont 95.6266 sf 0 0 m (30) show NC gr 
 gsave  2268 2585 0 0 C 2148.5 1103.56 t 0 r /Helvetica findfont 95.6266 sf 0 0 m (40) show NC gr 
 gsave  2268 2585 0 0 C 2148.5 1325.56 t 0 r /Helvetica findfont 95.6266 sf 0 0 m (50) show NC gr 
 gsave  2268 2585 0 0 C 2148.5 1544.12 t 0 r /Helvetica findfont 95.6266 sf 0 0 m (60) show NC gr 
 gsave  2268 2585 0 0 C 2148.5 1766.12 t 0 r /Helvetica findfont 95.6266 sf 0 0 m (70) show NC gr 
 gsave  2268 2585 0 0 C 2148.5 1984.69 t 0 r /Helvetica findfont 95.6266 sf 0 0 m (80) show NC gr 
 gsave  2268 2585 0 0 C 2148.5 2206.69 t 0 r /Helvetica findfont 95.6266 sf 0 0 m (90) show NC gr  1 1 1 c black
 gsave  2268 2585 0 0 C 376.062 2497 t 0 r /Helvetica findfont 20.4914 sf 0 0 m 
 1613 1607 1603 1587 1572 1556 1543 1532 1526 1521 1510 1498 1487 1475 1463 1451 1434 1428 1422 1412 1405 1393 1387 1376 1364 1360 1344 1339 1328 1317 1305 1300 1288 1274 1260 1248 1236 1224 1218 1206 1192 1186 1180 1174 1162 1156 1145 1134 1121 1109
 1097 1092 1086 1081 1071 1059 1045 1039 1033 1022 1016 1011 996 984 972 968 962 957 946 934 920 914 900 886 874 862 855 842 828 822 816 810 798 793 782 770 757 745 733 728 722 718 707 695 681 675 669 658 652 648 632 620 609 604 598 593 582 571 556
 550 543 537 523 517 511 505 493 487 477 465 452 440 428 423 417 413 402 390 376 370 364 353 347 343 327 315 304 299 293 288 278 266 251 246 240 232 221 209 191 179 164 157 145 130 125 119 108 102 97 82 70 58 53 47 43 32 20 6
(fPositionHits.fBarNumber:fPositionHits.fPositionVector.fX {fPositionHits.fPositionVector.fX>\25550&&fPositionHits.fPositionVector.fX< 200&&bigcalClusters.fGoodLuciteTDCHit}) K NC gr  gr showpage
 gr 
%%Trailer
%%Pages:  1
 gr  gr  gr 
%%EOF
