73029
73030
73031
73032
73033
73034
72994
73035
73036
73037
73038
73039
73005
73040
73041
72936
72942
72943
72944
72945
72946
72947
72948
72950
72956
72957
72959
72960
72961
72918
72928
72949
72986
72992
72913
72914
72915
72916
72917
72919
72920
72921
72922
72923
72924
72925
72926
72929
72930
72931
72932
72933
72934
72935
72984
72985
72987
72988
72989
72990
72991
72999
73001
73002
73003
73004
73010
73011
73012
73013
73014
73015
73016
73017
73018
73019
73020
73022
73023
73024
73025
73028
