72984 4736.03 180.0
72985 4736.31 180.0
72986 4734.72 180.0
72987 4734.04 180.0
72988 4735.27 180.0 #
72989 4737.57 180.0
72990 4735.83 180.0
72991 4735.82 180.0
72992 4736.22 180.0
72999 4736.46 180.0
73001 4736.73 180.0
73002 4736.48 180.0
73003 4736.54 180.0
73004 4737.08 180.0
73005 4737.85 180.0

